\relax 
\providecommand\hyper@newdestlabel[2]{}
\AC@reset@newl@bel
\catcode`"\active
\providecommand\HyperFirstAtBeginDocument{\AtBeginDocument}
\HyperFirstAtBeginDocument{\ifx\hyper@anchor\@undefined
\global\let\oldcontentsline\contentsline
\gdef\contentsline#1#2#3#4{\oldcontentsline{#1}{#2}{#3}}
\global\let\oldnewlabel\newlabel
\gdef\newlabel#1#2{\newlabelxx{#1}#2}
\gdef\newlabelxx#1#2#3#4#5#6{\oldnewlabel{#1}{{#2}{#3}}}
\AtEndDocument{\ifx\hyper@anchor\@undefined
\let\contentsline\oldcontentsline
\let\newlabel\oldnewlabel
\fi}
\fi}
\global\let\hyper@last\relax 
\gdef\HyperFirstAtBeginDocument#1{#1}
\providecommand\HyField@AuxAddToFields[1]{}
\providecommand\HyField@AuxAddToCoFields[2]{}
\newacro{EV}[EV]{Electric Vehicle}
\newacro{Ni}[Ni]{Nickel}
\newacro{Li}[Li]{Lithium}
\newacro{$LiFePO_4$}[$LiFePO_4$]{Lithium-Iron Phosphate}
\newacro{$NiCd$}[$NiCd$]{Nickel Cadmium}
\newacro{Li-ion}[Li-ion]{Lithium-ion}
\newacro{SOA}[SOA]{Safe Operating Area}
\newacro{SOC}[SOC]{State of Charge}
\newacro{NTC}[NTC]{Negative Temperature Coefficient}
\newacro{PTC}[PTC]{Positive Temperature Coefficient}
\newacro{RTD}[RTD]{Resistance Temperature Detector}
\newacro{BMS}[BMS]{Battery Management System}
\newacro{SOH}[SOH]{State of Health}
\newacro{RUL}[RUL]{Remaining Useful Life}
\newacro{VMS}[VMS]{Vehicle Management System}
\newacro{ESIC}[ESIC]{Embedded System IC}
\newacro{DBMS}[DBMS]{Distributed Battery Management System}
\newacro{MMU}[MMU]{Module Management Unit}
\newacro{PMU}[PMU]{Pack Management Unit}
\newacro{CAN}[CAN]{Controller Area Network}
\newacro{PLC}[PLC]{Power Line Communication}
\newacro{IC}[IC]{Integrated Circuit}
\newacro{ASIC}[ASIC]{Application Specific Integrated Circuit}
\newacro{BJT}[BJT]{Bi-polar Junction Transistor}
\newacro{POST}[POST]{Power On Self Test}
\newacro{HVAC}[HVAC]{Heating Ventilation and Air conditioning}
\newacro{ADC}[ADC]{Analog to Digital Converter}
\newacro{Op-amp}[Op-amp]{Operational amplifier}
\newacro{CMRR}[CMRR]{Common Mode Rejection Ratio}
\newacro{ADC}[ADC]{Analogue to Digital Converter}
\newacro{DOD}[DOD]{Depth of Discharge}
\newacro{CSM}[CSM]{Current Shunt Monitor}
\newacro{OVP}[OVP]{Over Voltage Protection}
\newacro{UVP}[UVP]{Under Voltage Protection}
\newacro{OCV}[OCV]{Open Circuit Voltage}
\newacro{EKF}[EKF]{Extended Kalman Filtering}
\newacro{DAQ}[DAQ]{Data Acquisition Unit}
\newacro{PHM}[PHM]{Prognostic Health Management}
\newacro{EOL}[EOL]{End Of Life}
\newacro{MOSFET}[MOSFET]{Metal Oxide Semiconductor Field Effect Transistor}
\newacro{PWM}[PWM]{Pulse Width Modulated}
\newacro{ECU}[ECU]{Electronic Control Unit}
\newacro{SPI}[SPI]{Serial Peripheral Interface}
\newacro{I2C}[I2C]{Inter-Integrated Communication}
\newacro{PLC}[PLC]{Power Line Communication}
\newacro{MODEM}[MODEM]{Modulator Demodulator}
\newacro{EMI}[EMI]{Electro Magnetic Interference}
\newacro{DAC}[DAC]{Design Automation Conference}
\newacro{PFM}[PFM]{Pulse Frequency Modulator}
\select@language{ngerman}
\@writefile{toc}{\select@language{ngerman}}
\@writefile{lof}{\select@language{ngerman}}
\@writefile{lot}{\select@language{ngerman}}
\select@language{english}
\@writefile{toc}{\select@language{english}}
\@writefile{lof}{\select@language{english}}
\@writefile{lot}{\select@language{english}}
\select@language{english}
\@writefile{toc}{\select@language{english}}
\@writefile{lof}{\select@language{english}}
\@writefile{lot}{\select@language{english}}
\@writefile{toc}{\contentsline {chapter}{Abstract}{ii}{chapter*.1}}
\newlabel{sec:abstract}{{}{ii}{Abstract}{chapter*.1}{}}
\AC@undonewlabel{acro:MOSFET}
\newlabel{acro:MOSFET}{{}{ii}{Abstract}{section*.2}{}}
\acronymused{MOSFET}
\@writefile{toc}{\contentsline {chapter}{Acknowledgements}{iii}{chapter*.3}}
\newlabel{sec:Acknowledgements}{{}{iii}{Acknowledgements}{chapter*.3}{}}
\@writefile{toc}{\contentsline {chapter}{List of Tables}{vi}{chapter*.5}}
\citation{Cao2008}
\citation{Hsieh2002}
\citation{Brandl2012}
\citation{ourpaper2013}
\citation{Nishijima2000}
\citation{Steinhorst2014}
\citation{kutkut}
\citation{OlimexUserMan}
\@writefile{toc}{\contentsline {chapter}{List of Figures}{viii}{chapter*.6}}
\@writefile{toc}{\contentsline {chapter}{List of Acronyms}{viii}{chapter*.7}}
\@input{content/Introduction.aux}
\@input{content/BMSsystem.aux}
\@writefile{toc}{\contentsline {chapter}{\numberline {3}Idea and Architecture}{12}{chapter.3}}
\@writefile{lof}{\addvspace {10\p@ }}
\@writefile{lot}{\addvspace {10\p@ }}
\newlabel{sec:ESICdesign}{{3}{12}{Idea and Architecture}{chapter.3}{}}
\acronymused{BMS}
\@writefile{toc}{\contentsline {section}{\numberline {3.1}Idea}{12}{section.3.1}}
\newlabel{voltagemeasurementmodule}{{3.1}{12}{Idea}{section.3.1}{}}
\@writefile{lof}{\contentsline {figure}{\numberline {3.1}{\ignorespaces System Architecture\relax }}{12}{figure.caption.19}}
\newlabel{voltagemeasurement}{{3.1}{12}{System Architecture\relax }{figure.caption.19}{}}
\@writefile{toc}{\contentsline {subsection}{\numberline {3.1.1}System Architecture}{13}{subsection.3.1.1}}
\@writefile{toc}{\contentsline {section}{\numberline {3.2}Hardware Architecture}{13}{section.3.2}}
\@writefile{toc}{\contentsline {subsection}{\numberline {3.2.1}BMS Controller}{13}{subsection.3.2.1}}
\@writefile{lof}{\contentsline {figure}{\numberline {3.2}{\ignorespaces BMS Controller\relax }}{13}{figure.caption.20}}
\newlabel{voltagemeasurement}{{3.2}{13}{BMS Controller\relax }{figure.caption.20}{}}
\@writefile{toc}{\contentsline {subsection}{\numberline {3.2.2}PWM Controller}{14}{subsection.3.2.2}}
\@writefile{lof}{\contentsline {figure}{\numberline {3.3}{\ignorespaces PWM Controller\relax }}{14}{figure.caption.21}}
\newlabel{voltagemeasurement}{{3.3}{14}{PWM Controller\relax }{figure.caption.21}{}}
\@writefile{toc}{\contentsline {subsection}{\numberline {3.2.3}Communication Bus}{14}{subsection.3.2.3}}
\@writefile{toc}{\contentsline {subsection}{\numberline {3.2.4}Cell Balancing HW}{14}{subsection.3.2.4}}
\citation{kutkut}
\citation{kutkut}
\citation{kutkut}
\@writefile{lof}{\contentsline {figure}{\numberline {3.4}{\ignorespaces Communication Bus\relax }}{15}{figure.caption.22}}
\newlabel{voltagemeasurement}{{3.4}{15}{Communication Bus\relax }{figure.caption.22}{}}
\@writefile{lof}{\contentsline {figure}{\numberline {3.5}{\ignorespaces Cell Balancing HW\relax }}{15}{figure.caption.23}}
\newlabel{voltagemeasurement}{{3.5}{15}{Cell Balancing HW\relax }{figure.caption.23}{}}
\@writefile{lof}{\contentsline {figure}{\numberline {3.6}{\ignorespaces Non dissipative current diverter equalization scheme \cite  {kutkut}\relax }}{15}{figure.caption.24}}
\newlabel{voltagemeasurement}{{3.6}{15}{Non dissipative current diverter equalization scheme \cite {kutkut}\relax }{figure.caption.24}{}}
\@writefile{toc}{\contentsline {section}{\numberline {3.3}Software Architecture}{16}{section.3.3}}
\@writefile{lof}{\contentsline {figure}{\numberline {3.7}{\ignorespaces Multiple and Independent PWM Signal Generation Layered Architecture\relax }}{16}{figure.caption.25}}
\newlabel{voltagemeasurement}{{3.7}{16}{Multiple and Independent PWM Signal Generation Layered Architecture\relax }{figure.caption.25}{}}
\@writefile{toc}{\contentsline {subsection}{\numberline {3.3.1}Application Layer}{17}{subsection.3.3.1}}
\@writefile{toc}{\contentsline {subsection}{\numberline {3.3.2}Middleware Layer}{17}{subsection.3.3.2}}
\@writefile{toc}{\contentsline {subsection}{\numberline {3.3.3}Driver Layer}{17}{subsection.3.3.3}}
\@input{content/Implementation1.aux}
\@input{content/results.aux}
\@input{content/connclusion.aux}
\bibstyle{ieeetr}
\bibdata{library}
\bibcite{Cao2008}{1}
\bibcite{Hsieh2002}{2}
\bibcite{Brandl2012}{3}
\bibcite{ourpaper2013}{4}
\bibcite{Nishijima2000}{5}
\bibcite{Steinhorst2014}{6}
\bibcite{kutkut}{7}
\bibcite{OlimexUserMan}{8}
\bibcite{BatBal}{9}
\bibcite{MicroChipCellBal}{10}
\@writefile{toc}{\contentsline {chapter}{Bibliography}{54}{section*.81}}
\bibcite{BatManSys}{11}
\bibcite{Stanislav2012}{12}
\bibcite{Daowd}{13}
\bibcite{moore2001}{14}
\bibcite{Waichung}{15}
\bibcite{Phung}{16}
\bibcite{JianCao}{17}
\bibcite{Kobzev}{18}
\bibcite{Baughman}{19}
\bibcite{Pascual}{20}
\bibcite{Sang}{21}
\bibcite{NI}{22}
\bibcite{IntroPWM}{23}
\bibcite{DataSheet}{24}
\bibcite{API}{25}
\bibcite{Oscilloscope}{26}
