\relax 
\providecommand\hyper@newdestlabel[2]{}
\AC@reset@newl@bel
\catcode`"\active
\providecommand\HyperFirstAtBeginDocument{\AtBeginDocument}
\HyperFirstAtBeginDocument{\ifx\hyper@anchor\@undefined
\global\let\oldcontentsline\contentsline
\gdef\contentsline#1#2#3#4{\oldcontentsline{#1}{#2}{#3}}
\global\let\oldnewlabel\newlabel
\gdef\newlabel#1#2{\newlabelxx{#1}#2}
\gdef\newlabelxx#1#2#3#4#5#6{\oldnewlabel{#1}{{#2}{#3}}}
\AtEndDocument{\ifx\hyper@anchor\@undefined
\let\contentsline\oldcontentsline
\let\newlabel\oldnewlabel
\fi}
\fi}
\global\let\hyper@last\relax 
\gdef\HyperFirstAtBeginDocument#1{#1}
\providecommand\HyField@AuxAddToFields[1]{}
\providecommand\HyField@AuxAddToCoFields[2]{}
\newacro{EV}[EV]{Electric Vehicle}
\newacro{Ni}[Ni]{Nickel}
\newacro{Li}[Li]{Lithium}
\newacro{$LiFePO_4$}[$LiFePO_4$]{Lithium-Iron Phosphate}
\newacro{$NiCd$}[$NiCd$]{Nickel Cadmium}
\newacro{Li-ion}[Li-ion]{Lithium-ion}
\newacro{SOA}[SOA]{Safe Operating Area}
\newacro{SOC}[SOC]{State of Charge}
\newacro{NTC}[NTC]{Negative Temperature Coefficient}
\newacro{PTC}[PTC]{Positive Temperature Coefficient}
\newacro{RTD}[RTD]{Resistance Temperature Detector}
\newacro{BMS}[BMS]{Battery Management System}
\newacro{SOH}[SOH]{State of Health}
\newacro{RUL}[RUL]{Remaining Useful Life}
\newacro{VMS}[VMS]{Vehicle Management System}
\newacro{ESIC}[ESIC]{Embedded System IC}
\newacro{DBMS}[DBMS]{Distributed Battery Management System}
\newacro{MMU}[MMU]{Module Management Unit}
\newacro{PMU}[PMU]{Pack Management Unit}
\newacro{CAN}[CAN]{Controller Area Network}
\newacro{PLC}[PLC]{Power Line Communication}
\newacro{IC}[IC]{Integrated Circuit}
\newacro{ASIC}[ASIC]{Application Specific Integrated Circuit}
\newacro{BJT}[BJT]{Bi-polar Junction Transistor}
\newacro{POST}[POST]{Power On Self Test}
\newacro{HVAC}[HVAC]{Heating Ventilation and Air conditioning}
\newacro{ADC}[ADC]{Analog to Digital Converter}
\newacro{Op-amp}[Op-amp]{Operational amplifier}
\newacro{CMRR}[CMRR]{Common Mode Rejection Ratio}
\newacro{ADC}[ADC]{Analogue to Digital Converter}
\newacro{DOD}[DOD]{Depth of Discharge}
\newacro{CSM}[CSM]{Current Shunt Monitor}
\newacro{OVP}[OVP]{Over Voltage Protection}
\newacro{UVP}[UVP]{Under Voltage Protection}
\newacro{OCV}[OCV]{Open Circuit Voltage}
\newacro{EKF}[EKF]{Extended Kalman Filtering}
\newacro{DAQ}[DAQ]{Data Acquisition Unit}
\newacro{PHM}[PHM]{Prognostic Health Management}
\newacro{EOL}[EOL]{End Of Life}
\newacro{MOSFET}[MOSFET]{Metal Oxide Semiconductor Field Effect Transistor}
\newacro{PWM}[PWM]{Pulse Width Modulated}
\newacro{ECU}[ECU]{Electronic Control Unit}
\newacro{SPI}[SPI]{Serial Peripheral Interface}
\newacro{I2C}[I2C]{Inter-Integrated Communication}
\newacro{PLC}[PLC]{Power Line Communication}
\newacro{MODEM}[MODEM]{Modulator Demodulator}
\newacro{EMI}[EMI]{Electro Magnetic Interference}
\newacro{DAC}[DAC]{Design Automation Conference}
\newacro{PFM}[PFM]{Pulse Frequency Modulator}
\select@language{ngerman}
\@writefile{toc}{\select@language{ngerman}}
\@writefile{lof}{\select@language{ngerman}}
\@writefile{lot}{\select@language{ngerman}}
\select@language{english}
\@writefile{toc}{\select@language{english}}
\@writefile{lof}{\select@language{english}}
\@writefile{lot}{\select@language{english}}
\select@language{english}
\@writefile{toc}{\select@language{english}}
\@writefile{lof}{\select@language{english}}
\@writefile{lot}{\select@language{english}}
\@writefile{toc}{\contentsline {chapter}{Abstract}{ii}{chapter*.1}}
\newlabel{sec:abstract}{{}{ii}{Abstract}{chapter*.1}{}}
\AC@undonewlabel{acro:BMS}
\newlabel{acro:BMS}{{}{ii}{Abstract}{section*.2}{}}
\acronymused{BMS}
\AC@undonewlabel{acro:DBMS}
\newlabel{acro:DBMS}{{}{ii}{Abstract}{section*.3}{}}
\acronymused{DBMS}
\AC@undonewlabel{acro:EV}
\newlabel{acro:EV}{{}{ii}{Abstract}{section*.4}{}}
\acronymused{EV}
\acronymused{BMS}
\acronymused{BMS}
\@writefile{toc}{\contentsline {chapter}{Acknowledgements}{iii}{chapter*.5}}
\newlabel{sec:Acknowledgements}{{}{iii}{Acknowledgements}{chapter*.5}{}}
\@writefile{toc}{\contentsline {chapter}{List of Tables}{vi}{chapter*.7}}
\@writefile{toc}{\contentsline {chapter}{List of Figures}{vii}{chapter*.8}}
\@writefile{toc}{\contentsline {chapter}{List of Acronyms}{viii}{chapter*.9}}
\@input{content/Introduction.aux}
\@input{content/BMSsystem.aux}
\@writefile{toc}{\contentsline {chapter}{\numberline {3}Idea and Architecture}{12}{chapter.3}}
\@writefile{lof}{\addvspace {10\p@ }}
\@writefile{lot}{\addvspace {10\p@ }}
\newlabel{sec:ESICdesign}{{3}{12}{Idea and Architecture}{chapter.3}{}}
\@writefile{toc}{\contentsline {section}{\numberline {3.1}Idea}{12}{section.3.1}}
\newlabel{voltagemeasurementmodule}{{3.1}{12}{Idea}{section.3.1}{}}
\@writefile{toc}{\contentsline {subsection}{\numberline {3.1.1}System Architecture}{12}{subsection.3.1.1}}
\@writefile{lof}{\contentsline {figure}{\numberline {3.1}{\ignorespaces System Architecture\relax }}{13}{figure.caption.17}}
\newlabel{voltagemeasurement}{{3.1}{13}{System Architecture\relax }{figure.caption.17}{}}
\@writefile{toc}{\contentsline {section}{\numberline {3.2}Hardware Architecture}{13}{section.3.2}}
\@writefile{toc}{\contentsline {subsection}{\numberline {3.2.1}BMS Controller}{13}{subsection.3.2.1}}
\@writefile{lof}{\contentsline {figure}{\numberline {3.2}{\ignorespaces BMS Controller\relax }}{14}{figure.caption.18}}
\newlabel{voltagemeasurement}{{3.2}{14}{BMS Controller\relax }{figure.caption.18}{}}
\@writefile{toc}{\contentsline {subsection}{\numberline {3.2.2}PWM Controller}{14}{subsection.3.2.2}}
\@writefile{lof}{\contentsline {figure}{\numberline {3.3}{\ignorespaces PWM Controller\relax }}{14}{figure.caption.19}}
\newlabel{voltagemeasurement}{{3.3}{14}{PWM Controller\relax }{figure.caption.19}{}}
\@writefile{toc}{\contentsline {subsection}{\numberline {3.2.3}Communication Bus}{14}{subsection.3.2.3}}
\@writefile{lof}{\contentsline {figure}{\numberline {3.4}{\ignorespaces Communication Bus\relax }}{15}{figure.caption.20}}
\newlabel{voltagemeasurement}{{3.4}{15}{Communication Bus\relax }{figure.caption.20}{}}
\@writefile{toc}{\contentsline {subsection}{\numberline {3.2.4}Cell Balancing HW}{15}{subsection.3.2.4}}
\@writefile{lof}{\contentsline {figure}{\numberline {3.5}{\ignorespaces Cell Balancing HW\relax }}{15}{figure.caption.21}}
\newlabel{voltagemeasurement}{{3.5}{15}{Cell Balancing HW\relax }{figure.caption.21}{}}
\@writefile{toc}{\contentsline {section}{\numberline {3.3}Software Architecture}{15}{section.3.3}}
\@writefile{lof}{\contentsline {figure}{\numberline {3.6}{\ignorespaces Software Architecture\relax }}{16}{figure.caption.22}}
\newlabel{voltagemeasurement}{{3.6}{16}{Software Architecture\relax }{figure.caption.22}{}}
\@writefile{toc}{\contentsline {subsection}{\numberline {3.3.1}Application Layer}{16}{subsection.3.3.1}}
\@writefile{toc}{\contentsline {subsection}{\numberline {3.3.2}Middleware Layer}{16}{subsection.3.3.2}}
\@writefile{toc}{\contentsline {subsection}{\numberline {3.3.3}Driver Layer}{17}{subsection.3.3.3}}
\@input{content/Implementation1.aux}
\@input{content/results.aux}
\@input{content/connclusion.aux}
\bibstyle{ieeetr}
\bibdata{library}
\bibcite{AllegroDS}{1}
\bibcite{battemp}{2}
\bibcite{RTDchar}{3}
\bibcite{MicroRTD}{4}
\bibcite{Lorentz}{5}
\bibcite{cellmodel}{6}
\bibcite{model}{7}
\bibcite{Patti}{8}
\bibcite{andrea2010}{9}
\bibcite{Meyer}{10}
\@writefile{toc}{\contentsline {chapter}{Bibliography}{47}{section*.74}}
\bibcite{Brandl}{11}
\bibcite{DBG2000}{12}
\bibcite{Baronti}{13}
\bibcite{Hande2006}{14}
\bibcite{dobkin2011analog}{15}
\bibcite{Wang2002253}{16}
\bibcite{Malo2001}{17}
\bibcite{johns1997analog}{18}
\bibcite{WangStuart}{19}
\bibcite{currmeas}{20}
\bibcite{PatelA}{21}
\bibcite{Zetex}{22}
\bibcite{Highside}{23}
\bibcite{Dost}{24}
\bibcite{Radun}{25}
\bibcite{Laimer}{26}
\bibcite{Magneto}{27}
\bibcite{Infineon}{28}
\bibcite{CurrentTx}{29}
\bibcite{Batsafety}{30}
\bibcite{Szente}{31}
\bibcite{SOCtemp}{32}
\bibcite{Thermimage}{33}
\bibcite{Jia}{34}
\bibcite{fraden}{35}
\bibcite{Speltino}{36}
\bibcite{SOCcomparison}{37}
\bibcite{zhengBo}{38}
\bibcite{zhang}{39}
\bibcite{Willihnganz}{40}
\bibcite{Kunihiro}{41}
\bibcite{Huet199859}{42}
\bibcite{Salkind1999293}{43}
\bibcite{ehret1999state}{44}
\bibcite{Spagnol}{45}
\bibcite{Kalman}{46}
\bibcite{Codeca}{47}
\bibcite{Plett1}{48}
\bibcite{Plett2}{49}
\bibcite{Plett3}{50}
\bibcite{Qing}{51}
\bibcite{pop2007}{52}
\bibcite{coup}{53}
\bibcite{Band}{54}
\bibcite{Spectro}{55}
\bibcite{Huet}{56}
\bibcite{Bose}{57}
\bibcite{Fuzzy}{58}
\bibcite{Banaei}{59}
\bibcite{tse1999prediction}{60}
\bibcite{de1991analysis}{61}
\bibcite{liulithium}{62}
\bibcite{rao1981theory}{63}
\bibcite{Penna}{64}
\bibcite{Goebel}{65}
\bibcite{uckun}{66}
\bibcite{linden2001handbook}{67}
\bibcite{Daowd}{68}
\bibcite{moore2001}{69}
\bibcite{Waichung}{70}
\bibcite{Phung}{71}
\bibcite{Kobzev}{72}
\bibcite{Baughman}{73}
\bibcite{Pascual}{74}
\bibcite{kutkut}{75}
\bibcite{Sang}{76}
\bibcite{Jong}{77}
\bibcite{JianCao}{78}
\bibcite{Yuang}{79}
\bibcite{WeiHong}{80}
\bibcite{Xilu}{81}
\bibcite{arduino}{82}
\bibcite{currentsensor}{83}
\bibcite{therm}{84}
\bibcite{ourpaper}{85}
\bibcite{engelhardt2008ltspice}{86}
\bibcite{guide1998mathworks}{87}
\bibcite{sybille2001simpower}{88}
\bibcite{miller2008modeling}{89}
\bibcite{A123}{90}
\bibcite{mosfet}{91}
\bibcite{ncp1402}{92}
\bibcite{break}{93}
\bibcite{zigbee}{94}
\bibcite{ferrari2008non}{95}
\bibcite{ez430}{96}
\bibcite{Eload}{97}
\bibcite{PS}{98}
\bibcite{memmert}{99}
\bibcite{ogata2002modern}{100}
