t	i	extra
0.0	5.0	0.129793815489
0.000194788117293	4.99239367958	0.0
0.000389576234586	4.98478767028	0
0.000584364351879	4.97718197208	0
0.000779152469172	4.96957658497	0
0.000973940586464	4.96197150893	0
0.00116872870376	4.95436674396	0
0.00136351682105	4.94676229004	0
0.00155830493834	4.93915814716	0
0.00175309305564	4.93155431531	0
0.00194788117293	4.92395079447	0
0.00214266929022	4.91634758463	0
0.00233745740751	4.90874468578	0
0.00253224552481	4.9011420979	0
0.0027270336421	4.89353982099	0
0.00292182175939	4.88593785503	0
0.00311660987669	4.8783362	0
0.00331139799398	4.8707348559	0
0.00350618611127	4.86313382271	0
0.00370097422856	4.85553310042	0
0.00389576234586	4.84793268902	0
0.00409055046315	4.84033258849	0
0.00428533858044	4.83273279882	0
0.00448012669774	4.82513332	0
0.00467491481503	4.81753415202	0
0.00486970293232	4.80993529486	0
0.00506449104961	4.80233674851	0
0.00525927916691	4.79473851296	0
0.0054540672842	4.78714058819	0
0.00564885540149	4.7795429742	0
0.00584364351879	4.77194567096	0
0.00603843163608	4.76434867848	0
0.00623321975337	4.75675199672	0
0.00642800787066	4.74915562569	0
0.00662279598796	4.74155956537	0
0.00681758410525	4.73396381574	0
0.00701237222254	4.7263683768	0
0.00720716033984	4.71877324853	0
0.00740194845713	4.71117843091	0
0.00759673657442	4.70358392395	0
0.00779152469172	4.69598972761	0
0.00798631280901	4.6883958419	0
0.0081811009263	4.68080226679	0
0.00837588904359	4.67320900228	0
0.00857067716089	4.66561604835	0
0.00876546527818	4.65802340499	0
0.00896025339547	4.65043107219	0
0.00915504151277	4.64283904993	0
0.00934982963006	4.6352473382	0
0.00954461774735	4.62765593699	0
0.00973940586464	4.62006484629	0
0.00993419398194	4.61247406608	0
0.0101289820992	4.60488359635	0
0.0103237702165	4.59729343709	0
0.0105185583338	4.58970358829	0
0.0107133464511	4.58211404993	0
0.0109081345684	4.57452482199	0
0.0111029226857	4.56693590448	0
0.011297710803	4.55934729737	0
0.0114924989203	4.55175900065	0
0.0116872870376	4.54417101432	0
0.0118820751549	4.53658333835	0
0.0120768632722	4.52899597273	0
0.0122716513895	4.52140891745	0
0.0124664395067	4.51382217251	0
0.012661227624	4.50623573788	0
0.0128560157413	4.49864961355	0
0.0130508038586	4.49106379952	0
0.0132455919759	4.48347829576	0
0.0134403800932	4.47589310227	0
0.0136351682105	4.46830821903	0
0.0138299563278	4.46072364603	0
0.0140247444451	4.45313938326	0
0.0142195325624	4.4455554307	0
0.0144143206797	4.43797178835	0
0.014609108797	4.43038845618	0
0.0148038969143	4.42280543419	0
0.0149986850316	4.41522272237	0
0.0151934731488	4.4076403207	0
0.0153882612661	4.40005822916	0
0.0155830493834	4.39247644776	0
0.0157778375007	4.38489497646	0
0.015972625618	4.37731381527	0
0.0161674137353	4.36973296416	0
0.0163622018526	4.36215242314	0
0.0165569899699	4.35457219217	0
0.0167517780872	4.34699227125	0
0.0169465662045	4.33941266038	0
0.0171413543218	4.33183335952	0
0.0173361424391	4.32425436868	0
0.0175309305564	4.31667568784	0
0.0177257186737	4.30909731699	0
0.0179205067909	4.30151925611	0
0.0181152949082	4.29394150519	0
0.0183100830255	4.28636406422	0
0.0185048711428	4.27878693319	0
0.0186996592601	4.27121011208	0
0.0188944473774	4.26363360089	0
0.0190892354947	4.25605739959	0
0.019284023612	4.24848150818	0
0.0194788117293	4.24090592664	0
0.0196735998466	4.23333065496	0
0.0198683879639	4.22575569313	0
0.0200631760812	4.21818104113	0
0.0202579641985	4.21060669896	0
0.0204527523158	4.20303266659	0
0.020647540433	4.19545894403	0
0.0208423285503	4.18788553125	0
0.0210371166676	4.18031242824	0
0.0212319047849	4.17273963499	0
0.0214266929022	4.16516715148	0
0.0216214810195	4.15759497772	0
0.0218162691368	4.15002311367	0
0.0220110572541	4.14245155933	0
0.0222058453714	4.13488031469	0
0.0224006334887	4.12730937973	0
0.022595421606	4.11973875444	0
0.0227902097233	4.11216843881	0
0.0229849978406	4.10459843283	0
0.0231797859579	4.09702873648	0
0.0233745740751	4.08945934975	0
0.0235693621924	4.08189027262	0
0.0237641503097	4.07432150509	0
0.023958938427	4.06675304715	0
0.0241537265443	4.05918489877	0
0.0243485146616	4.05161705996	0
0.0245433027789	4.04404953068	0
0.0247380908962	4.03648231094	0
0.0249328790135	4.02891540072	0
0.0251276671308	4.0213488	0
0.0253224552481	4.01378250878	0
0.0255172433654	4.00621652704	0
0.0257120314827	3.99865085477	0
0.0259068196	3.99108549195	0
0.0261016077172	3.98352043858	0
0.0262963958345	3.97595569464	0
0.0264911839518	3.96839126012	0
0.0266859720691	3.960827135	0
0.0268807601864	3.95326331928	0
0.0270755483037	3.94569981293	0
0.027270336421	3.93813661596	0
0.0274651245383	3.93057372834	0
0.0276599126556	3.92301115006	0
0.0278547007729	3.91544888111	0
0.0280494888902	3.90788692148	0
0.0282442770075	3.90032527115	0
0.0284390651248	3.89276393012	0
0.0286338532421	3.88520289836	0
0.0288286413593	3.87764217587	0
0.0290234294766	3.87008176264	0
0.0292182175939	3.86252165864	0
0.0294130057112	3.85496186388	0
0.0296077938285	3.84740237833	0
0.0298025819458	3.83984320199	0
0.0299973700631	3.83228433484	0
0.0301921581804	3.82472577686	0
0.0303869462977	3.81716752805	0
0.030581734415	3.8096095884	0
0.0307765225323	3.80205195788	0
0.0309713106496	3.79449463649	0
0.0311660987669	3.78693762422	0
0.0313608868842	3.77938092105	0
0.0315556750014	3.77182452697	0
0.0317504631187	3.76426844197	0
0.031945251236	3.75671266604	0
0.0321400393533	3.74915719915	0
0.0323348274706	3.74160204131	0
0.0325296155879	3.73404719249	0
0.0327244037052	3.72649265268	0
0.0329191918225	3.71893842188	0
0.0331139799398	3.71138450007	0
0.0333087680571	3.70383088723	0
0.0335035561744	3.69627758336	0
0.0336983442917	3.68872458844	0
0.033893132409	3.68117190246	0
0.0340879205263	3.6736195254	0
0.0342827086435	3.66606745726	0
0.0344774967608	3.65851569802	0
0.0346722848781	3.65096424767	0
0.0348670729954	3.64341310619	0
0.0350618611127	3.63586227358	0
0.03525664923	3.62831174981	0
0.0354514373473	3.62076153489	0
0.0356462254646	3.61321162879	0
0.0358410135819	3.6056620315	0
0.0360358016992	3.59811274301	0
0.0362305898165	3.59056376331	0
0.0364253779338	3.58301509239	0
0.0366201660511	3.57546673023	0
0.0368149541684	3.56791867681	0
0.0370097422856	3.56037093214	0
0.0372045304029	3.55282349618	0
0.0373993185202	3.54527636895	0
0.0375941066375	3.5377295504	0
0.0377888947548	3.53018304055	0
0.0379836828721	3.52263683937	0
0.0381784709894	3.51509094685	0
0.0383732591067	3.50754536298	0
0.038568047224	3.50000008775	0
0.0387628353413	3.49245512114	0
0.0389576234586	3.48491046314	0
0.0391524115759	3.47736611374	0
0.0393471996932	3.46982207293	0
0.0395419878105	3.46227834069	0
0.0397367759277	3.45473491701	0
0.039931564045	3.44719180188	0
0.0401263521623	3.43964899528	0
0.0403211402796	3.43210649721	0
0.0405159283969	3.42456430765	0
0.0407107165142	3.41702242658	0
0.0409055046315	3.409480854	0
0.0411002927488	3.40193958989	0
0.0412950808661	3.39439863425	0
0.0414898689834	3.38685798705	0
0.0416846571007	3.37931764828	0
0.041879445218	3.37177761794	0
0.0420742333353	3.36423789601	0
0.0422690214526	3.35669848247	0
0.0424638095698	3.34915937732	0
0.0426585976871	3.34162058054	0
0.0428533858044	3.33408209212	0
0.0430481739217	3.32654391205	0
0.043242962039	3.31900604031	0
0.0434377501563	3.31146847689	0
0.0436325382736	3.30393122178	0
0.0438273263909	3.29639427497	0
0.0440221145082	3.28885763644	0
0.0442169026255	3.28132130618	0
0.0444116907428	3.27378528418	0
0.0446064788601	3.26624957043	0
0.0448012669774	3.25871416491	0
0.0449960550947	3.25117906761	0
0.0451908432119	3.24364427852	0
0.0453856313292	3.23610979763	0
0.0455804194465	3.22857562491	0
0.0457752075638	3.22104176037	0
0.0459699956811	3.21350820399	0
0.0461647837984	3.20597495575	0
0.0463595719157	3.19844201565	0
0.046554360033	3.19090938366	0
0.0467491481503	3.18337705979	0
0.0469439362676	3.17584504401	0
0.0471387243849	3.16831333631	0
0.0473335125022	3.16078193668	0
0.0475283006195	3.15325084511	0
0.0477230887368	3.14572006158	0
0.047917876854	3.13818958609	0
0.0481126649713	3.13065941861	0
0.0483074530886	3.12312955915	0
0.0485022412059	3.11560000767	0
0.0486970293232	3.10807076418	0
0.0488918174405	3.10054182866	0
0.0490866055578	3.09301320109	0
0.0492813936751	3.08548488147	0
0.0494761817924	3.07795686979	0
0.0496709699097	3.07042916602	0
0.049865758027	3.06290177015	0
0.0500605461443	3.05537468218	0
0.0502553342616	3.0478479021	0
0.0504501223789	3.04032142988	0
0.0506449104961	3.03279526552	0
0.0508396986134	3.025269409	0
0.0510344867307	3.01774386031	0
0.051229274848	3.01021861944	0
0.0514240629653	3.00269368638	0
0.0516188510826	2.99516906111	0
0.0518136391999	2.98764474362	0
0.0520084273172	2.9801207339	0
0.0522032154345	2.97259703194	0
0.0523980035518	2.96507363772	0
0.0525927916691	2.95755055123	0
0.0527875797864	2.95002777245	0
0.0529823679037	2.94250530139	0
0.053177156021	2.93498313801	0
0.0533719441382	2.92746128232	0
0.0535667322555	2.9199397343	0
0.0537615203728	2.91241849393	0
0.0539563084901	2.9048975612	0
0.0541510966074	2.8973769361	0
0.0543458847247	2.88985661862	0
0.054540672842	2.88233660875	0
0.0547354609593	2.87481690647	0
0.0549302490766	2.86729751177	0
0.0551250371939	2.85977842463	0
0.0553198253112	2.85225964505	0
0.0555146134285	2.84474117302	0
0.0557094015458	2.83722300851	0
0.0559041896631	2.82970515152	0
0.0560989777803	2.82218760204	0
0.0562937658976	2.81467036004	0
0.0564885540149	2.80715342553	0
0.0566833421322	2.79963679848	0
0.0568781302495	2.79212047889	0
0.0570729183668	2.78460446674	0
0.0572677064841	2.77708876202	0
0.0574624946014	2.76957336472	0
0.0576572827187	2.76205827482	0
0.057852070836	2.75454349231	0
0.0580468589533	2.74702901719	0
0.0582416470706	2.73951484943	0
0.0584364351879	2.73200098902	0
0.0586312233052	2.72448743595	0
0.0588260114224	2.71697419022	0
0.0590207995397	2.7094612518	0
0.059215587657	2.70194862068	0
0.0594103757743	2.69443629686	0
0.0596051638916	2.68692428031	0
0.0597999520089	2.67941257103	0
0.0599947401262	2.67190116901	0
0.0601895282435	2.66439007422	0
0.0603843163608	2.65687928667	0
0.0605791044781	2.64936880633	0
0.0607738925954	2.64185863319	0
0.0609686807127	2.63434876725	0
0.06116346883	2.62683920848	0
0.0613582569473	2.61932995688	0
0.0615530450645	2.61182101243	0
0.0617478331818	2.60431237513	0
0.0619426212991	2.59680404495	0
0.0621374094164	2.58929602189	0
0.0623321975337	2.58178830593	0
0.062526985651	2.57428089707	0
0.0627217737683	2.56677379528	0
0.0629165618856	2.55926700056	0
0.0631113500029	2.55176051289	0
0.0633061381202	2.54425433226	0
0.0635009262375	2.53674845866	0
0.0636957143548	2.52924289207	0
0.0638905024721	2.52173763249	0
0.0640852905894	2.5142326799	0
0.0642800787066	2.50672803428	0
0.0644748668239	2.49922369564	0
0.0646696549412	2.49171966394	0
0.0648644430585	2.48421593919	0
0.0650592311758	2.47671252136	0
0.0652540192931	2.46920941045	0
0.0654488074104	2.46170660644	0
0.0656435955277	2.45420410933	0
0.065838383645	2.44670191909	0
0.0660331717623	2.43920003571	0
0.0662279598796	2.43169845919	0
0.0664227479969	2.42419718951	0
0.0666175361142	2.41669622665	0
0.0668123242315	2.40919557062	0
0.0670071123487	2.40169522138	0
0.067201900466	2.39419517893	0
0.0673966885833	2.38669544327	0
0.0675914767006	2.37919601436	0
0.0677862648179	2.37169689221	0
0.0679810529352	2.3641980768	0
0.0681758410525	2.35669956812	0
0.0683706291698	2.34920136615	0
0.0685654172871	2.34170347089	0
0.0687602054044	2.33420588231	0
0.0689549935217	2.32670860042	0
0.069149781639	2.31921162518	0
0.0693445697563	2.3117149566	0
0.0695393578736	2.30421859466	0
0.0697341459908	2.29672253935	0
0.0699289341081	2.28922679066	0
0.0701237222254	2.28173134856	0
0.0703185103427	2.27423621305	0
0.07051329846	2.26674138413	0
0.0707080865773	2.25924686176	0
0.0709028746946	2.25175264595	0
0.0710976628119	2.24425873668	0
0.0712924509292	2.23676513394	0
0.0714872390465	2.22927183771	0
0.0716820271638	2.22177884799	0
0.0718768152811	2.21428616475	0
0.0720716033984	2.20679378799	0
0.0722663915157	2.1993017177	0
0.072461179633	2.19180995385	0
0.0726559677502	2.18431849645	0
0.0728507558675	2.17682734548	0
0.0730455439848	2.16933650092	0
0.0732403321021	2.16184596276	0
0.0734351202194	2.15435573099	0
0.0736299083367	2.1468658056	0
0.073824696454	2.13937618658	0
0.0740194845713	2.1318868739	0
0.0742142726886	2.12439786757	0
0.0744090608059	2.11690916756	0
0.0746038489232	2.10942077387	0
0.0747986370405	2.10193268648	0
0.0749934251578	2.09444490538	0
0.0751882132751	2.08695743056	0
0.0753830013923	2.079470262	0
0.0755777895096	2.0719833997	0
0.0757725776269	2.06449684363	0
0.0759673657442	2.05701059379	0
0.0761621538615	2.04952465017	0
0.0763569419788	2.04203901275	0
0.0765517300961	2.03455368151	0
0.0767465182134	2.02706865646	0
0.0769413063307	2.01958393757	0
0.077136094448	2.01209952483	0
0.0773308825653	2.00461541824	0
0.0775256706826	1.99713161777	0
0.0777204587999	1.98964812341	0
0.0779152469172	1.98216493516	0
0.0781100350344	1.97468205299	0
0.0783048231517	1.96719947691	0
0.078499611269	1.95971720689	0
0.0786943993863	1.95223524292	0
0.0788891875036	1.94475358499	0
0.0790839756209	1.93727223309	0
0.0792787637382	1.9297911872	0
0.0794735518555	1.92231044731	0
0.0796683399728	1.91483001342	0
0.0798631280901	1.9073498855	0
0.0800579162074	1.89987006355	0
0.0802527043247	1.89239054755	0
0.080447492442	1.88491133749	0
0.0806422805593	1.87743243336	0
0.0808370686765	1.86995383514	0
0.0810318567938	1.86247554283	0
0.0812266449111	1.8549975564	0
0.0814214330284	1.84751987585	0
0.0816162211457	1.84004250117	0
0.081811009263	1.83256543234	0
0.0820057973803	1.82508866935	0
0.0822005854976	1.81761221219	0
0.0823953736149	1.81013606084	0
0.0825901617322	1.8026602153	0
0.0827849498495	1.79518467554	0
0.0829797379668	1.78770944157	0
0.0831745260841	1.78023451335	0
0.0833693142014	1.7727598909	0
0.0835641023186	1.76528557418	0
0.0837588904359	1.75781156319	0
0.0839536785532	1.75033785791	0
0.0841484666705	1.74286445834	0
0.0843432547878	1.73539136446	0
0.0845380429051	1.72791857625	0
0.0847328310224	1.72044609371	0
0.0849276191397	1.71297391682	0
0.085122407257	1.70550204558	0
0.0853171953743	1.69803047996	0
0.0855119834916	1.69055921996	0
0.0857067716089	1.68308826556	0
0.0859015597262	1.67561761675	0
0.0860963478435	1.66814727352	0
0.0862911359607	1.66067723585	0
0.086485924078	1.65320750374	0
0.0866807121953	1.64573807717	0
0.0868755003126	1.63826895613	0
0.0870702884299	1.6308001406	0
0.0872650765472	1.62333163057	0
0.0874598646645	1.61586342604	0
0.0876546527818	1.60839552698	0
0.0878494408991	1.60092793339	0
0.0880442290164	1.59346064526	0
0.0882390171337	1.58599366256	0
0.088433805251	1.57852698529	0
0.0886285933683	1.57106061344	0
0.0888233814856	1.563594547	0
0.0890181696028	1.55612878594	0
0.0892129577201	1.54866333026	0
0.0894077458374	1.54119817995	0
0.0896025339547	1.53373333499	0
0.089797322072	1.52626879537	0
0.0899921101893	1.51880456109	0
0.0901868983066	1.51134063211	0
0.0903816864239	1.50387700845	0
0.0905764745412	1.49641369007	0
0.0907712626585	1.48895067697	0
0.0909660507758	1.48148796914	0
0.0911608388931	1.47402556656	0
0.0913556270104	1.46656346923	0
0.0915504151277	1.45910167712	0
0.0917452032449	1.45164019023	0
0.0919399913622	1.44417900854	0
0.0921347794795	1.43671813205	0
0.0923295675968	1.42925756073	0
0.0925243557141	1.42179729458	0
0.0927191438314	1.41433733359	0
0.0929139319487	1.40687767774	0
0.093108720066	1.39941832701	0
0.0933035081833	1.39195928141	0
0.0934982963006	1.38450054091	0
0.0936930844179	1.3770421055	0
0.0938878725352	1.36958397517	0
0.0940826606525	1.3621261499	0
0.0942774487698	1.3546686297	0
0.094472236887	1.34721141453	0
0.0946670250043	1.33975450439	0
0.0948618131216	1.33229789928	0
0.0950566012389	1.32484159916	0
0.0952513893562	1.31738560404	0
0.0954461774735	1.3099299139	0
0.0956409655908	1.30247452873	0
0.0958357537081	1.29501944851	0
0.0960305418254	1.28756467323	0
0.0962253299427	1.28011020288	0
0.09642011806	1.27265603746	0
0.0966149061773	1.26520217693	0
0.0968096942946	1.2577486213	0
0.0970044824119	1.25029537056	0
0.0971992705291	1.24284242467	0
0.0973940586464	1.23538978365	0
0.0975888467637	1.22793744747	0
0.097783634881	1.22048541611	0
0.0979784229983	1.21303368958	0
0.0981732111156	1.20558226785	0
0.0983679992329	1.19813115092	0
0.0985627873502	1.19068033876	0
0.0987575754675	1.18322983138	0
0.0989523635848	1.17577962875	0
0.0991471517021	1.16832973086	0
0.0993419398194	1.16088013771	0
0.0995367279367	1.15343084927	0
0.099731516054	1.14598186554	0
0.0999263041712	1.13853318651	0
0.100121092289	1.13108481216	0
0.100315880406	1.12363674247	0
0.100510668523	1.11618897744	0
0.10070545664	1.10874151706	0
0.100900244758	1.1012943613	0
0.101095032875	1.09384751017	0
0.101289820992	1.08640096364	0
0.10148460911	1.07895472171	0
0.101679397227	1.07150878436	0
0.101874185344	1.06406315158	0
0.102068973461	1.05661782336	0
0.102263761579	1.04917279968	0
0.102458549696	1.04172808053	0
0.102653337813	1.03428366591	0
0.102848125931	1.02683955579	0
0.103042914048	1.01939575016	0
0.103237702165	1.01195224902	0
0.103432490283	1.00450905235	0
0.1036272784	0.997066160133	0
0.103822066517	0.989623572364	0
0.104016854634	0.982181289028	0
0.104211642752	0.974739310112	0
0.104406430869	0.967297635604	0
0.104601218986	0.959856265492	0
0.104796007104	0.952415199763	0
0.104990795221	0.944974438404	0
0.105185583338	0.937533981404	0
0.105380371455	0.93009382875	0
0.105575159573	0.922653980429	0
0.10576994769	0.915214436429	0
0.105964735807	0.907775196738	0
0.106159523925	0.900336261343	0
0.106354312042	0.892897630232	0
0.106549100159	0.885459303392	0
0.106743888276	0.878021280811	0
0.106938676394	0.870583562477	0
0.107133464511	0.863146148376	0
0.107328252628	0.855709038498	0
0.107523040746	0.848272232828	0
0.107717828863	0.840835731356	0
0.10791261698	0.833399534068	0
0.108107405098	0.825963640952	0
0.108302193215	0.818528051995	0
0.108496981332	0.811092767186	0
0.108691769449	0.803657786511	0
0.108886557567	0.796223109959	0
0.109081345684	0.788788737517	0
0.109276133801	0.781354669172	0
0.109470921919	0.773920904913	0
0.109665710036	0.766487444726	0
0.109860498153	0.7590542886	0
0.11005528627	0.751621436521	0
0.110250074388	0.744188888478	0
0.110444862505	0.736756644458	0
0.110639650622	0.729324704449	0
0.11083443874	0.721893068438	0
0.111029226857	0.714461736413	0
0.111224014974	0.707030708361	0
0.111418803092	0.69959998427	0
0.111613591209	0.692169564128	0
0.111808379326	0.684739447922	0
0.112003167443	0.677309635641	0
0.112197955561	0.66988012727	0
0.112392743678	0.662450922799	0
0.112587531795	0.655022022214	0
0.112782319913	0.647593425503	0
0.11297710803	0.640165132654	0
0.113171896147	0.632737143655	0
0.113366684264	0.625309458493	0
0.113561472382	0.617882077155	0
0.113756260499	0.610454999629	0
0.113951048616	0.603028225904	0
0.114145836734	0.595601755966	0
0.114340624851	0.588175589802	0
0.114535412968	0.580749727402	0
0.114730201086	0.573324168751	0
0.114924989203	0.565898913839	0
0.11511977732	0.558473962652	0
0.115314565437	0.551049315178	0
0.115509353555	0.543624971404	0
0.115704141672	0.536200931319	0
0.115898929789	0.52877719491	0
0.116093717907	0.521353762164	0
0.116288506024	0.51393063307	0
0.116483294141	0.506507807613	0
0.116678082258	0.499085285784	0
0.116872870376	0.491663067568	0
0.117067658493	0.484241152954	0
0.11726244661	0.476819541928	0
0.117457234728	0.46939823448	0
0.117652022845	0.461977230596	0
0.117846810962	0.454556530263	0
0.118041599079	0.447136133471	0
0.118236387197	0.439716040205	0
0.118431175314	0.432296250455	0
0.118625963431	0.424876764206	0
0.118820751549	0.417457581448	0
0.119015539666	0.410038702167	0
0.119210327783	0.402620126352	0
0.119405115901	0.395201853989	0
0.119599904018	0.387783885067	0
0.119794692135	0.380366219573	0
0.119989480252	0.372948857495	0
0.12018426837	0.36553179882	0
0.120379056487	0.358115043536	0
0.120573844604	0.35069859163	0
0.120768632722	0.343282443091	0
0.120963420839	0.335866597905	0
0.121158208956	0.328451056061	0
0.121352997073	0.321035817546	0
0.121547785191	0.313620882348	0
0.121742573308	0.306206250453	0
0.121937361425	0.298791921851	0
0.122132149543	0.291377896528	0
0.12232693766	0.283964174473	0
0.122521725777	0.276550755672	0
0.122716513895	0.269137640113	0
0.122911302012	0.261724827785	0
0.123106090129	0.254312318674	0
0.123300878246	0.246900112768	0
0.123495666364	0.239488210056	0
0.123690454481	0.232076610523	0
0.123885242598	0.224665314159	0
0.124080030716	0.217254320951	0
0.124274818833	0.209843630886	0
0.12446960695	0.202433243952	0
0.124664395067	0.195023160137	0
0.124859183185	0.187613379428	0
0.125053971302	0.180203901813	0
0.125248759419	0.17279472728	0
0.125443547537	0.165385855815	0
0.125638335654	0.157977287408	0
0.125833123771	0.150569022045	0
0.126027911888	0.143161059713	0
0.126222700006	0.135753400402	0
0.126417488123	0.128346044098	0
0.12661227624	0.120938990789	0
0.126807064358	0.113532240463	0
0.127001852475	0.106125793106	0
0.127196640592	0.0987196487081	0
0.12739142871	0.0913138072552	0
0.127586216827	0.0839082687355	0
0.127781004944	0.0765030331366	0
0.127975793061	0.069098100446	0
0.128170581179	0.0616934706516	0
0.128365369296	0.0542891437408	0
0.128560157413	0.0468851197013	0
0.128754945531	0.0394813985209	0
0.128949733648	0.032077980187	0
0.129144521765	0.0246748646874	0
0.129339309882	0.0172720520096	0
0.129534098	0.00986954214137	0
0.129728886117	0.00246733507037	0
0.129923674234	-0.00493456921588	0
0.130118462352	-0.0123361707296	0
0.130313250469	-0.0197374694834	0
0.130508038586	-0.0271384654893	0
0.130702826704	-0.0345391587598	0
0.130897614821	-0.0419395493073	0
0.131092402938	-0.0493396371441	0
0.131287191055	-0.0567394222826	0
0.131481979173	-0.0641389047352	0
0.13167676729	-0.0715380845141	0
0.131871555407	-0.0789369616318	0
0.132066343525	-0.0863355361005	0
0.132261131642	-0.0937338079327	0
0.132455919759	-0.101131777141	0
0.132650707876	-0.108529443737	0
0.132845495994	-0.115926807733	0
0.133040284111	-0.123323869143	0
0.133235072228	-0.130720627978	0
0.133429860346	-0.13811708425	0
0.133624648463	-0.145513237972	0
0.13381943658	-0.152909089156	0
0.134014224697	-0.160304637815	0
0.134209012815	-0.167699883961	0
0.134403800932	-0.175094827606	0
0.134598589049	-0.182489468763	0
0.134793377167	-0.189883807443	0
0.134988165284	-0.19727784366	0
0.135182953401	-0.204671577426	0
0.135377741519	-0.212065008753	0
0.135572529636	-0.219458137653	0
0.135767317753	-0.226850964138	0
0.13596210587	-0.234243488222	0
0.136156893988	-0.241635709916	0
0.136351682105	-0.249027629233	0
0.136546470222	-0.256419246185	0
0.13674125834	-0.263810560784	0
0.136936046457	-0.271201573043	0
0.137130834574	-0.278592282974	0
0.137325622691	-0.285982690589	0
0.137520410809	-0.293372795901	0
0.137715198926	-0.300762598923	0
0.137909987043	-0.308152099665	0
0.138104775161	-0.315541298142	0
0.138299563278	-0.322930194364	0
0.138494351395	-0.330318788345	0
0.138689139513	-0.337707080097	0
0.13888392763	-0.345095069632	0
0.139078715747	-0.352482756962	0
0.139273503864	-0.3598701421	0
0.139468291982	-0.367257225058	0
0.139663080099	-0.374644005848	0
0.139857868216	-0.382030484484	0
0.140052656334	-0.389416660976	0
0.140247444451	-0.396802535338	0
0.140442232568	-0.404188107581	0
0.140637020685	-0.411573377719	0
0.140831808803	-0.418958345763	0
0.14102659692	-0.426343011726	0
0.141221385037	-0.43372737562	0
0.141416173155	-0.441111437457	0
0.141610961272	-0.44849519725	0
0.141805749389	-0.455878655011	0
0.142000537507	-0.463261810753	0
0.142195325624	-0.470644664487	0
0.142390113741	-0.478027216226	0
0.142584901858	-0.485409465983	0
0.142779689976	-0.492791413769	0
0.142974478093	-0.500173059597	0
0.14316926621	-0.50755440348	0
0.143364054328	-0.514935445429	0
0.143558842445	-0.522316185457	0
0.143753630562	-0.529696623576	0
0.143948418679	-0.5370767598	0
0.144143206797	-0.544456594139	0
0.144337994914	-0.551836126606	0
0.144532783031	-0.559215357214	0
0.144727571149	-0.566594285975	0
0.144922359266	-0.573972912901	0
0.145117147383	-0.581351238004	0
0.1453119355	-0.588729261298	0
0.145506723618	-0.596106982793	0
0.145701511735	-0.603484402503	0
0.145896299852	-0.61086152044	0
0.14609108797	-0.618238336616	0
0.146285876087	-0.625614851044	0
0.146480664204	-0.632991063735	0
0.146675452322	-0.640366974702	0
0.146870240439	-0.647742583958	0
0.147065028556	-0.655117891514	0
0.147259816673	-0.662492897383	0
0.147454604791	-0.669867601578	0
0.147649392908	-0.67724200411	0
0.147844181025	-0.684616104993	0
0.148038969143	-0.691989904237	0
0.14823375726	-0.699363401856	0
0.148428545377	-0.706736597862	0
0.148623333494	-0.714109492267	0
0.148818121612	-0.721482085084	0
0.149012909729	-0.728854376324	0
0.149207697846	-0.736226366001	0
0.149402485964	-0.743598054125	0
0.149597274081	-0.750969440711	0
0.149792062198	-0.75834052577	0
0.149986850316	-0.765711309314	0
0.150181638433	-0.773081791355	0
0.15037642655	-0.780451971907	0
0.150571214667	-0.787821850981	0
0.150766002785	-0.795191428589	0
0.150960790902	-0.802560704745	0
0.151155579019	-0.809929679459	0
0.151350367137	-0.817298352745	0
0.151545155254	-0.824666724615	0
0.151739943371	-0.83203479508	0
0.151934731488	-0.839402564154	0
0.152129519606	-0.846770031849	0
0.152324307723	-0.854137198177	0
0.15251909584	-0.86150406315	0
0.152713883958	-0.86887062678	0
0.152908672075	-0.876236889081	0
0.153103460192	-0.883602850063	0
0.153298248309	-0.89096850974	0
0.153493036427	-0.898333868124	0
0.153687824544	-0.905698925227	0
0.153882612661	-0.913063681061	0
0.154077400779	-0.920428135639	0
0.154272188896	-0.927792288973	0
0.154466977013	-0.935156141075	0
0.154661765131	-0.942519691957	0
0.154856553248	-0.949882941633	0
0.155051341365	-0.957245890113	0
0.155246129482	-0.964608537411	0
0.1554409176	-0.971970883539	0
0.155635705717	-0.979332928508	0
0.155830493834	-0.986694672332	0
0.156025281952	-0.994056115022	0
0.156220070069	-1.00141725659	0
0.156414858186	-1.00877809705	0
0.156609646303	-1.01613863642	0
0.156804434421	-1.0234988747	0
0.156999222538	-1.0308588119	0
0.157194010655	-1.03821844805	0
0.157388798773	-1.04557778315	0
0.15758358689	-1.05293681722	0
0.157778375007	-1.06029555026	0
0.157973163125	-1.06765398229	0
0.158167951242	-1.07501211332	0
0.158362739359	-1.08236994337	0
0.158557527476	-1.08972747245	0
0.158752315594	-1.09708470056	0
0.158947103711	-1.10444162772	0
0.159141891828	-1.11179825395	0
0.159336679946	-1.11915457925	0
0.159531468063	-1.12651060364	0
0.15972625618	-1.13386632713	0
0.159921044297	-1.14122174973	0
0.160115832415	-1.14857687146	0
0.160310620532	-1.15593169232	0
0.160505408649	-1.16328621233	0
0.160700196767	-1.17064043151	0
0.160894984884	-1.17799434986	0
0.161089773001	-1.18534796739	0
0.161284561119	-1.19270128412	0
0.161479349236	-1.20005430006	0
0.161674137353	-1.20740701523	0
0.16186892547	-1.21475942963	0
0.162063713588	-1.22211154328	0
0.162258501705	-1.22946335618	0
0.162453289822	-1.23681486836	0
0.16264807794	-1.24416607982	0
0.162842866057	-1.25151699058	0
0.163037654174	-1.25886760065	0
0.163232442291	-1.26621791004	0
0.163427230409	-1.27356791876	0
0.163622018526	-1.28091762683	0
0.163816806643	-1.28826703426	0
0.164011594761	-1.29561614105	0
0.164206382878	-1.30296494723	0
0.164401170995	-1.3103134528	0
0.164595959112	-1.31766165778	0
0.16479074723	-1.32500956218	0
0.164985535347	-1.33235716601	0
0.165180323464	-1.33970446928	0
0.165375111582	-1.34705147201	0
0.165569899699	-1.35439817421	0
0.165764687816	-1.36174457589	0
0.165959475934	-1.36909067706	0
0.166154264051	-1.37643647773	0
0.166349052168	-1.38378197793	0
0.166543840285	-1.39112717765	0
0.166738628403	-1.39847207691	0
0.16693341652	-1.40581667573	0
0.167128204637	-1.41316097412	0
0.167322992755	-1.42050497208	0
0.167517780872	-1.42784866963	0
0.167712568989	-1.43519206679	0
0.167907357106	-1.44253516356	0
0.168102145224	-1.44987795996	0
0.168296933341	-1.457220456	0
0.168491721458	-1.46456265169	0
0.168686509576	-1.47190454705	0
0.168881297693	-1.47924614208	0
0.16907608581	-1.4865874368	0
0.169270873928	-1.49392843123	0
0.169465662045	-1.50126912536	0
0.169660450162	-1.50860951922	0
0.169855238279	-1.51594961282	0
0.170050026397	-1.52328940617	0
0.170244814514	-1.53062889929	0
0.170439602631	-1.53796809217	0
0.170634390749	-1.54530698485	0
0.170829178866	-1.55264557732	0
0.171023966983	-1.5599838696	0
0.1712187551	-1.56732186171	0
0.171413543218	-1.57465955366	0
0.171608331335	-1.58199694545	0
0.171803119452	-1.5893340371	0
0.17199790757	-1.59667082863	0
0.172192695687	-1.60400732004	0
0.172387483804	-1.61134351135	0
0.172582271921	-1.61867940256	0
0.172777060039	-1.6260149937	0
0.172971848156	-1.63335028477	0
0.173166636273	-1.64068527579	0
0.173361424391	-1.64801996677	0
0.173556212508	-1.65535435772	0
0.173751000625	-1.66268844865	0
0.173945788743	-1.67002223957	0
0.17414057686	-1.67735573051	0
0.174335364977	-1.68468892146	0
0.174530153094	-1.69202181244	0
0.174724941212	-1.69935440347	0
0.174919729329	-1.70668669456	0
0.175114517446	-1.71401868571	0
0.175309305564	-1.72135037694	0
0.175504093681	-1.72868176827	0
0.175698881798	-1.7360128597	0
0.175893669915	-1.74334365125	0
0.176088458033	-1.75067414293	0
0.17628324615	-1.75800433476	0
0.176478034267	-1.76533422673	0
0.176672822385	-1.77266381888	0
0.176867610502	-1.7799931112	0
0.177062398619	-1.78732210371	0
0.177257186737	-1.79465079643	0
0.177451974854	-1.80197918936	0
0.177646762971	-1.80930728252	0
0.177841551088	-1.81663507592	0
0.178036339206	-1.82396256957	0
0.178231127323	-1.83128976348	0
0.17842591544	-1.83861665767	0
0.178620703558	-1.84594325215	0
0.178815491675	-1.85326954694	0
0.179010279792	-1.86059554203	0
0.179205067909	-1.86792123745	0
0.179399856027	-1.87524663321	0
0.179594644144	-1.88257172932	0
0.179789432261	-1.88989652579	0
0.179984220379	-1.89722102264	0
0.180179008496	-1.90454521987	0
0.180373796613	-1.9118691175	0
0.18056858473	-1.91919271554	0
0.180763372848	-1.92651601401	0
0.180958160965	-1.93383901291	0
0.181152949082	-1.94116171226	0
0.1813477372	-1.94848411207	0
0.181542525317	-1.95580621235	0
0.181737313434	-1.96312801311	0
0.181932101552	-1.97044951437	0
0.182126889669	-1.97777071615	0
0.182321677786	-1.98509161844	0
0.182516465903	-1.99241222126	0
0.182711254021	-1.99973252464	0
0.182906042138	-2.00705252857	0
0.183100830255	-2.01437223307	0
0.183295618373	-2.02169163815	0
0.18349040649	-2.02901074382	0
0.183685194607	-2.03632955011	0
0.183879982724	-2.04364805701	0
0.184074770842	-2.05096626454	0
0.184269558959	-2.05828417272	0
0.184464347076	-2.06560178155	0
0.184659135194	-2.07291909105	0
0.184853923311	-2.08023610123	0
0.185048711428	-2.0875528121	0
0.185243499546	-2.09486922368	0
0.185438287663	-2.10218533597	0
0.18563307578	-2.10950114899	0
0.185827863897	-2.11681666275	0
0.186022652015	-2.12413187727	0
0.186217440132	-2.13144679255	0
0.186412228249	-2.13876140861	0
0.186607016367	-2.14607572546	0
0.186801804484	-2.15338974311	0
0.186996592601	-2.16070346158	0
0.187191380718	-2.16801688087	0
0.187386168836	-2.175330001	0
0.187580956953	-2.18264282199	0
0.18777574507	-2.18995534383	0
0.187970533188	-2.19726756655	0
0.188165321305	-2.20457949016	0
0.188360109422	-2.21189111467	0
0.18855489754	-2.21920244009	0
0.188749685657	-2.22651346644	0
0.188944473774	-2.23382419372	0
0.189139261891	-2.24113462195	0
0.189334050009	-2.24844475114	0
0.189528838126	-2.2557545813	0
0.189723626243	-2.26306411245	0
0.189918414361	-2.2703733446	0
0.190113202478	-2.27768227775	0
0.190307990595	-2.28499091193	0
0.190502778712	-2.29229924714	0
0.19069756683	-2.2996072834	0
0.190892354947	-2.30691502072	0
0.191087143064	-2.31422245911	0
0.191281931182	-2.32152959858	0
0.191476719299	-2.32883643914	0
0.191671507416	-2.33614298082	0
0.191866295533	-2.34344922361	0
0.192061083651	-2.35075516753	0
0.192255871768	-2.3580608126	0
0.192450659885	-2.36536615882	0
0.192645448003	-2.37267120622	0
0.19284023612	-2.37997595479	0
0.193035024237	-2.38728040455	0
0.193229812355	-2.39458455552	0
0.193424600472	-2.40188840771	0
0.193619388589	-2.40919196113	0
0.193814176706	-2.41649521579	0
0.194008964824	-2.4237981717	0
0.194203752941	-2.43110082887	0
0.194398541058	-2.43840318733	0
0.194593329176	-2.44570524708	0
0.194788117293	-2.45300700812	0
0.19498290541	-2.46030847049	0
0.195177693527	-2.46760963417	0
0.195372481645	-2.4749104992	0
0.195567269762	-2.48221106558	0
0.195762057879	-2.48951133333	0
0.195956845997	-2.49681130244	0
0.196151634114	-2.50411097295	0
0.196346422231	-2.51141034486	0
0.196541210349	-2.51870941817	0
0.196735998466	-2.52600819292	0
0.196930786583	-2.53330666909	0
0.1971255747	-2.54060484672	0
0.197320362818	-2.54790272581	0
0.197515150935	-2.55520030637	0
0.197709939052	-2.56249758842	0
0.19790472717	-2.56979457196	0
0.198099515287	-2.57709125701	0
0.198294303404	-2.58438764359	0
0.198489091521	-2.5916837317	0
0.198683879639	-2.59897952135	0
0.198878667756	-2.60627501257	0
0.199073455873	-2.61357020535	0
0.199268243991	-2.62086509972	0
0.199463032108	-2.62815969568	0
0.199657820225	-2.63545399325	0
0.199852608342	-2.64274799243	0
0.20004739646	-2.65004169325	0
0.200242184577	-2.65733509571	0
0.200436972694	-2.66462819983	0
0.200631760812	-2.67192100562	0
0.200826548929	-2.67921351308	0
0.201021337046	-2.68650572224	0
0.201216125164	-2.69379763311	0
0.201410913281	-2.70108924568	0
0.201605701398	-2.70838055999	0
0.201800489515	-2.71567157604	0
0.201995277633	-2.72296229384	0
0.20219006575	-2.73025271341	0
0.202384853867	-2.73754283476	0
0.202579641985	-2.74483265789	0
0.202774430102	-2.75212218283	0
0.202969218219	-2.75941140958	0
0.203164006336	-2.76670033815	0
0.203358794454	-2.77398896857	0
0.203553582571	-2.78127730083	0
0.203748370688	-2.78856533496	0
0.203943158806	-2.79585307096	0
0.204137946923	-2.80314050885	0
0.20433273504	-2.81042764864	0
0.204527523158	-2.81771449034	0
0.204722311275	-2.82500103396	0
0.204917099392	-2.83228727952	0
0.205111887509	-2.83957322703	0
0.205306675627	-2.8468588765	0
0.205501463744	-2.85414422793	0
0.205696251861	-2.86142928136	0
0.205891039979	-2.86871403678	0
0.206085828096	-2.87599849421	0
0.206280616213	-2.88328265365	0
0.20647540433	-2.89056651514	0
0.206670192448	-2.89785007866	0
0.206864980565	-2.90513334425	0
0.207059768682	-2.9124163119	0
0.2072545568	-2.91969898164	0
0.207449344917	-2.92698135347	0
0.207644133034	-2.9342634274	0
0.207838921151	-2.94154520345	0
0.208033709269	-2.94882668164	0
0.208228497386	-2.95610786196	0
0.208423285503	-2.96338874444	0
0.208618073621	-2.97066932909	0
0.208812861738	-2.97794961592	0
0.209007649855	-2.98522960493	0
0.209202437973	-2.99250929615	0
0.20939722609	-2.99978868959	0
0.209592014207	-3.00706778525	0
0.209786802324	-3.01434658315	0
0.209981590442	-3.0216250833	0
0.210176378559	-3.02890328572	0
0.210371166676	-3.03618119042	0
0.210565954794	-3.0434587974	0
0.210760742911	-3.05073610668	0
0.210955531028	-3.05801311827	0
0.211150319145	-3.06528983219	0
0.211345107263	-3.07256624845	0
0.21153989538	-3.07984236706	0
0.211734683497	-3.08711818802	0
0.211929471615	-3.09439371136	0
0.212124259732	-3.10166893709	0
0.212319047849	-3.10894386521	0
0.212513835967	-3.11621849574	0
0.212708624084	-3.1234928287	0
0.212903412201	-3.13076686408	0
0.213098200318	-3.13804060192	0
0.213292988436	-3.14531404221	0
0.213487776553	-3.15258718497	0
0.21368256467	-3.15986003022	0
0.213877352788	-3.16713257796	0
0.214072140905	-3.1744048282	0
0.214266929022	-3.18167678097	0
0.214461717139	-3.18894843627	0
0.214656505257	-3.19621979411	0
0.214851293374	-3.2034908545	0
0.215046081491	-3.21076161747	0
0.215240869609	-3.21803208301	0
0.215435657726	-3.22530225114	0
0.215630445843	-3.23257212188	0
0.215825233961	-3.23984169524	0
0.216020022078	-3.24711097122	0
0.216214810195	-3.25437994984	0
0.216409598312	-3.26164863112	0
0.21660438643	-3.26891701506	0
0.216799174547	-3.27618510168	0
0.216993962664	-3.28345289098	0
0.217188750782	-3.29072038299	0
0.217383538899	-3.29798757771	0
0.217578327016	-3.30525447515	0
0.217773115133	-3.31252107534	0
0.217967903251	-3.31978737827	0
0.218162691368	-3.32705338396	0
0.218357479485	-3.33431909243	0
0.218552267603	-3.34158450369	0
0.21874705572	-3.34884961774	0
0.218941843837	-3.3561144346	0
0.219136631954	-3.36337895428	0
0.219331420072	-3.3706431768	0
0.219526208189	-3.37790710217	0
0.219720996306	-3.38517073039	0
0.219915784424	-3.39243406149	0
0.220110572541	-3.39969709547	0
0.220305360658	-3.40695983234	0
0.220500148776	-3.41422227212	0
0.220694936893	-3.42148441482	0
0.22088972501	-3.42874626045	0
0.221084513127	-3.43600780903	0
0.221279301245	-3.44326906056	0
0.221474089362	-3.45053001506	0
0.221668877479	-3.45779067254	0
0.221863665597	-3.46505103301	0
0.222058453714	-3.47231109648	0
0.222253241831	-3.47957086297	0
0.222448029948	-3.48683033249	0
0.222642818066	-3.49408950505	0
0.222837606183	-3.50134838067	0
0.2230323943	-3.50860695934	0
0.223227182418	-3.5158652411	0
0.223421970535	-3.52312322594	0
0.223616758652	-3.53038091389	0
0.22381154677	-3.53763830494	0
0.224006334887	-3.54489539913	0
0.224201123004	-3.55215219645	0
0.224395911121	-3.55940869692	0
0.224590699239	-3.56666490055	0
0.224785487356	-3.57392080736	0
0.224980275473	-3.58117641735	0
0.225175063591	-3.58843173054	0
0.225369851708	-3.59568674694	0
0.225564639825	-3.60294146657	0
0.225759427942	-3.61019588942	0
0.22595421606	-3.61745001553	0
0.226149004177	-3.62470384489	0
0.226343792294	-3.63195737752	0
0.226538580412	-3.63921061344	0
0.226733368529	-3.64646355265	0
0.226928156646	-3.65371619517	0
0.227122944763	-3.66096854101	0
0.227317732881	-3.66822059018	0
0.227512520998	-3.67547234269	0
0.227707309115	-3.68272379856	0
0.227902097233	-3.68997495779	0
0.22809688535	-3.69722582041	0
0.228291673467	-3.70447638641	0
0.228486461585	-3.71172665582	0
0.228681249702	-3.71897662865	0
0.228876037819	-3.72622630491	0
0.229070825936	-3.7334756846	0
0.229265614054	-3.74072476775	0
0.229460402171	-3.74797355436	0
0.229655190288	-3.75522204445	0
0.229849978406	-3.76247023803	0
0.230044766523	-3.76971813511	0
0.23023955464	-3.7769657357	0
0.230434342757	-3.78421303982	0
0.230629130875	-3.79146004747	0
0.230823918992	-3.79870675867	0
0.231018707109	-3.80595317343	0
0.231213495227	-3.81319929177	0
0.231408283344	-3.82044511369	0
0.231603071461	-3.82769063921	0
0.231797859579	-3.83493586834	0
0.231992647696	-3.8421808011	0
0.232187435813	-3.84942543748	0
0.23238222393	-3.85666977751	0
0.232577012048	-3.8639138212	0
0.232771800165	-3.87115756856	0
0.232966588282	-3.8784010196	0
0.2331613764	-3.88564417434	0
0.233356164517	-3.89288703278	0
0.233550952634	-3.90012959494	0
0.233745740751	-3.90737186083	0
0.233940528869	-3.91461383047	0
0.234135316986	-3.92185550386	0
0.234330105103	-3.92909688101	0
0.234524893221	-3.93633796195	0
0.234719681338	-3.94357874667	0
0.234914469455	-3.9508192352	0
0.235109257573	-3.95805942755	0
0.23530404569	-3.96529932372	0
0.235498833807	-3.97253892373	0
0.235693621924	-3.97977822759	0
0.235888410042	-3.98701723532	0
0.236083198159	-3.99425594692	0
0.236277986276	-4.00149436241	0
0.236472774394	-4.0087324818	0
0.236667562511	-4.0159703051	0
0.236862350628	-4.02320783233	0
0.237057138745	-4.03044506349	0
0.237251926863	-4.0376819986	0
0.23744671498	-4.04491863767	0
0.237641503097	-4.05215498071	0
0.237836291215	-4.05939102774	0
0.238031079332	-4.06662677876	0
0.238225867449	-4.07386223379	0
0.238420655566	-4.08109739284	0
0.238615443684	-4.08833225593	0
0.238810231801	-4.09556682306	0
0.239005019918	-4.10280109424	0
0.239199808036	-4.1100350695	0
0.239394596153	-4.11726874884	0
0.23958938427	-4.12450213227	0
0.239784172388	-4.1317352198	0
0.239978960505	-4.13896801145	0
0.240173748622	-4.14620050723	0
0.240368536739	-4.15343270716	0
0.240563324857	-4.16066461123	0
0.240758112974	-4.16789621948	0
0.240952901091	-4.1751275319	0
0.241147689209	-4.18235854851	0
0.241342477326	-4.18958926932	0
0.241537265443	-4.19681969434	0
0.24173205356	-4.20404982359	0
0.241926841678	-4.21127965708	0
0.242121629795	-4.21850919482	0
0.242316417912	-4.22573843682	0
0.24251120603	-4.2329673831	0
0.242705994147	-4.24019603366	0
0.242900782264	-4.24742438852	0
0.243095570382	-4.25465244769	0
0.243290358499	-4.26188021119	0
0.243485146616	-4.26910767901	0
0.243679934733	-4.27633485119	0
0.243874722851	-4.28356172772	0
0.244069510968	-4.29078830863	0
0.244264299085	-4.29801459391	0
0.244459087203	-4.30524058359	0
0.24465387532	-4.31246627768	0
0.244848663437	-4.31969167619	0
0.245043451554	-4.32691677913	0
0.245238239672	-4.33414158651	0
0.245433027789	-4.34136609835	0
0.245627815906	-4.34859031465	0
0.245822604024	-4.35581423544	0
0.246017392141	-4.36303786071	0
0.246212180258	-4.37026119049	0
0.246406968375	-4.37748422478	0
0.246601756493	-4.3847069636	0
0.24679654461	-4.39192940697	0
0.246991332727	-4.39915155488	0
0.247186120845	-4.40637340736	0
0.247380908962	-4.41359496441	0
0.247575697079	-4.42081622605	0
0.247770485197	-4.42803719229	0
0.247965273314	-4.43525786314	0
0.248160061431	-4.44247823862	0
0.248354849548	-4.44969831873	0
0.248549637666	-4.45691810349	0
0.248744425783	-4.46413759291	0
0.2489392139	-4.471356787	0
0.249134002018	-4.47857568578	0
0.249328790135	-4.48579428925	0
0.249523578252	-4.49301259744	0
0.249718366369	-4.50023061034	0
0.249913154487	-4.50744832797	0
0.250107942604	-4.51466575035	0
0.250302730721	-4.52188287749	0
0.250497518839	-4.52909970939	0
0.250692306956	-4.53631624608	0
0.250887095073	-4.54353248756	0
0.251081883191	-4.55074843384	0
0.251276671308	-4.55796408494	0
0.251471459425	-4.56517944087	0
0.251666247542	-4.57239450164	0
0.25186103566	-4.57960926726	0
0.252055823777	-4.58682373775	0
0.252250611894	-4.59403791311	0
0.252445400012	-4.60125179337	0
0.252640188129	-4.60846537852	0
0.252834976246	-4.61567866859	0
0.253029764363	-4.62289166358	0
0.253224552481	-4.63010436351	0
0.253419340598	-4.63731676839	0
0.253614128715	-4.64452887824	0
0.253808916833	-4.65174069305	0
0.25400370495	-4.65895221285	0
0.254198493067	-4.66616343765	0
0.254393281184	-4.67337436746	0
0.254588069302	-4.68058500228	0
0.254782857419	-4.68779534215	0
0.254977645536	-4.69500538706	0
0.255172433654	-4.70221513702	0
0.255367221771	-4.70942459206	0
0.255562009888	-4.71663375217	0
0.255756798006	-4.72384261739	0
0.255951586123	-4.7310511877	0
0.25614637424	-4.73825946314	0
0.256341162357	-4.7454674437	0
0.256535950475	-4.75267512941	0
0.256730738592	-4.75988252027	0
0.256925526709	-4.7670896163	0
0.257120314827	-4.7742964175	0
0.257315102944	-4.7815029239	0
0.257509891061	-4.78870913549	0
0.257704679178	-4.7959150523	0
0.257899467296	-4.80312067434	0
0.258094255413	-4.81032600162	0
0.25828904353	-4.81753103414	0
0.258483831648	-4.82473577193	0
0.258678619765	-4.83194021499	0
0.258873407882	-4.83914436334	0
0.259068196	-4.84634821699	0
0.259262984117	-4.85355177595	0
0.259457772234	-4.86075504023	0
0.259652560351	-4.86795800984	0
0.259847348469	-4.8751606848	0
0.260042136586	-4.88236306512	0
0.260236924703	-4.88956515081	0
0.260431712821	-4.89676694188	0
0.260626500938	-4.90396843835	0
0.260821289055	-4.91116964022	0
0.261016077172	-4.91837054751	0
0.26121086529	-4.92557116024	0
0.261405653407	-4.9327714784	0
0.261600441524	-4.93997150202	0
0.261795229642	-4.94717123111	0
0.261990017759	-4.95437066567	0
0.262184805876	-4.96156980573	0
0.262379593994	-4.96876865129	0
0.262574382111	-4.97596720236	0
0.262769170228	-4.98316545896	0
0.262963958345	-4.9903634211	0
0.263158746463	-4.99756108879	0
0.26335353458	-5.00475846204	0
0.263548322697	-5.01195554087	0
0.263743110815	-5.01915232528	0
0.263937898932	-5.0263488153	0
0.264132687049	-5.03354501092	0
0.264327475166	-5.04074091217	0
0.264522263284	-5.04793651905	0
0.264717051401	-5.05513183158	0
0.264911839518	-5.06232684976	0
0.265106627636	-5.06952157362	0
0.265301415753	-5.07671600317	0
0.26549620387	-5.0839101384	0
0.265690991987	-5.09110397935	0
0.265885780105	-5.09829752601	0
0.266080568222	-5.1054907784	0
0.266275356339	-5.11268373654	0
0.266470144457	-5.11987640043	0
0.266664932574	-5.12706877009	0
0.266859720691	-5.13426084553	0
0.267054508809	-5.14145262676	0
0.267249296926	-5.14864411379	0
0.267444085043	-5.15583530664	0
0.26763887316	-5.16302620531	0
0.267833661278	-5.17021680982	0
0.268028449395	-5.17740712019	0
0.268223237512	-5.18459713641	0
0.26841802563	-5.19178685852	0
0.268612813747	-5.19897628651	0
0.268807601864	-5.2061654204	0
0.269002389981	-5.21335426019	0
0.269197178099	-5.22054280592	0
0.269391966216	-5.22773105758	0
0.269586754333	-5.23491901518	0
0.269781542451	-5.24210667875	0
0.269976330568	-5.24929404828	0
0.270171118685	-5.2564811238	0
0.270365906803	-5.26366790531	0
0.27056069492	-5.27085439283	0
0.270755483037	-5.27804058637	0
0.270950271154	-5.28522648594	0
0.271145059272	-5.29241209156	0
0.271339847389	-5.29959740323	0
0.271534635506	-5.30678242096	0
0.271729423624	-5.31396714478	0
0.271924211741	-5.32115157469	0
0.272118999858	-5.3283357107	0
0.272313787975	-5.33551955282	0
0.272508576093	-5.34270310107	0
0.27270336421	-5.34988635546	0
0.272898152327	-5.35706931601	0
0.273092940445	-5.36425198271	0
0.273287728562	-5.37143435559	0
0.273482516679	-5.37861643466	0
0.273677304796	-5.38579821992	0
0.273872092914	-5.3929797114	0
0.274066881031	-5.4001609091	0
0.274261669148	-5.40734181304	0
0.274456457266	-5.41452242322	0
0.274651245383	-5.42170273966	0
0.2748460335	-5.42888276237	0
0.275040821618	-5.43606249137	0
0.275235609735	-5.44324192666	0
0.275430397852	-5.45042106825	0
0.275625185969	-5.45759991617	0
0.275819974087	-5.46477847042	0
0.276014762204	-5.47195673101	0
0.276209550321	-5.47913469795	0
0.276404338439	-5.48631237126	0
0.276599126556	-5.49348975095	0
0.276793914673	-5.50066683703	0
0.27698870279	-5.50784362952	0
0.277183490908	-5.51502012841	0
0.277378279025	-5.52219633374	0
0.277573067142	-5.5293722455	0
0.27776785526	-5.53654786372	0
0.277962643377	-5.5437231884	0
0.278157431494	-5.55089821955	0
0.278352219612	-5.55807295719	0
0.278547007729	-5.56524740133	0
0.278741795846	-5.57242155197	0
0.278936583963	-5.57959540914	0
0.279131372081	-5.58676897285	0
0.279326160198	-5.5939422431	0
0.279520948315	-5.60111521991	0
0.279715736433	-5.60828790329	0
0.27991052455	-5.61546029326	0
0.280105312667	-5.62263238982	0
0.280300100784	-5.62980419298	0
0.280494888902	-5.63697570276	0
0.280689677019	-5.64414691918	0
0.280884465136	-5.65131784223	0
0.281079253254	-5.65848847194	0
0.281274041371	-5.66565880832	0
0.281468829488	-5.67282885137	0
0.281663617605	-5.67999860112	0
0.281858405723	-5.68716805756	0
0.28205319384	-5.69433722072	0
0.282247981957	-5.70150609061	0
0.282442770075	-5.70867466724	0
0.282637558192	-5.71584295061	0
0.282832346309	-5.72301094075	0
0.283027134427	-5.73017863766	0
0.283221922544	-5.73734604136	0
0.283416710661	-5.74451315186	0
0.283611498778	-5.75167996916	0
0.283806286896	-5.75884649329	0
0.284001075013	-5.76601272425	0
0.28419586313	-5.77317866206	0
0.284390651248	-5.78034430672	0
0.284585439365	-5.78750965826	0
0.284780227482	-5.79467471667	0
0.284975015599	-5.80183948198	0
0.285169803717	-5.8090039542	0
0.285364591834	-5.81616813333	0
0.285559379951	-5.82333201939	0
0.285754168069	-5.8304956124	0
0.285948956186	-5.83765891236	0
0.286143744303	-5.84482191928	0
0.286338532421	-5.85198463318	0
0.286533320538	-5.85914705407	0
0.286728108655	-5.86630918196	0
0.286922896772	-5.87347101687	0
0.28711768489	-5.8806325588	0
0.287312473007	-5.88779380776	0
0.287507261124	-5.89495476378	0
0.287702049242	-5.90211542686	0
0.287896837359	-5.90927579701	0
0.288091625476	-5.91643587424	0
0.288286413593	-5.92359565857	0
0.288481201711	-5.93075515002	0
0.288675989828	-5.93791434858	0
0.288870777945	-5.94507325427	0
0.289065566063	-5.95223186711	0
0.28926035418	-5.95939018711	0
0.289455142297	-5.96654821427	0
0.289649930415	-5.97370594862	0
0.289844718532	-5.98086339016	0
0.290039506649	-5.9880205389	0
0.290234294766	-5.99517739486	0
0.290429082884	-6.00233395805	0
0.290623871001	-6.00949022848	0
0.290818659118	-6.01664620616	0
0.291013447236	-6.0238018911	0
0.291208235353	-6.03095728332	0
0.29140302347	-6.03811238283	0
0.291597811587	-6.04526718964	0
0.291792599705	-6.05242170376	0
0.291987387822	-6.05957592521	0
0.292182175939	-6.06672985399	0
0.292376964057	-6.07388349012	0
0.292571752174	-6.08103683361	0
0.292766540291	-6.08818988447	0
0.292961328408	-6.09534264271	0
0.293156116526	-6.10249510835	0
0.293350904643	-6.1096472814	0
0.29354569276	-6.11679916187	0
0.293740480878	-6.12395074977	0
0.293935268995	-6.13110204511	0
0.294130057112	-6.13825304791	0
0.29432484523	-6.14540375817	0
0.294519633347	-6.15255417592	0
0.294714421464	-6.15970430115	0
0.294909209581	-6.16685413389	0
0.295103997699	-6.17400367415	0
0.295298785816	-6.18115292193	0
0.295493573933	-6.18830187725	0
0.295688362051	-6.19545054012	0
0.295883150168	-6.20259891055	0
0.296077938285	-6.20974698856	0
0.296272726402	-6.21689477415	0
0.29646751452	-6.22404226735	0
0.296662302637	-6.23118946815	0
0.296857090754	-6.23833637658	0
0.297051878872	-6.24548299264	0
0.297246666989	-6.25262931635	0
0.297441455106	-6.25977534771	0
0.297636243224	-6.26692108675	0
0.297831031341	-6.27406653347	0
0.298025819458	-6.28121168788	0
0.298220607575	-6.28835655	0
0.298415395693	-6.29550111983	0
0.29861018381	-6.3026453974	0
0.298804971927	-6.30978938271	0
0.298999760045	-6.31693307577	0
0.299194548162	-6.32407647659	0
0.299389336279	-6.3312195852	0
0.299584124396	-6.33836240159	0
0.299778912514	-6.34550492579	0
0.299973700631	-6.3526471578	0
0.300168488748	-6.35978909763	0
0.300363276866	-6.3669307453	0
0.300558064983	-6.37407210082	0
0.3007528531	-6.3812131642	0
0.300947641217	-6.38835393546	0
0.301142429335	-6.3954944146	0
0.301337217452	-6.40263460163	0
0.301532005569	-6.40977449658	0
0.301726793687	-6.41691409944	0
0.301921581804	-6.42405341024	0
0.302116369921	-6.43119242898	0
0.302311158039	-6.43833115568	0
0.302505946156	-6.44546959035	0
0.302700734273	-6.452607733	0
0.30289552239	-6.45974558363	0
0.303090310508	-6.46688314228	0
0.303285098625	-6.47402040894	0
0.303479886742	-6.48115738363	0
0.30367467486	-6.48829406635	0
0.303869462977	-6.49543045713	0
0.304064251094	-6.50256655597	0
0.304259039211	-6.50970236289	0
0.304453827329	-6.5168378779	0
0.304648615446	-6.523973101	0
0.304843403563	-6.53110803222	0
0.305038191681	-6.53824267156	0
0.305232979798	-6.54537701904	0
0.305427767915	-6.55251107466	0
0.305622556033	-6.55964483844	0
0.30581734415	-6.56677831039	0
0.306012132267	-6.57391149052	0
0.306206920384	-6.58104437885	0
0.306401708502	-6.58817697539	0
0.306596496619	-6.59530928014	0
0.306791284736	-6.60244129313	0
0.306986072854	-6.60957301436	0
0.307180860971	-6.61670444384	0
0.307375649088	-6.62383558158	0
0.307570437205	-6.63096642761	0
0.307765225323	-6.63809698193	0
0.30796001344	-6.64522724454	0
0.308154801557	-6.65235721547	0
0.308349589675	-6.65948689473	0
0.308544377792	-6.66661628233	0
0.308739165909	-6.67374537827	0
0.308933954027	-6.68087418257	0
0.309128742144	-6.68800269525	0
0.309323530261	-6.69513091632	0
0.309518318378	-6.70225884578	0
0.309713106496	-6.70938648365	0
0.309907894613	-6.71651382994	0
0.31010268273	-6.72364088466	0
0.310297470848	-6.73076764783	0
0.310492258965	-6.73789411945	0
0.310687047082	-6.74502029955	0
0.310881835199	-6.75214618812	0
0.311076623317	-6.75927178519	0
0.311271411434	-6.76639709076	0
0.311466199551	-6.77352210484	0
0.311660987669	-6.78064682746	0
0.311855775786	-6.78777125861	0
0.312050563903	-6.79489539832	0
0.31224535202	-6.80201924658	0
0.312440140138	-6.80914280343	0
0.312634928255	-6.81626606886	0
0.312829716372	-6.82338904289	0
0.31302450449	-6.83051172554	0
0.313219292607	-6.8376341168	0
0.313414080724	-6.8447562167	0
0.313608868842	-6.85187802525	0
0.313803656959	-6.85899954246	0
0.313998445076	-6.86612076833	0
0.314193233193	-6.87324170289	0
0.314388021311	-6.88036234615	0
0.314582809428	-6.88748269811	0
0.314777597545	-6.89460275879	0
0.314972385663	-6.9017225282	0
0.31516717378	-6.90884200635	0
0.315361961897	-6.91596119325	0
0.315556750014	-6.92308008892	0
0.315751538132	-6.93019869337	0
0.315946326249	-6.93731700661	0
0.316141114366	-6.94443502865	0
0.316335902484	-6.9515527595	0
0.316530690601	-6.95867019918	0
0.316725478718	-6.96578734769	0
0.316920266836	-6.97290420506	0
0.317115054953	-6.98002077128	0
0.31730984307	-6.98713704638	0
0.317504631187	-6.99425303036	0
0.317699419305	-7.00136872324	0
0.317894207422	-7.00848412503	0
0.318088995539	-7.01559923574	0
0.318283783657	-7.02271405538	0
0.318478571774	-7.02982858396	0
0.318673359891	-7.0369428215	0
0.318868148008	-7.04405676801	0
0.319062936126	-7.05117042349	0
0.319257724243	-7.05828378797	0
0.31945251236	-7.06539686145	0
0.319647300478	-7.07250964395	0
0.319842088595	-7.07962213547	0
0.320036876712	-7.08673433604	0
0.320231664829	-7.09384624565	0
0.320426452947	-7.10095786433	0
0.320621241064	-7.10806919208	0
0.320816029181	-7.11518022892	0
0.321010817299	-7.12229097485	0
0.321205605416	-7.1294014299	0
0.321400393533	-7.13651159407	0
0.321595181651	-7.14362146737	0
0.321789969768	-7.15073104982	0
0.321984757885	-7.15784034143	0
0.322179546002	-7.1649493422	0
0.32237433412	-7.17205805216	0
0.322569122237	-7.17916647131	0
0.322763910354	-7.18627459967	0
0.322958698472	-7.19338243724	0
0.323153486589	-7.20048998404	0
0.323348274706	-7.20759724009	0
0.323543062823	-7.21470420538	0
0.323737850941	-7.22181087994	0
0.323932639058	-7.22891726378	0
0.324127427175	-7.23602335691	0
0.324322215293	-7.24312915933	0
0.32451700341	-7.25023467107	0
0.324711791527	-7.25733989213	0
0.324906579645	-7.26444482253	0
0.325101367762	-7.27154946227	0
0.325296155879	-7.27865381138	0
0.325490943996	-7.28575786985	0
0.325685732114	-7.29286163771	0
0.325880520231	-7.29996511496	0
0.326075308348	-7.30706830162	0
0.326270096466	-7.3141711977	0
0.326464884583	-7.32127380321	0
0.3266596727	-7.32837611817	0
0.326854460817	-7.33547814257	0
0.327049248935	-7.34257987645	0
0.327244037052	-7.3496813198	0
0.327438825169	-7.35678247264	0
0.327633613287	-7.36388333498	0
0.327828401404	-7.37098390684	0
0.328023189521	-7.37808418822	0
0.328217977638	-7.38518417914	0
0.328412765756	-7.39228387961	0
0.328607553873	-7.39938328964	0
0.32880234199	-7.40648240924	0
0.328997130108	-7.41358123843	0
0.329191918225	-7.42067977721	0
0.329386706342	-7.42777802561	0
0.32958149446	-7.43487598362	0
0.329776282577	-7.44197365126	0
0.329971070694	-7.44907102855	0
0.330165858811	-7.4561681155	0
0.330360646929	-7.46326491211	0
0.330555435046	-7.4703614184	0
0.330750223163	-7.47745763439	0
0.330945011281	-7.48455356007	0
0.331139799398	-7.49164919548	0
0.331334587515	-7.4987445406	0
0.331529375632	-7.50583959547	0
0.33172416375	-7.51293436009	0
0.331918951867	-7.52002883447	0
0.332113739984	-7.52712301863	0
0.332308528102	-7.53421691257	0
0.332503316219	-7.54131051631	0
0.332698104336	-7.54840382986	0
0.332892892454	-7.55549685323	0
0.333087680571	-7.56258958643	0
0.333282468688	-7.56968202948	0
0.333477256805	-7.57677418239	0
0.333672044923	-7.58386604517	0
0.33386683304	-7.59095761782	0
0.334061621157	-7.59804890037	0
0.334256409275	-7.60513989283	0
0.334451197392	-7.6122305952	0
0.334645985509	-7.6193210075	0
0.334840773626	-7.62641112974	0
0.335035561744	-7.63350096193	0
0.335230349861	-7.64059050409	0
0.335425137978	-7.64767975622	0
0.335619926096	-7.65476871834	0
0.335814714213	-7.66185739045	0
0.33600950233	-7.66894577258	0
0.336204290448	-7.67603386474	0
0.336399078565	-7.68312166692	0
0.336593866682	-7.69020917916	0
0.336788654799	-7.69729640145	0
0.336983442917	-7.70438333381	0
0.337178231034	-7.71146997625	0
0.337373019151	-7.71855632879	0
0.337567807269	-7.72564239144	0
0.337762595386	-7.7327281642	0
0.337957383503	-7.73981364709	0
0.33815217162	-7.74689884012	0
0.338346959738	-7.75398374331	0
0.338541747855	-7.76106835666	0
0.338736535972	-7.76815268019	0
0.33893132409	-7.7752367139	0
0.339126112207	-7.78232045782	0
0.339320900324	-7.78940391195	0
0.339515688441	-7.7964870763	0
0.339710476559	-7.80356995089	0
0.339905264676	-7.81065253573	0
0.340100052793	-7.81773483082	0
0.340294840911	-7.82481683619	0
0.340489629028	-7.83189855184	0
0.340684417145	-7.83897997779	0
0.340879205263	-7.84606111404	0
0.34107399338	-7.85314196061	0
0.341268781497	-7.86022251752	0
0.341463569614	-7.86730278476	0
0.341658357732	-7.87438276236	0
0.341853145849	-7.88146245032	0
0.342047933966	-7.88854184867	0
0.342242722084	-7.8956209574	0
0.342437510201	-7.90269977653	0
0.342632298318	-7.90977830608	0
0.342827086435	-7.91685654605	0
0.343021874553	-7.92393449646	0
0.34321666267	-7.93101215732	0
0.343411450787	-7.93808952863	0
0.343606238905	-7.94516661043	0
0.343801027022	-7.9522434027	0
0.343995815139	-7.95931990547	0
0.344190603257	-7.96639611875	0
0.344385391374	-7.97347204255	0
0.344580179491	-7.98054767688	0
0.344774967608	-7.98762302175	0
0.344969755726	-7.99469807718	0
0.345164543843	-8.00177284317	0
0.34535933196	-8.00884731974	0
0.345554120078	-8.01592150691	0
0.345748908195	-8.02299540467	0
0.345943696312	-8.03006901305	0
0.346138484429	-8.03714233206	0
0.346333272547	-8.0442153617	0
0.346528060664	-8.051288102	0
0.346722848781	-8.05836055295	0
0.346917636899	-8.06543271458	0
0.347112425016	-8.07250458689	0
0.347307213133	-8.0795761699	0
0.34750200125	-8.08664746362	0
0.347696789368	-8.09371846806	0
0.347891577485	-8.10078918323	0
0.348086365602	-8.10785960915	0
0.34828115372	-8.11492974582	0
0.348475941837	-8.12199959326	0
0.348670729954	-8.12906915147	0
0.348865518072	-8.13613842048	0
0.349060306189	-8.14320740029	0
0.349255094306	-8.15027609092	0
0.349449882423	-8.15734449237	0
0.349644670541	-8.16441260467	0
0.349839458658	-8.17148042781	0
0.350034246775	-8.17854796181	0
0.350229034893	-8.18561520669	0
0.35042382301	-8.19268216245	0
0.350618611127	-8.19974882912	0
0.350813399244	-8.20681520669	0
0.351008187362	-8.21388129518	0
0.351202975479	-8.2209470946	0
0.351397763596	-8.22801260497	0
0.351592551714	-8.2350778263	0
0.351787339831	-8.24214275859	0
0.351982127948	-8.24920740186	0
0.352176916066	-8.25627175613	0
0.352371704183	-8.2633358214	0
0.3525664923	-8.27039959768	0
0.352761280417	-8.27746308499	0
0.352956068535	-8.28452628334	0
0.353150856652	-8.29158919274	0
0.353345644769	-8.29865181321	0
0.353540432887	-8.30571414475	0
0.353735221004	-8.31277618737	0
0.353930009121	-8.31983794109	0
0.354124797238	-8.32689940593	0
0.354319585356	-8.33396058188	0
0.354514373473	-8.34102146897	0
0.35470916159	-8.3480820672	0
0.354903949708	-8.35514237659	0
0.355098737825	-8.36220239715	0
0.355293525942	-8.36926212888	0
0.35548831406	-8.37632157181	0
0.355683102177	-8.38338072595	0
0.355877890294	-8.3904395913	0
0.356072678411	-8.39749816788	0
0.356267466529	-8.40455645569	0
0.356462254646	-8.41161445476	0
0.356657042763	-8.41867216509	0
0.356851830881	-8.4257295867	0
0.357046618998	-8.43278671959	0
0.357241407115	-8.43984356378	0
0.357436195232	-8.44690011928	0
0.35763098335	-8.45395638611	0
0.357825771467	-8.46101236426	0
0.358020559584	-8.46806805377	0
0.358215347702	-8.47512345463	0
0.358410135819	-8.48217856685	0
0.358604923936	-8.48923339046	0
0.358799712053	-8.49628792547	0
0.358994500171	-8.50334217187	0
0.359189288288	-8.51039612969	0
0.359384076405	-8.51744979894	0
0.359578864523	-8.52450317963	0
0.35977365264	-8.53155627178	0
0.359968440757	-8.53860907538	0
0.360163228875	-8.54566159046	0
0.360358016992	-8.55271381703	0
0.360552805109	-8.55976575509	0
0.360747593226	-8.56681740467	0
0.360942381344	-8.57386876576	0
0.361137169461	-8.5809198384	0
0.361331957578	-8.58797062257	0
0.361526745696	-8.59502111831	0
0.361721533813	-8.60207132561	0
0.36191632193	-8.6091212445	0
0.362111110047	-8.61617087497	0
0.362305898165	-8.62322021705	0
0.362500686282	-8.63026927075	0
0.362695474399	-8.63731803608	0
0.362890262517	-8.64436651304	0
0.363085050634	-8.65141470166	0
0.363279838751	-8.65846260194	0
0.363474626869	-8.6655102139	0
0.363669414986	-8.67255753754	0
0.363864203103	-8.67960457288	0
0.36405899122	-8.68665131994	0
0.364253779338	-8.69369777871	0
0.364448567455	-8.70074394922	0
0.364643355572	-8.70778983147	0
0.36483814369	-8.71483542548	0
0.365032931807	-8.72188073126	0
0.365227719924	-8.72892574883	0
0.365422508041	-8.73597047818	0
0.365617296159	-8.74301491934	0
0.365812084276	-8.75005907231	0
0.366006872393	-8.75710293712	0
0.366201660511	-8.76414651376	0
0.366396448628	-8.77118980226	0
0.366591236745	-8.77823280261	0
0.366786024862	-8.78527551485	0
0.36698081298	-8.79231793897	0
0.367175601097	-8.79936007499	0
0.367370389214	-8.80640192292	0
0.367565177332	-8.81344348277	0
0.367759965449	-8.82048475455	0
0.367954753566	-8.82752573828	0
0.368149541684	-8.83456643397	0
0.368344329801	-8.84160684163	0
0.368539117918	-8.84864696127	0
0.368733906035	-8.8556867929	0
0.368928694153	-8.86272633653	0
0.36912348227	-8.86976559218	0
0.369318270387	-8.87680455986	0
0.369513058505	-8.88384323958	0
0.369707846622	-8.89088163135	0
0.369902634739	-8.89791973519	0
0.370097422856	-8.90495755109	0
0.370292210974	-8.91199507909	0
0.370486999091	-8.91903231918	0
0.370681787208	-8.92606927139	0
0.370876575326	-8.93310593571	0
0.371071363443	-8.94014231217	0
0.37126615156	-8.94717840078	0
0.371460939678	-8.95421420154	0
0.371655727795	-8.96124971447	0
0.371850515912	-8.96828493958	0
0.372045304029	-8.97531987689	0
0.372240092147	-8.9823545264	0
0.372434880264	-8.98938888812	0
0.372629668381	-8.99642296207	0
0.372824456499	-9.00345674826	0
0.373019244616	-9.01049024671	0
0.373214032733	-9.01752345741	0
0.37340882085	-9.02455638039	0
0.373603608968	-9.03158901566	0
0.373798397085	-9.03862136322	0
0.373993185202	-9.0456534231	0
0.37418797332	-9.05268519529	0
0.374382761437	-9.05971667982	0
0.374577549554	-9.0667478767	0
0.374772337671	-9.07377878593	0
0.374967125789	-9.08080940753	0
0.375161913906	-9.08783974151	0
0.375356702023	-9.09486978788	0
0.375551490141	-9.10189954666	0
0.375746278258	-9.10892901785	0
0.375941066375	-9.11595820147	0
0.376135854493	-9.12298709753	0
0.37633064261	-9.13001570603	0
0.376525430727	-9.13704402701	0
0.376720218844	-9.14407206045	0
0.376915006962	-9.15109980638	0
0.377109795079	-9.15812726481	0
0.377304583196	-9.16515443575	0
0.377499371314	-9.17218131921	0
0.377694159431	-9.1792079152	0
0.377888947548	-9.18623422374	0
0.378083735665	-9.19326024483	0
0.378278523783	-9.20028597849	0
0.3784733119	-9.20731142473	0
0.378668100017	-9.21433658356	0
0.378862888135	-9.221361455	0
0.379057676252	-9.22838603905	0
0.379252464369	-9.23541033573	0
0.379447252487	-9.24243434504	0
0.379642040604	-9.24945806701	0
0.379836828721	-9.25648150164	0
0.380031616838	-9.26350464894	0
0.380226404956	-9.27052750893	0
0.380421193073	-9.27755008161	0
0.38061598119	-9.284572367	0
0.380810769308	-9.29159436512	0
0.381005557425	-9.29861607596	0
0.381200345542	-9.30563749955	0
0.381395133659	-9.3126586359	0
0.381589921777	-9.31967948501	0
0.381784709894	-9.3267000469	0
0.381979498011	-9.33372032158	0
0.382174286129	-9.34074030907	0
0.382369074246	-9.34776000937	0
0.382563862363	-9.35477942249	0
0.382758650481	-9.36179854846	0
0.382953438598	-9.36881738727	0
0.383148226715	-9.37583593894	0
0.383343014832	-9.38285420349	0
0.38353780295	-9.38987218092	0
0.383732591067	-9.39688987125	0
0.383927379184	-9.40390727448	0
0.384122167302	-9.41092439064	0
0.384316955419	-9.41794121973	0
0.384511743536	-9.42495776176	0
0.384706531653	-9.43197401674	0
0.384901319771	-9.43898998469	0
0.385096107888	-9.44600566562	0
0.385290896005	-9.45302105954	0
0.385485684123	-9.46003616647	0
0.38568047224	-9.4670509864	0
0.385875260357	-9.47406551936	0
0.386070048474	-9.48107976536	0
0.386264836592	-9.48809372441	0
0.386459624709	-9.49510739651	0
0.386654412826	-9.50212078169	0
0.386849200944	-9.50913387995	0
0.387043989061	-9.51614669131	0
0.387238777178	-9.52315921578	0
0.387433565296	-9.53017145336	0
0.387628353413	-9.53718340407	0
0.38782314153	-9.54419506793	0
0.388017929647	-9.55120644494	0
0.388212717765	-9.55821753512	0
0.388407505882	-9.56522833847	0
0.388602293999	-9.57223885502	0
0.388797082117	-9.57924908476	0
0.388991870234	-9.58625902772	0
0.389186658351	-9.5932686839	0
0.389381446468	-9.60027805331	0
