t	i	extra
0.0626961317841	2.50784527136	0.125392263568
0.062696759059	2.50787036236	5
0.062697386334	2.50789545336	0
0.0626980136089	2.50792054436	0
0.0626986408839	2.50794563536	0
0.0626992681589	2.50797072635	0
0.0626998954338	2.50799581735	0
0.0627005227088	2.50802090835	0
0.0627011499837	2.50804599935	0
0.0627017772587	2.50807109035	0
0.0627024045336	2.50809618135	0
0.0627030318086	2.50812127234	0
0.0627036590835	2.50814636334	0
0.0627042863585	2.50817145434	0
0.0627049136335	2.50819654534	0
0.0627055409084	2.50822163634	0
0.0627061681834	2.50824672733	0
0.0627067954583	2.50827181833	0
0.0627074227333	2.50829690933	0
0.0627080500082	2.50832200033	0
0.0627086772832	2.50834709133	0
0.0627093045581	2.50837218233	0
0.0627099318331	2.50839727332	0
0.0627105591081	2.50842236432	0
0.062711186383	2.50844745532	0
0.062711813658	2.50847254632	0
0.0627124409329	2.50849763732	0
0.0627130682079	2.50852272831	0
0.0627136954828	2.50854781931	0
0.0627143227578	2.50857291031	0
0.0627149500327	2.50859800131	0
0.0627155773077	2.50862309231	0
0.0627162045826	2.50864818331	0
0.0627168318576	2.5086732743	0
0.0627174591326	2.5086983653	0
0.0627180864075	2.5087234563	0
0.0627187136825	2.5087485473	0
0.0627193409574	2.5087736383	0
0.0627199682324	2.5087987293	0
0.0627205955073	2.50882382029	0
0.0627212227823	2.50884891129	0
0.0627218500572	2.50887400229	0
0.0627224773322	2.50889909329	0
0.0627231046072	2.50892418429	0
0.0627237318821	2.50894927528	0
0.0627243591571	2.50897436628	0
0.062724986432	2.50899945728	0
0.062725613707	2.50902454828	0
0.0627262409819	2.50904963928	0
0.0627268682569	2.50907473028	0
0.0627274955318	2.50909982127	0
0.0627281228068	2.50912491227	0
0.0627287500818	2.50915000327	0
0.0627293773567	2.50917509427	0
0.0627300046317	2.50920018527	0
0.0627306319066	2.50922527626	0
0.0627312591816	2.50925036726	0
0.0627318864565	2.50927545826	0
0.0627325137315	2.50930054926	0
0.0627331410064	2.50932564026	0
0.0627337682814	2.50935073126	0
0.0627343955564	2.50937582225	0
0.0627350228313	2.50940091325	0
0.0627356501063	2.50942600425	0
0.0627362773812	2.50945109525	0
0.0627369046562	2.50947618625	0
0.0627375319311	2.50950127725	0
0.0627381592061	2.50952636824	0
0.062738786481	2.50955145924	0
0.062739413756	2.50957655024	0
0.062740041031	2.50960164124	0
0.0627406683059	2.50962673224	0
0.0627412955809	2.50965182323	0
0.0627419228558	2.50967691423	0
0.0627425501308	2.50970200523	0
0.0627431774057	2.50972709623	0
0.0627438046807	2.50975218723	0
0.0627444319556	2.50977727823	0
0.0627450592306	2.50980236922	0
0.0627456865055	2.50982746022	0
0.0627463137805	2.50985255122	0
0.0627469410555	2.50987764222	0
0.0627475683304	2.50990273322	0
0.0627481956054	2.50992782421	0
0.0627488228803	2.50995291521	0
0.0627494501553	2.50997800621	0
0.0627500774302	2.51000309721	0
0.0627507047052	2.51002818821	0
0.0627513319801	2.51005327921	0
0.0627519592551	2.5100783702	0
0.0627525865301	2.5101034612	0
0.062753213805	2.5101285522	0
0.06275384108	2.5101536432	0
0.0627544683549	2.5101787342	0
0.0627550956299	2.5102038252	0
0.0627557229048	2.51022891619	0
0.0627563501798	2.51025400719	0
0.0627569774547	2.51027909819	0
0.0627576047297	2.51030418919	0
0.0627582320047	2.51032928019	0
0.0627588592796	2.51035437118	0
0.0627594865546	2.51037946218	0
0.0627601138295	2.51040455318	0
0.0627607411045	2.51042964418	0
0.0627613683794	2.51045473518	0
0.0627619956544	2.51047982618	0
0.0627626229293	2.51050491717	0
0.0627632502043	2.51053000817	0
0.0627638774793	2.51055509917	0
0.0627645047542	2.51058019017	0
0.0627651320292	2.51060528117	0
0.0627657593041	2.51063037216	0
0.0627663865791	2.51065546316	0
0.062767013854	2.51068055416	0
0.062767641129	2.51070564516	0
0.0627682684039	2.51073073616	0
0.0627688956789	2.51075582716	0
0.0627695229539	2.51078091815	0
0.0627701502288	2.51080600915	0
0.0627707775038	2.51083110015	0
0.0627714047787	2.51085619115	0
0.0627720320537	2.51088128215	0
0.0627726593286	2.51090637315	0
0.0627732866036	2.51093146414	0
0.0627739138785	2.51095655514	0
0.0627745411535	2.51098164614	0
0.0627751684284	2.51100673714	0
0.0627757957034	2.51103182814	0
0.0627764229784	2.51105691913	0
0.0627770502533	2.51108201013	0
0.0627776775283	2.51110710113	0
0.0627783048032	2.51113219213	0
0.0627789320782	2.51115728313	0
0.0627795593531	2.51118237413	0
0.0627801866281	2.51120746512	0
0.062780813903	2.51123255612	0
0.062781441178	2.51125764712	0
0.062782068453	2.51128273812	0
0.0627826957279	2.51130782912	0
0.0627833230029	2.51133292011	0
0.0627839502778	2.51135801111	0
0.0627845775528	2.51138310211	0
0.0627852048277	2.51140819311	0
0.0627858321027	2.51143328411	0
0.0627864593776	2.51145837511	0
0.0627870866526	2.5114834661	0
0.0627877139276	2.5115085571	0
0.0627883412025	2.5115336481	0
0.0627889684775	2.5115587391	0
0.0627895957524	2.5115838301	0
0.0627902230274	2.5116089211	0
0.0627908503023	2.51163401209	0
0.0627914775773	2.51165910309	0
0.0627921048522	2.51168419409	0
0.0627927321272	2.51170928509	0
0.0627933594022	2.51173437609	0
0.0627939866771	2.51175946708	0
0.0627946139521	2.51178455808	0
0.062795241227	2.51180964908	0
0.062795868502	2.51183474008	0
0.0627964957769	2.51185983108	0
0.0627971230519	2.51188492208	0
0.0627977503268	2.51191001307	0
0.0627983776018	2.51193510407	0
0.0627990048768	2.51196019507	0
0.0627996321517	2.51198528607	0
0.0628002594267	2.51201037707	0
0.0628008867016	2.51203546806	0
0.0628015139766	2.51206055906	0
0.0628021412515	2.51208565006	0
0.0628027685265	2.51211074106	0
0.0628033958014	2.51213583206	0
0.0628040230764	2.51216092306	0
0.0628046503513	2.51218601405	0
0.0628052776263	2.51221110505	0
0.0628059049013	2.51223619605	0
0.0628065321762	2.51226128705	0
0.0628071594512	2.51228637805	0
0.0628077867261	2.51231146905	0
0.0628084140011	2.51233656004	0
0.062809041276	2.51236165104	0
0.062809668551	2.51238674204	0
0.0628102958259	2.51241183304	0
0.0628109231009	2.51243692404	0
0.0628115503759	2.51246201503	0
0.0628121776508	2.51248710603	0
0.0628128049258	2.51251219703	0
0.0628134322007	2.51253728803	0
0.0628140594757	2.51256237903	0
0.0628146867506	2.51258747003	0
0.0628153140256	2.51261256102	0
0.0628159413005	2.51263765202	0
0.0628165685755	2.51266274302	0
0.0628171958505	2.51268783402	0
0.0628178231254	2.51271292502	0
0.0628184504004	2.51273801601	0
0.0628190776753	2.51276310701	0
0.0628197049503	2.51278819801	0
0.0628203322252	2.51281328901	0
0.0628209595002	2.51283838001	0
0.0628215867751	2.51286347101	0
0.0628222140501	2.512888562	0
0.0628228413251	2.512913653	0
0.0628234686	2.512938744	0
0.062824095875	2.512963835	0
0.0628247231499	2.512988926	0
0.0628253504249	2.513014017	0
0.0628259776998	2.51303910799	0
0.0628266049748	2.51306419899	0
0.0628272322497	2.51308928999	0
0.0628278595247	2.51311438099	0
0.0628284867997	2.51313947199	0
0.0628291140746	2.51316456298	0
0.0628297413496	2.51318965398	0
0.0628303686245	2.51321474498	0
0.0628309958995	2.51323983598	0
0.0628316231744	2.51326492698	0
0.0628322504494	2.51329001798	0
0.0628328777243	2.51331510897	0
0.0628335049993	2.51334019997	0
0.0628341322742	2.51336529097	0
0.0628347595492	2.51339038197	0
0.0628353868242	2.51341547297	0
0.0628360140991	2.51344056396	0
0.0628366413741	2.51346565496	0
0.062837268649	2.51349074596	0
0.062837895924	2.51351583696	0
0.0628385231989	2.51354092796	0
0.0628391504739	2.51356601896	0
0.0628397777488	2.51359110995	0
0.0628404050238	2.51361620095	0
0.0628410322988	2.51364129195	0
0.0628416595737	2.51366638295	0
0.0628422868487	2.51369147395	0
0.0628429141236	2.51371656494	0
0.0628435413986	2.51374165594	0
0.0628441686735	2.51376674694	0
0.0628447959485	2.51379183794	0
0.0628454232234	2.51381692894	0
0.0628460504984	2.51384201994	0
0.0628466777734	2.51386711093	0
0.0628473050483	2.51389220193	0
0.0628479323233	2.51391729293	0
0.0628485595982	2.51394238393	0
0.0628491868732	2.51396747493	0
0.0628498141481	2.51399256593	0
0.0628504414231	2.51401765692	0
0.062851068698	2.51404274792	0
0.062851695973	2.51406783892	0
0.062852323248	2.51409292992	0
0.0628529505229	2.51411802092	0
0.0628535777979	2.51414311191	0
0.0628542050728	2.51416820291	0
0.0628548323478	2.51419329391	0
0.0628554596227	2.51421838491	0
0.0628560868977	2.51424347591	0
0.0628567141726	2.51426856691	0
0.0628573414476	2.5142936579	0
0.0628579687226	2.5143187489	0
0.0628585959975	2.5143438399	0
0.0628592232725	2.5143689309	0
0.0628598505474	2.5143940219	0
0.0628604778224	2.51441911289	0
0.0628611050973	2.51444420389	0
0.0628617323723	2.51446929489	0
0.0628623596472	2.51449438589	0
0.0628629869222	2.51451947689	0
0.0628636141971	2.51454456789	0
0.0628642414721	2.51456965888	0
0.0628648687471	2.51459474988	0
0.062865496022	2.51461984088	0
0.062866123297	2.51464493188	0
0.0628667505719	2.51467002288	0
0.0628673778469	2.51469511388	0
0.0628680051218	2.51472020487	0
0.0628686323968	2.51474529587	0
0.0628692596717	2.51477038687	0
0.0628698869467	2.51479547787	0
0.0628705142217	2.51482056887	0
0.0628711414966	2.51484565986	0
0.0628717687716	2.51487075086	0
0.0628723960465	2.51489584186	0
0.0628730233215	2.51492093286	0
0.0628736505964	2.51494602386	0
0.0628742778714	2.51497111486	0
0.0628749051463	2.51499620585	0
0.0628755324213	2.51502129685	0
0.0628761596963	2.51504638785	0
0.0628767869712	2.51507147885	0
0.0628774142462	2.51509656985	0
0.0628780415211	2.51512166084	0
0.0628786687961	2.51514675184	0
0.062879296071	2.51517184284	0
0.062879923346	2.51519693384	0
0.0628805506209	2.51522202484	0
0.0628811778959	2.51524711584	0
0.0628818051709	2.51527220683	0
0.0628824324458	2.51529729783	0
0.0628830597208	2.51532238883	0
0.0628836869957	2.51534747983	0
0.0628843142707	2.51537257083	0
0.0628849415456	2.51539766183	0
0.0628855688206	2.51542275282	0
0.0628861960955	2.51544784382	0
0.0628868233705	2.51547293482	0
0.0628874506455	2.51549802582	0
0.0628880779204	2.51552311682	0
0.0628887051954	2.51554820781	0
0.0628893324703	2.51557329881	0
0.0628899597453	2.51559838981	0
0.0628905870202	2.51562348081	0
0.0628912142952	2.51564857181	0
0.0628918415701	2.51567366281	0
0.0628924688451	2.5156987538	0
0.06289309612	2.5157238448	0
0.062893723395	2.5157489358	0
0.06289435067	2.5157740268	0
0.0628949779449	2.5157991178	0
0.0628956052199	2.51582420879	0
0.0628962324948	2.51584929979	0
0.0628968597698	2.51587439079	0
0.0628974870447	2.51589948179	0
0.0628981143197	2.51592457279	0
0.0628987415946	2.51594966379	0
0.0628993688696	2.51597475478	0
0.0628999961446	2.51599984578	0
0.0629006234195	2.51602493678	0
0.0629012506945	2.51605002778	0
0.0629018779694	2.51607511878	0
0.0629025052444	2.51610020978	0
0.0629031325193	2.51612530077	0
0.0629037597943	2.51615039177	0
0.0629043870692	2.51617548277	0
0.0629050143442	2.51620057377	0
0.0629056416192	2.51622566477	0
0.0629062688941	2.51625075576	0
0.0629068961691	2.51627584676	0
0.062907523444	2.51630093776	0
0.062908150719	2.51632602876	0
0.0629087779939	2.51635111976	0
0.0629094052689	2.51637621076	0
0.0629100325438	2.51640130175	0
0.0629106598188	2.51642639275	0
0.0629112870938	2.51645148375	0
0.0629119143687	2.51647657475	0
0.0629125416437	2.51650166575	0
0.0629131689186	2.51652675674	0
0.0629137961936	2.51655184774	0
0.0629144234685	2.51657693874	0
0.0629150507435	2.51660202974	0
0.0629156780184	2.51662712074	0
0.0629163052934	2.51665221174	0
0.0629169325684	2.51667730273	0
0.0629175598433	2.51670239373	0
0.0629181871183	2.51672748473	0
0.0629188143932	2.51675257573	0
0.0629194416682	2.51677766673	0
0.0629200689431	2.51680275773	0
0.0629206962181	2.51682784872	0
0.062921323493	2.51685293972	0
0.062921950768	2.51687803072	0
0.0629225780429	2.51690312172	0
0.0629232053179	2.51692821272	0
0.0629238325929	2.51695330371	0
0.0629244598678	2.51697839471	0
0.0629250871428	2.51700348571	0
0.0629257144177	2.51702857671	0
0.0629263416927	2.51705366771	0
0.0629269689676	2.51707875871	0
0.0629275962426	2.5171038497	0
0.0629282235175	2.5171289407	0
0.0629288507925	2.5171540317	0
0.0629294780675	2.5171791227	0
0.0629301053424	2.5172042137	0
0.0629307326174	2.51722930469	0
0.0629313598923	2.51725439569	0
0.0629319871673	2.51727948669	0
0.0629326144422	2.51730457769	0
0.0629332417172	2.51732966869	0
0.0629338689921	2.51735475969	0
0.0629344962671	2.51737985068	0
0.0629351235421	2.51740494168	0
0.062935750817	2.51743003268	0
0.062936378092	2.51745512368	0
0.0629370053669	2.51748021468	0
0.0629376326419	2.51750530568	0
0.0629382599168	2.51753039667	0
0.0629388871918	2.51755548767	0
0.0629395144667	2.51758057867	0
0.0629401417417	2.51760566967	0
0.0629407690167	2.51763076067	0
0.0629413962916	2.51765585166	0
0.0629420235666	2.51768094266	0
0.0629426508415	2.51770603366	0
0.0629432781165	2.51773112466	0
0.0629439053914	2.51775621566	0
0.0629445326664	2.51778130666	0
0.0629451599413	2.51780639765	0
0.0629457872163	2.51783148865	0
0.0629464144913	2.51785657965	0
0.0629470417662	2.51788167065	0
0.0629476690412	2.51790676165	0
0.0629482963161	2.51793185264	0
0.0629489235911	2.51795694364	0
0.062949550866	2.51798203464	0
0.062950178141	2.51800712564	0
0.0629508054159	2.51803221664	0
0.0629514326909	2.51805730764	0
0.0629520599658	2.51808239863	0
0.0629526872408	2.51810748963	0
0.0629533145158	2.51813258063	0
0.0629539417907	2.51815767163	0
0.0629545690657	2.51818276263	0
0.0629551963406	2.51820785363	0
0.0629558236156	2.51823294462	0
0.0629564508905	2.51825803562	0
0.0629570781655	2.51828312662	0
0.0629577054404	2.51830821762	0
0.0629583327154	2.51833330862	0
0.0629589599904	2.51835839961	0
0.0629595872653	2.51838349061	0
0.0629602145403	2.51840858161	0
0.0629608418152	2.51843367261	0
0.0629614690902	2.51845876361	0
0.0629620963651	2.51848385461	0
0.0629627236401	2.5185089456	0
0.062963350915	2.5185340366	0
0.06296397819	2.5185591276	0
0.062964605465	2.5185842186	0
0.0629652327399	2.5186093096	0
0.0629658600149	2.51863440059	0
0.0629664872898	2.51865949159	0
0.0629671145648	2.51868458259	0
0.0629677418397	2.51870967359	0
0.0629683691147	2.51873476459	0
0.0629689963896	2.51875985559	0
0.0629696236646	2.51878494658	0
0.0629702509396	2.51881003758	0
0.0629708782145	2.51883512858	0
0.0629715054895	2.51886021958	0
0.0629721327644	2.51888531058	0
0.0629727600394	2.51891040157	0
0.0629733873143	2.51893549257	0
0.0629740145893	2.51896058357	0
0.0629746418642	2.51898567457	0
0.0629752691392	2.51901076557	0
0.0629758964142	2.51903585657	0
0.0629765236891	2.51906094756	0
0.0629771509641	2.51908603856	0
0.062977778239	2.51911112956	0
0.062978405514	2.51913622056	0
0.0629790327889	2.51916131156	0
0.0629796600639	2.51918640256	0
0.0629802873388	2.51921149355	0
0.0629809146138	2.51923658455	0
0.0629815418887	2.51926167555	0
0.0629821691637	2.51928676655	0
0.0629827964387	2.51931185755	0
0.0629834237136	2.51933694854	0
0.0629840509886	2.51936203954	0
0.0629846782635	2.51938713054	0
0.0629853055385	2.51941222154	0
0.0629859328134	2.51943731254	0
0.0629865600884	2.51946240354	0
0.0629871873633	2.51948749453	0
0.0629878146383	2.51951258553	0
0.0629884419133	2.51953767653	0
0.0629890691882	2.51956276753	0
0.0629896964632	2.51958785853	0
0.0629903237381	2.51961294952	0
0.0629909510131	2.51963804052	0
0.062991578288	2.51966313152	0
0.062992205563	2.51968822252	0
0.0629928328379	2.51971331352	0
0.0629934601129	2.51973840452	0
0.0629940873879	2.51976349551	0
0.0629947146628	2.51978858651	0
0.0629953419378	2.51981367751	0
0.0629959692127	2.51983876851	0
0.0629965964877	2.51986385951	0
0.0629972237626	2.51988895051	0
0.0629978510376	2.5199140415	0
0.0629984783125	2.5199391325	0
0.0629991055875	2.5199642235	0
0.0629997328625	2.5199893145	0
0.0630003601374	2.5200144055	0
0.0630009874124	2.52003949649	0
0.0630016146873	2.52006458749	0
0.0630022419623	2.52008967849	0
0.0630028692372	2.52011476949	0
0.0630034965122	2.52013986049	0
0.0630041237871	2.52016495149	0
0.0630047510621	2.52019004248	0
0.0630053783371	2.52021513348	0
0.063006005612	2.52024022448	0
0.063006632887	2.52026531548	0
0.0630072601619	2.52029040648	0
0.0630078874369	2.52031549747	0
0.0630085147118	2.52034058847	0
0.0630091419868	2.52036567947	0
0.0630097692617	2.52039077047	0
0.0630103965367	2.52041586147	0
0.0630110238116	2.52044095247	0
0.0630116510866	2.52046604346	0
0.0630122783616	2.52049113446	0
0.0630129056365	2.52051622546	0
0.0630135329115	2.52054131646	0
0.0630141601864	2.52056640746	0
0.0630147874614	2.52059149846	0
0.0630154147363	2.52061658945	0
0.0630160420113	2.52064168045	0
0.0630166692862	2.52066677145	0
0.0630172965612	2.52069186245	0
0.0630179238362	2.52071695345	0
0.0630185511111	2.52074204444	0
0.0630191783861	2.52076713544	0
0.063019805661	2.52079222644	0
0.063020432936	2.52081731744	0
0.0630210602109	2.52084240844	0
0.0630216874859	2.52086749944	0
0.0630223147608	2.52089259043	0
0.0630229420358	2.52091768143	0
0.0630235693108	2.52094277243	0
0.0630241965857	2.52096786343	0
0.0630248238607	2.52099295443	0
0.0630254511356	2.52101804542	0
0.0630260784106	2.52104313642	0
0.0630267056855	2.52106822742	0
0.0630273329605	2.52109331842	0
0.0630279602354	2.52111840942	0
0.0630285875104	2.52114350042	0
0.0630292147854	2.52116859141	0
0.0630298420603	2.52119368241	0
0.0630304693353	2.52121877341	0
0.0630310966102	2.52124386441	0
0.0630317238852	2.52126895541	0
0.0630323511601	2.52129404641	0
0.0630329784351	2.5213191374	0
0.06303360571	2.5213442284	0
0.063034232985	2.5213693194	0
0.06303486026	2.5213944104	0
0.0630354875349	2.5214195014	0
0.0630361148099	2.52144459239	0
0.0630367420848	2.52146968339	0
0.0630373693598	2.52149477439	0
0.0630379966347	2.52151986539	0
0.0630386239097	2.52154495639	0
0.0630392511846	2.52157004739	0
0.0630398784596	2.52159513838	0
0.0630405057345	2.52162022938	0
0.0630411330095	2.52164532038	0
0.0630417602845	2.52167041138	0
0.0630423875594	2.52169550238	0
0.0630430148344	2.52172059337	0
0.0630436421093	2.52174568437	0
0.0630442693843	2.52177077537	0
0.0630448966592	2.52179586637	0
0.0630455239342	2.52182095737	0
0.0630461512091	2.52184604837	0
0.0630467784841	2.52187113936	0
0.0630474057591	2.52189623036	0
0.063048033034	2.52192132136	0
0.063048660309	2.52194641236	0
0.0630492875839	2.52197150336	0
0.0630499148589	2.52199659436	0
0.0630505421338	2.52202168535	0
0.0630511694088	2.52204677635	0
0.0630517966837	2.52207186735	0
0.0630524239587	2.52209695835	0
0.0630530512337	2.52212204935	0
0.0630536785086	2.52214714034	0
0.0630543057836	2.52217223134	0
0.0630549330585	2.52219732234	0
0.0630555603335	2.52222241334	0
0.0630561876084	2.52224750434	0
0.0630568148834	2.52227259534	0
0.0630574421583	2.52229768633	0
0.0630580694333	2.52232277733	0
0.0630586967083	2.52234786833	0
0.0630593239832	2.52237295933	0
0.0630599512582	2.52239805033	0
0.0630605785331	2.52242314132	0
0.0630612058081	2.52244823232	0
0.063061833083	2.52247332332	0
0.063062460358	2.52249841432	0
0.0630630876329	2.52252350532	0
0.0630637149079	2.52254859632	0
0.0630643421829	2.52257368731	0
0.0630649694578	2.52259877831	0
0.0630655967328	2.52262386931	0
0.0630662240077	2.52264896031	0
0.0630668512827	2.52267405131	0
0.0630674785576	2.52269914231	0
0.0630681058326	2.5227242333	0
0.0630687331075	2.5227493243	0
0.0630693603825	2.5227744153	0
0.0630699876574	2.5227995063	0
0.0630706149324	2.5228245973	0
0.0630712422074	2.52284968829	0
0.0630718694823	2.52287477929	0
0.0630724967573	2.52289987029	0
0.0630731240322	2.52292496129	0
0.0630737513072	2.52295005229	0
0.0630743785821	2.52297514329	0
0.0630750058571	2.52300023428	0
0.063075633132	2.52302532528	0
0.063076260407	2.52305041628	0
0.063076887682	2.52307550728	0
0.0630775149569	2.52310059828	0
0.0630781422319	2.52312568927	0
0.0630787695068	2.52315078027	0
0.0630793967818	2.52317587127	0
0.0630800240567	2.52320096227	0
0.0630806513317	2.52322605327	0
0.0630812786066	2.52325114427	0
0.0630819058816	2.52327623526	0
0.0630825331566	2.52330132626	0
0.0630831604315	2.52332641726	0
0.0630837877065	2.52335150826	0
0.0630844149814	2.52337659926	0
0.0630850422564	2.52340169026	0
0.0630856695313	2.52342678125	0
0.0630862968063	2.52345187225	0
0.0630869240812	2.52347696325	0
0.0630875513562	2.52350205425	0
0.0630881786312	2.52352714525	0
0.0630888059061	2.52355223624	0
0.0630894331811	2.52357732724	0
0.063090060456	2.52360241824	0
0.063090687731	2.52362750924	0
0.0630913150059	2.52365260024	0
0.0630919422809	2.52367769124	0
0.0630925695558	2.52370278223	0
0.0630931968308	2.52372787323	0
0.0630938241058	2.52375296423	0
0.0630944513807	2.52377805523	0
0.0630950786557	2.52380314623	0
0.0630957059306	2.52382823722	0
0.0630963332056	2.52385332822	0
0.0630969604805	2.52387841922	0
0.0630975877555	2.52390351022	0
0.0630982150304	2.52392860122	0
0.0630988423054	2.52395369222	0
0.0630994695803	2.52397878321	0
0.0631000968553	2.52400387421	0
0.0631007241303	2.52402896521	0
0.0631013514052	2.52405405621	0
0.0631019786802	2.52407914721	0
0.0631026059551	2.52410423821	0
0.0631032332301	2.5241293292	0
0.063103860505	2.5241544202	0
0.06310448778	2.5241795112	0
0.0631051150549	2.5242046022	0
0.0631057423299	2.5242296932	0
0.0631063696049	2.52425478419	0
0.0631069968798	2.52427987519	0
0.0631076241548	2.52430496619	0
0.0631082514297	2.52433005719	0
0.0631088787047	2.52435514819	0
0.0631095059796	2.52438023919	0
0.0631101332546	2.52440533018	0
0.0631107605295	2.52443042118	0
0.0631113878045	2.52445551218	0
0.0631120150795	2.52448060318	0
0.0631126423544	2.52450569418	0
0.0631132696294	2.52453078517	0
0.0631138969043	2.52455587617	0
0.0631145241793	2.52458096717	0
0.0631151514542	2.52460605817	0
0.0631157787292	2.52463114917	0
0.0631164060041	2.52465624017	0
0.0631170332791	2.52468133116	0
0.0631176605541	2.52470642216	0
0.063118287829	2.52473151316	0
0.063118915104	2.52475660416	0
0.0631195423789	2.52478169516	0
0.0631201696539	2.52480678615	0
0.0631207969288	2.52483187715	0
0.0631214242038	2.52485696815	0
0.0631220514787	2.52488205915	0
0.0631226787537	2.52490715015	0
0.0631233060287	2.52493224115	0
0.0631239333036	2.52495733214	0
0.0631245605786	2.52498242314	0
0.0631251878535	2.52500751414	0
0.0631258151285	2.52503260514	0
0.0631264424034	2.52505769614	0
0.0631270696784	2.52508278714	0
0.0631276969533	2.52510787813	0
0.0631283242283	2.52513296913	0
0.0631289515032	2.52515806013	0
0.0631295787782	2.52518315113	0
0.0631302060532	2.52520824213	0
0.0631308333281	2.52523333312	0
0.0631314606031	2.52525842412	0
0.063132087878	2.52528351512	0
0.063132715153	2.52530860612	0
0.0631333424279	2.52533369712	0
0.0631339697029	2.52535878812	0
0.0631345969778	2.52538387911	0
0.0631352242528	2.52540897011	0
0.0631358515278	2.52543406111	0
0.0631364788027	2.52545915211	0
0.0631371060777	2.52548424311	0
0.0631377333526	2.5255093341	0
0.0631383606276	2.5255344251	0
0.0631389879025	2.5255595161	0
0.0631396151775	2.5255846071	0
0.0631402424524	2.5256096981	0
0.0631408697274	2.5256347891	0
0.0631414970024	2.52565988009	0
0.0631421242773	2.52568497109	0
0.0631427515523	2.52571006209	0
0.0631433788272	2.52573515309	0
0.0631440061022	2.52576024409	0
0.0631446333771	2.52578533509	0
0.0631452606521	2.52581042608	0
0.063145887927	2.52583551708	0
0.063146515202	2.52586060808	0
0.063147142477	2.52588569908	0
0.0631477697519	2.52591079008	0
0.0631483970269	2.52593588107	0
0.0631490243018	2.52596097207	0
0.0631496515768	2.52598606307	0
0.0631502788517	2.52601115407	0
0.0631509061267	2.52603624507	0
0.0631515334016	2.52606133607	0
0.0631521606766	2.52608642706	0
0.0631527879516	2.52611151806	0
0.0631534152265	2.52613660906	0
0.0631540425015	2.52616170006	0
0.0631546697764	2.52618679106	0
0.0631552970514	2.52621188205	0
0.0631559243263	2.52623697305	0
0.0631565516013	2.52626206405	0
0.0631571788762	2.52628715505	0
0.0631578061512	2.52631224605	0
0.0631584334261	2.52633733705	0
0.0631590607011	2.52636242804	0
0.0631596879761	2.52638751904	0
0.063160315251	2.52641261004	0
0.063160942526	2.52643770104	0
0.0631615698009	2.52646279204	0
0.0631621970759	2.52648788304	0
0.0631628243508	2.52651297403	0
0.0631634516258	2.52653806503	0
0.0631640789007	2.52656315603	0
0.0631647061757	2.52658824703	0
0.0631653334507	2.52661333803	0
0.0631659607256	2.52663842902	0
0.0631665880006	2.52666352002	0
0.0631672152755	2.52668861102	0
0.0631678425505	2.52671370202	0
0.0631684698254	2.52673879302	0
0.0631690971004	2.52676388402	0
0.0631697243753	2.52678897501	0
0.0631703516503	2.52681406601	0
0.0631709789253	2.52683915701	0
0.0631716062002	2.52686424801	0
0.0631722334752	2.52688933901	0
0.0631728607501	2.52691443	0
0.0631734880251	2.526939521	0
0.0631741153	2.526964612	0
0.063174742575	2.526989703	0
0.0631753698499	2.527014794	0
0.0631759971249	2.527039885	0
0.0631766243999	2.52706497599	0
0.0631772516748	2.52709006699	0
0.0631778789498	2.52711515799	0
0.0631785062247	2.52714024899	0
0.0631791334997	2.52716533999	0
0.0631797607746	2.52719043099	0
0.0631803880496	2.52721552198	0
0.0631810153245	2.52724061298	0
0.0631816425995	2.52726570398	0
0.0631822698745	2.52729079498	0
0.0631828971494	2.52731588598	0
0.0631835244244	2.52734097697	0
0.0631841516993	2.52736606797	0
0.0631847789743	2.52739115897	0
0.0631854062492	2.52741624997	0
0.0631860335242	2.52744134097	0
0.0631866607991	2.52746643197	0
0.0631872880741	2.52749152296	0
0.063187915349	2.52751661396	0
0.063188542624	2.52754170496	0
0.063189169899	2.52756679596	0
0.0631897971739	2.52759188696	0
0.0631904244489	2.52761697795	0
0.0631910517238	2.52764206895	0
0.0631916789988	2.52766715995	0
0.0631923062737	2.52769225095	0
0.0631929335487	2.52771734195	0
0.0631935608236	2.52774243295	0
0.0631941880986	2.52776752394	0
0.0631948153736	2.52779261494	0
0.0631954426485	2.52781770594	0
0.0631960699235	2.52784279694	0
0.0631966971984	2.52786788794	0
0.0631973244734	2.52789297894	0
0.0631979517483	2.52791806993	0
0.0631985790233	2.52794316093	0
0.0631992062982	2.52796825193	0
0.0631998335732	2.52799334293	0
0.0632004608482	2.52801843393	0
0.0632010881231	2.52804352492	0
0.0632017153981	2.52806861592	0
0.063202342673	2.52809370692	0
0.063202969948	2.52811879792	0
0.0632035972229	2.52814388892	0
0.0632042244979	2.52816897992	0
0.0632048517728	2.52819407091	0
0.0632054790478	2.52821916191	0
0.0632061063228	2.52824425291	0
0.0632067335977	2.52826934391	0
0.0632073608727	2.52829443491	0
0.0632079881476	2.5283195259	0
0.0632086154226	2.5283446169	0
0.0632092426975	2.5283697079	0
0.0632098699725	2.5283947989	0
0.0632104972474	2.5284198899	0
0.0632111245224	2.5284449809	0
0.0632117517974	2.52847007189	0
0.0632123790723	2.52849516289	0
0.0632130063473	2.52852025389	0
0.0632136336222	2.52854534489	0
0.0632142608972	2.52857043589	0
0.0632148881721	2.52859552689	0
0.0632155154471	2.52862061788	0
0.063216142722	2.52864570888	0
0.063216769997	2.52867079988	0
0.0632173972719	2.52869589088	0
0.0632180245469	2.52872098188	0
0.0632186518219	2.52874607287	0
0.0632192790968	2.52877116387	0
0.0632199063718	2.52879625487	0
0.0632205336467	2.52882134587	0
0.0632211609217	2.52884643687	0
0.0632217881966	2.52887152787	0
0.0632224154716	2.52889661886	0
0.0632230427465	2.52892170986	0
0.0632236700215	2.52894680086	0
0.0632242972965	2.52897189186	0
0.0632249245714	2.52899698286	0
0.0632255518464	2.52902207385	0
0.0632261791213	2.52904716485	0
0.0632268063963	2.52907225585	0
0.0632274336712	2.52909734685	0
0.0632280609462	2.52912243785	0
0.0632286882211	2.52914752885	0
0.0632293154961	2.52917261984	0
0.0632299427711	2.52919771084	0
0.063230570046	2.52922280184	0
0.063231197321	2.52924789284	0
0.0632318245959	2.52927298384	0
0.0632324518709	2.52929807484	0
0.0632330791458	2.52932316583	0
0.0632337064208	2.52934825683	0
0.0632343336957	2.52937334783	0
0.0632349609707	2.52939843883	0
0.0632355882457	2.52942352983	0
0.0632362155206	2.52944862082	0
0.0632368427956	2.52947371182	0
0.0632374700705	2.52949880282	0
0.0632380973455	2.52952389382	0
0.0632387246204	2.52954898482	0
0.0632393518954	2.52957407582	0
0.0632399791703	2.52959916681	0
0.0632406064453	2.52962425781	0
0.0632412337203	2.52964934881	0
0.0632418609952	2.52967443981	0
0.0632424882702	2.52969953081	0
0.0632431155451	2.5297246218	0
0.0632437428201	2.5297497128	0
0.063244370095	2.5297748038	0
0.06324499737	2.5297998948	0
0.0632456246449	2.5298249858	0
0.0632462519199	2.5298500768	0
0.0632468791948	2.52987516779	0
0.0632475064698	2.52990025879	0
0.0632481337448	2.52992534979	0
0.0632487610197	2.52995044079	0
0.0632493882947	2.52997553179	0
0.0632500155696	2.53000062279	0
0.0632506428446	2.53002571378	0
0.0632512701195	2.53005080478	0
0.0632518973945	2.53007589578	0
0.0632525246694	2.53010098678	0
0.0632531519444	2.53012607778	0
0.0632537792194	2.53015116877	0
0.0632544064943	2.53017625977	0
0.0632550337693	2.53020135077	0
0.0632556610442	2.53022644177	0
0.0632562883192	2.53025153277	0
0.0632569155941	2.53027662377	0
0.0632575428691	2.53030171476	0
0.063258170144	2.53032680576	0
0.063258797419	2.53035189676	0
0.063259424694	2.53037698776	0
0.0632600519689	2.53040207876	0
0.0632606792439	2.53042716975	0
0.0632613065188	2.53045226075	0
0.0632619337938	2.53047735175	0
0.0632625610687	2.53050244275	0
0.0632631883437	2.53052753375	0
0.0632638156186	2.53055262475	0
0.0632644428936	2.53057771574	0
0.0632650701686	2.53060280674	0
0.0632656974435	2.53062789774	0
0.0632663247185	2.53065298874	0
0.0632669519934	2.53067807974	0
0.0632675792684	2.53070317073	0
0.0632682065433	2.53072826173	0
0.0632688338183	2.53075335273	0
0.0632694610932	2.53077844373	0
0.0632700883682	2.53080353473	0
0.0632707156432	2.53082862573	0
0.0632713429181	2.53085371672	0
0.0632719701931	2.53087880772	0
0.063272597468	2.53090389872	0
0.063273224743	2.53092898972	0
0.0632738520179	2.53095408072	0
0.0632744792929	2.53097917172	0
0.0632751065678	2.53100426271	0
0.0632757338428	2.53102935371	0
0.0632763611177	2.53105444471	0
0.0632769883927	2.53107953571	0
0.0632776156677	2.53110462671	0
0.0632782429426	2.5311297177	0
0.0632788702176	2.5311548087	0
0.0632794974925	2.5311798997	0
0.0632801247675	2.5312049907	0
0.0632807520424	2.5312300817	0
0.0632813793174	2.5312551727	0
0.0632820065923	2.53128026369	0
0.0632826338673	2.53130535469	0
0.0632832611423	2.53133044569	0
0.0632838884172	2.53135553669	0
0.0632845156922	2.53138062769	0
0.0632851429671	2.53140571868	0
0.0632857702421	2.53143080968	0
0.063286397517	2.53145590068	0
0.063287024792	2.53148099168	0
0.0632876520669	2.53150608268	0
0.0632882793419	2.53153117368	0
0.0632889066169	2.53155626467	0
0.0632895338918	2.53158135567	0
0.0632901611668	2.53160644667	0
0.0632907884417	2.53163153767	0
0.0632914157167	2.53165662867	0
0.0632920429916	2.53168171967	0
0.0632926702666	2.53170681066	0
0.0632932975415	2.53173190166	0
0.0632939248165	2.53175699266	0
0.0632945520915	2.53178208366	0
0.0632951793664	2.53180717466	0
0.0632958066414	2.53183226565	0
0.0632964339163	2.53185735665	0
0.0632970611913	2.53188244765	0
0.0632976884662	2.53190753865	0
0.0632983157412	2.53193262965	0
0.0632989430161	2.53195772065	0
0.0632995702911	2.53198281164	0
0.0633001975661	2.53200790264	0
0.063300824841	2.53203299364	0
0.063301452116	2.53205808464	0
0.0633020793909	2.53208317564	0
0.0633027066659	2.53210826663	0
0.0633033339408	2.53213335763	0
0.0633039612158	2.53215844863	0
0.0633045884907	2.53218353963	0
0.0633052157657	2.53220863063	0
0.0633058430406	2.53223372163	0
0.0633064703156	2.53225881262	0
0.0633070975906	2.53228390362	0
0.0633077248655	2.53230899462	0
0.0633083521405	2.53233408562	0
0.0633089794154	2.53235917662	0
0.0633096066904	2.53238426762	0
0.0633102339653	2.53240935861	0
0.0633108612403	2.53243444961	0
0.0633114885152	2.53245954061	0
0.0633121157902	2.53248463161	0
0.0633127430652	2.53250972261	0
0.0633133703401	2.5325348136	0
0.0633139976151	2.5325599046	0
0.06331462489	2.5325849956	0
0.063315252165	2.5326100866	0
0.0633158794399	2.5326351776	0
0.0633165067149	2.5326602686	0
0.0633171339898	2.53268535959	0
0.0633177612648	2.53271045059	0
0.0633183885398	2.53273554159	0
0.0633190158147	2.53276063259	0
0.0633196430897	2.53278572359	0
0.0633202703646	2.53281081458	0
0.0633208976396	2.53283590558	0
0.0633215249145	2.53286099658	0
0.0633221521895	2.53288608758	0
0.0633227794644	2.53291117858	0
0.0633234067394	2.53293626958	0
0.0633240340144	2.53296136057	0
0.0633246612893	2.53298645157	0
0.0633252885643	2.53301154257	0
0.0633259158392	2.53303663357	0
0.0633265431142	2.53306172457	0
0.0633271703891	2.53308681557	0
0.0633277976641	2.53311190656	0
0.063328424939	2.53313699756	0
0.063329052214	2.53316208856	0
0.063329679489	2.53318717956	0
0.0633303067639	2.53321227056	0
0.0633309340389	2.53323736155	0
0.0633315613138	2.53326245255	0
0.0633321885888	2.53328754355	0
0.0633328158637	2.53331263455	0
0.0633334431387	2.53333772555	0
0.0633340704136	2.53336281655	0
0.0633346976886	2.53338790754	0
0.0633353249635	2.53341299854	0
0.0633359522385	2.53343808954	0
0.0633365795135	2.53346318054	0
0.0633372067884	2.53348827154	0
0.0633378340634	2.53351336253	0
0.0633384613383	2.53353845353	0
0.0633390886133	2.53356354453	0
0.0633397158882	2.53358863553	0
0.0633403431632	2.53361372653	0
0.0633409704381	2.53363881753	0
0.0633415977131	2.53366390852	0
0.0633422249881	2.53368899952	0
0.063342852263	2.53371409052	0
0.063343479538	2.53373918152	0
0.0633441068129	2.53376427252	0
0.0633447340879	2.53378936352	0
0.0633453613628	2.53381445451	0
0.0633459886378	2.53383954551	0
0.0633466159127	2.53386463651	0
0.0633472431877	2.53388972751	0
0.0633478704627	2.53391481851	0
0.0633484977376	2.5339399095	0
0.0633491250126	2.5339650005	0
0.0633497522875	2.5339900915	0
0.0633503795625	2.5340151825	0
0.0633510068374	2.5340402735	0
0.0633516341124	2.5340653645	0
0.0633522613873	2.53409045549	0
0.0633528886623	2.53411554649	0
0.0633535159373	2.53414063749	0
0.0633541432122	2.53416572849	0
0.0633547704872	2.53419081949	0
0.0633553977621	2.53421591048	0
0.0633560250371	2.53424100148	0
0.063356652312	2.53426609248	0
0.063357279587	2.53429118348	0
0.0633579068619	2.53431627448	0
0.0633585341369	2.53434136548	0
0.0633591614119	2.53436645647	0
0.0633597886868	2.53439154747	0
0.0633604159618	2.53441663847	0
0.0633610432367	2.53444172947	0
0.0633616705117	2.53446682047	0
0.0633622977866	2.53449191147	0
0.0633629250616	2.53451700246	0
0.0633635523365	2.53454209346	0
0.0633641796115	2.53456718446	0
0.0633648068864	2.53459227546	0
0.0633654341614	2.53461736646	0
0.0633660614364	2.53464245745	0
0.0633666887113	2.53466754845	0
0.0633673159863	2.53469263945	0
0.0633679432612	2.53471773045	0
0.0633685705362	2.53474282145	0
0.0633691978111	2.53476791245	0
0.0633698250861	2.53479300344	0
0.063370452361	2.53481809444	0
0.063371079636	2.53484318544	0
0.063371706911	2.53486827644	0
0.0633723341859	2.53489336744	0
0.0633729614609	2.53491845843	0
0.0633735887358	2.53494354943	0
0.0633742160108	2.53496864043	0
0.0633748432857	2.53499373143	0
0.0633754705607	2.53501882243	0
0.0633760978356	2.53504391343	0
0.0633767251106	2.53506900442	0
0.0633773523856	2.53509409542	0
0.0633779796605	2.53511918642	0
0.0633786069355	2.53514427742	0
0.0633792342104	2.53516936842	0
0.0633798614854	2.53519445942	0
0.0633804887603	2.53521955041	0
0.0633811160353	2.53524464141	0
0.0633817433102	2.53526973241	0
0.0633823705852	2.53529482341	0
0.0633829978602	2.53531991441	0
0.0633836251351	2.5353450054	0
0.0633842524101	2.5353700964	0
0.063384879685	2.5353951874	0
0.06338550696	2.5354202784	0
0.0633861342349	2.5354453694	0
0.0633867615099	2.5354704604	0
0.0633873887848	2.53549555139	0
0.0633880160598	2.53552064239	0
0.0633886433348	2.53554573339	0
0.0633892706097	2.53557082439	0
0.0633898978847	2.53559591539	0
0.0633905251596	2.53562100638	0
0.0633911524346	2.53564609738	0
0.0633917797095	2.53567118838	0
0.0633924069845	2.53569627938	0
0.0633930342594	2.53572137038	0
0.0633936615344	2.53574646138	0
0.0633942888093	2.53577155237	0
0.0633949160843	2.53579664337	0
0.0633955433593	2.53582173437	0
0.0633961706342	2.53584682537	0
0.0633967979092	2.53587191637	0
0.0633974251841	2.53589700737	0
0.0633980524591	2.53592209836	0
0.063398679734	2.53594718936	0
0.063399307009	2.53597228036	0
0.0633999342839	2.53599737136	0
0.0634005615589	2.53602246236	0
0.0634011888339	2.53604755335	0
0.0634018161088	2.53607264435	0
0.0634024433838	2.53609773535	0
0.0634030706587	2.53612282635	0
0.0634036979337	2.53614791735	0
0.0634043252086	2.53617300835	0
0.0634049524836	2.53619809934	0
0.0634055797585	2.53622319034	0
0.0634062070335	2.53624828134	0
0.0634068343085	2.53627337234	0
0.0634074615834	2.53629846334	0
0.0634080888584	2.53632355433	0
0.0634087161333	2.53634864533	0
0.0634093434083	2.53637373633	0
0.0634099706832	2.53639882733	0
0.0634105979582	2.53642391833	0
0.0634112252331	2.53644900933	0
0.0634118525081	2.53647410032	0
0.0634124797831	2.53649919132	0
0.063413107058	2.53652428232	0
0.063413734333	2.53654937332	0
0.0634143616079	2.53657446432	0
0.0634149888829	2.53659955531	0
0.0634156161578	2.53662464631	0
0.0634162434328	2.53664973731	0
0.0634168707077	2.53667482831	0
0.0634174979827	2.53669991931	0
0.0634181252577	2.53672501031	0
0.0634187525326	2.5367501013	0
0.0634193798076	2.5367751923	0
0.0634200070825	2.5368002833	0
0.0634206343575	2.5368253743	0
0.0634212616324	2.5368504653	0
0.0634218889074	2.5368755563	0
0.0634225161823	2.53690064729	0
0.0634231434573	2.53692573829	0
0.0634237707322	2.53695082929	0
0.0634243980072	2.53697592029	0
0.0634250252822	2.53700101129	0
0.0634256525571	2.53702610228	0
0.0634262798321	2.53705119328	0
0.063426907107	2.53707628428	0
0.063427534382	2.53710137528	0
0.0634281616569	2.53712646628	0
0.0634287889319	2.53715155728	0
0.0634294162068	2.53717664827	0
0.0634300434818	2.53720173927	0
0.0634306707568	2.53722683027	0
0.0634312980317	2.53725192127	0
0.0634319253067	2.53727701227	0
0.0634325525816	2.53730210326	0
0.0634331798566	2.53732719426	0
0.0634338071315	2.53735228526	0
0.0634344344065	2.53737737626	0
0.0634350616814	2.53740246726	0
0.0634356889564	2.53742755826	0
0.0634363162314	2.53745264925	0
0.0634369435063	2.53747774025	0
0.0634375707813	2.53750283125	0
0.0634381980562	2.53752792225	0
0.0634388253312	2.53755301325	0
0.0634394526061	2.53757810425	0
0.0634400798811	2.53760319524	0
0.063440707156	2.53762828624	0
0.063441334431	2.53765337724	0
0.063441961706	2.53767846824	0
0.0634425889809	2.53770355924	0
0.0634432162559	2.53772865023	0
0.0634438435308	2.53775374123	0
0.0634444708058	2.53777883223	0
0.0634450980807	2.53780392323	0
0.0634457253557	2.53782901423	0
0.0634463526306	2.53785410523	0
0.0634469799056	2.53787919622	0
0.0634476071806	2.53790428722	0
0.0634482344555	2.53792937822	0
0.0634488617305	2.53795446922	0
0.0634494890054	2.53797956022	0
0.0634501162804	2.53800465121	0
0.0634507435553	2.53802974221	0
0.0634513708303	2.53805483321	0
0.0634519981052	2.53807992421	0
0.0634526253802	2.53810501521	0
0.0634532526551	2.53813010621	0
0.0634538799301	2.5381551972	0
0.0634545072051	2.5381802882	0
0.06345513448	2.5382053792	0
0.063455761755	2.5382304702	0
0.0634563890299	2.5382555612	0
0.0634570163049	2.5382806522	0
0.0634576435798	2.53830574319	0
0.0634582708548	2.53833083419	0
0.0634588981297	2.53835592519	0
0.0634595254047	2.53838101619	0
0.0634601526797	2.53840610719	0
0.0634607799546	2.53843119818	0
0.0634614072296	2.53845628918	0
0.0634620345045	2.53848138018	0
0.0634626617795	2.53850647118	0
0.0634632890544	2.53853156218	0
0.0634639163294	2.53855665318	0
0.0634645436043	2.53858174417	0
0.0634651708793	2.53860683517	0
0.0634657981543	2.53863192617	0
0.0634664254292	2.53865701717	0
0.0634670527042	2.53868210817	0
0.0634676799791	2.53870719916	0
0.0634683072541	2.53873229016	0
0.063468934529	2.53875738116	0
0.063469561804	2.53878247216	0
0.0634701890789	2.53880756316	0
0.0634708163539	2.53883265416	0
0.0634714436289	2.53885774515	0
0.0634720709038	2.53888283615	0
0.0634726981788	2.53890792715	0
0.0634733254537	2.53893301815	0
0.0634739527287	2.53895810915	0
0.0634745800036	2.53898320015	0
0.0634752072786	2.53900829114	0
0.0634758345535	2.53903338214	0
0.0634764618285	2.53905847314	0
0.0634770891035	2.53908356414	0
0.0634777163784	2.53910865514	0
0.0634783436534	2.53913374613	0
0.0634789709283	2.53915883713	0
0.0634795982033	2.53918392813	0
0.0634802254782	2.53920901913	0
0.0634808527532	2.53923411013	0
0.0634814800281	2.53925920113	0
0.0634821073031	2.53928429212	0
0.063482734578	2.53930938312	0
0.063483361853	2.53933447412	0
0.063483989128	2.53935956512	0
0.0634846164029	2.53938465612	0
0.0634852436779	2.53940974711	0
0.0634858709528	2.53943483811	0
0.0634864982278	2.53945992911	0
0.0634871255027	2.53948502011	0
0.0634877527777	2.53951011111	0
0.0634883800526	2.53953520211	0
0.0634890073276	2.5395602931	0
0.0634896346026	2.5395853841	0
0.0634902618775	2.5396104751	0
0.0634908891525	2.5396355661	0
0.0634915164274	2.5396606571	0
0.0634921437024	2.5396857481	0
0.0634927709773	2.53971083909	0
0.0634933982523	2.53973593009	0
0.0634940255272	2.53976102109	0
0.0634946528022	2.53978611209	0
0.0634952800772	2.53981120309	0
0.0634959073521	2.53983629408	0
0.0634965346271	2.53986138508	0
0.063497161902	2.53988647608	0
0.063497789177	2.53991156708	0
0.0634984164519	2.53993665808	0
0.0634990437269	2.53996174908	0
0.0634996710018	2.53998684007	0
0.0635002982768	2.54001193107	0
0.0635009255518	2.54003702207	0
0.0635015528267	2.54006211307	0
0.0635021801017	2.54008720407	0
0.0635028073766	2.54011229506	0
0.0635034346516	2.54013738606	0
0.0635040619265	2.54016247706	0
0.0635046892015	2.54018756806	0
0.0635053164764	2.54021265906	0
0.0635059437514	2.54023775006	0
0.0635065710264	2.54026284105	0
0.0635071983013	2.54028793205	0
0.0635078255763	2.54031302305	0
0.0635084528512	2.54033811405	0
0.0635090801262	2.54036320505	0
0.0635097074011	2.54038829605	0
0.0635103346761	2.54041338704	0
0.063510961951	2.54043847804	0
0.063511589226	2.54046356904	0
0.0635122165009	2.54048866004	0
0.0635128437759	2.54051375104	0
0.0635134710509	2.54053884203	0
0.0635140983258	2.54056393303	0
0.0635147256008	2.54058902403	0
0.0635153528757	2.54061411503	0
0.0635159801507	2.54063920603	0
0.0635166074256	2.54066429703	0
0.0635172347006	2.54068938802	0
0.0635178619755	2.54071447902	0
0.0635184892505	2.54073957002	0
0.0635191165255	2.54076466102	0
0.0635197438004	2.54078975202	0
0.0635203710754	2.54081484301	0
0.0635209983503	2.54083993401	0
0.0635216256253	2.54086502501	0
0.0635222529002	2.54089011601	0
0.0635228801752	2.54091520701	0
0.0635235074501	2.54094029801	0
0.0635241347251	2.540965389	0
0.0635247620001	2.54099048	0
0.063525389275	2.541015571	0
0.06352601655	2.541040662	0
0.0635266438249	2.541065753	0
0.0635272710999	2.541090844	0
0.0635278983748	2.54111593499	0
0.0635285256498	2.54114102599	0
0.0635291529247	2.54116611699	0
0.0635297801997	2.54119120799	0
0.0635304074747	2.54121629899	0
0.0635310347496	2.54124138998	0
0.0635316620246	2.54126648098	0
0.0635322892995	2.54129157198	0
0.0635329165745	2.54131666298	0
0.0635335438494	2.54134175398	0
0.0635341711244	2.54136684498	0
0.0635347983993	2.54139193597	0
0.0635354256743	2.54141702697	0
0.0635360529493	2.54144211797	0
0.0635366802242	2.54146720897	0
0.0635373074992	2.54149229997	0
0.0635379347741	2.54151739096	0
0.0635385620491	2.54154248196	0
0.063539189324	2.54156757296	0
0.063539816599	2.54159266396	0
0.0635404438739	2.54161775496	0
0.0635410711489	2.54164284596	0
0.0635416984238	2.54166793695	0
0.0635423256988	2.54169302795	0
0.0635429529738	2.54171811895	0
0.0635435802487	2.54174320995	0
0.0635442075237	2.54176830095	0
0.0635448347986	2.54179339195	0
0.0635454620736	2.54181848294	0
0.0635460893485	2.54184357394	0
0.0635467166235	2.54186866494	0
0.0635473438984	2.54189375594	0
0.0635479711734	2.54191884694	0
0.0635485984484	2.54194393793	0
0.0635492257233	2.54196902893	0
0.0635498529983	2.54199411993	0
0.0635504802732	2.54201921093	0
0.0635511075482	2.54204430193	0
0.0635517348231	2.54206939293	0
0.0635523620981	2.54209448392	0
0.063552989373	2.54211957492	0
0.063553616648	2.54214466592	0
0.063554243923	2.54216975692	0
0.0635548711979	2.54219484792	0
0.0635554984729	2.54221993891	0
0.0635561257478	2.54224502991	0
0.0635567530228	2.54227012091	0
0.0635573802977	2.54229521191	0
0.0635580075727	2.54232030291	0
0.0635586348476	2.54234539391	0
0.0635592621226	2.5423704849	0
0.0635598893976	2.5423955759	0
0.0635605166725	2.5424206669	0
0.0635611439475	2.5424457579	0
0.0635617712224	2.5424708489	0
0.0635623984974	2.54249593989	0
0.0635630257723	2.54252103089	0
0.0635636530473	2.54254612189	0
0.0635642803222	2.54257121289	0
0.0635649075972	2.54259630389	0
0.0635655348722	2.54262139489	0
0.0635661621471	2.54264648588	0
0.0635667894221	2.54267157688	0
0.063567416697	2.54269666788	0
0.063568043972	2.54272175888	0
0.0635686712469	2.54274684988	0
0.0635692985219	2.54277194088	0
0.0635699257968	2.54279703187	0
0.0635705530718	2.54282212287	0
0.0635711803467	2.54284721387	0
0.0635718076217	2.54287230487	0
0.0635724348967	2.54289739587	0
0.0635730621716	2.54292248686	0
0.0635736894466	2.54294757786	0
0.0635743167215	2.54297266886	0
0.0635749439965	2.54299775986	0
0.0635755712714	2.54302285086	0
0.0635761985464	2.54304794186	0
0.0635768258213	2.54307303285	0
0.0635774530963	2.54309812385	0
0.0635780803713	2.54312321485	0
0.0635787076462	2.54314830585	0
0.0635793349212	2.54317339685	0
0.0635799621961	2.54319848784	0
0.0635805894711	2.54322357884	0
0.063581216746	2.54324866984	0
0.063581844021	2.54327376084	0
0.0635824712959	2.54329885184	0
0.0635830985709	2.54332394284	0
0.0635837258459	2.54334903383	0
0.0635843531208	2.54337412483	0
0.0635849803958	2.54339921583	0
0.0635856076707	2.54342430683	0
0.0635862349457	2.54344939783	0
0.0635868622206	2.54347448883	0
0.0635874894956	2.54349957982	0
0.0635881167705	2.54352467082	0
0.0635887440455	2.54354976182	0
0.0635893713205	2.54357485282	0
0.0635899985954	2.54359994382	0
0.0635906258704	2.54362503481	0
0.0635912531453	2.54365012581	0
0.0635918804203	2.54367521681	0
0.0635925076952	2.54370030781	0
0.0635931349702	2.54372539881	0
0.0635937622451	2.54375048981	0
0.0635943895201	2.5437755808	0
0.0635950167951	2.5438006718	0
0.06359564407	2.5438257628	0
0.063596271345	2.5438508538	0
0.0635968986199	2.5438759448	0
0.0635975258949	2.54390103579	0
0.0635981531698	2.54392612679	0
0.0635987804448	2.54395121779	0
0.0635994077197	2.54397630879	0
0.0636000349947	2.54400139979	0
0.0636006622696	2.54402649079	0
0.0636012895446	2.54405158178	0
0.0636019168196	2.54407667278	0
0.0636025440945	2.54410176378	0
0.0636031713695	2.54412685478	0
0.0636037986444	2.54415194578	0
0.0636044259194	2.54417703678	0
0.0636050531943	2.54420212777	0
0.0636056804693	2.54422721877	0
0.0636063077442	2.54425230977	0
0.0636069350192	2.54427740077	0
0.0636075622942	2.54430249177	0
0.0636081895691	2.54432758276	0
0.0636088168441	2.54435267376	0
0.063609444119	2.54437776476	0
0.063610071394	2.54440285576	0
0.0636106986689	2.54442794676	0
0.0636113259439	2.54445303776	0
0.0636119532188	2.54447812875	0
0.0636125804938	2.54450321975	0
0.0636132077688	2.54452831075	0
0.0636138350437	2.54455340175	0
0.0636144623187	2.54457849275	0
0.0636150895936	2.54460358374	0
0.0636157168686	2.54462867474	0
0.0636163441435	2.54465376574	0
0.0636169714185	2.54467885674	0
0.0636175986934	2.54470394774	0
0.0636182259684	2.54472903874	0
0.0636188532434	2.54475412973	0
0.0636194805183	2.54477922073	0
0.0636201077933	2.54480431173	0
0.0636207350682	2.54482940273	0
0.0636213623432	2.54485449373	0
0.0636219896181	2.54487958473	0
0.0636226168931	2.54490467572	0
0.063623244168	2.54492976672	0
0.063623871443	2.54495485772	0
0.063624498718	2.54497994872	0
0.0636251259929	2.54500503972	0
0.0636257532679	2.54503013071	0
0.0636263805428	2.54505522171	0
0.0636270078178	2.54508031271	0
0.0636276350927	2.54510540371	0
0.0636282623677	2.54513049471	0
0.0636288896426	2.54515558571	0
0.0636295169176	2.5451806767	0
0.0636301441925	2.5452057677	0
0.0636307714675	2.5452308587	0
0.0636313987425	2.5452559497	0
0.0636320260174	2.5452810407	0
0.0636326532924	2.54530613169	0
0.0636332805673	2.54533122269	0
0.0636339078423	2.54535631369	0
0.0636345351172	2.54538140469	0
0.0636351623922	2.54540649569	0
0.0636357896671	2.54543158669	0
0.0636364169421	2.54545667768	0
0.0636370442171	2.54548176868	0
0.063637671492	2.54550685968	0
0.063638298767	2.54553195068	0
0.0636389260419	2.54555704168	0
0.0636395533169	2.54558213268	0
0.0636401805918	2.54560722367	0
0.0636408078668	2.54563231467	0
0.0636414351417	2.54565740567	0
0.0636420624167	2.54568249667	0
0.0636426896917	2.54570758767	0
0.0636433169666	2.54573267866	0
0.0636439442416	2.54575776966	0
0.0636445715165	2.54578286066	0
0.0636451987915	2.54580795166	0
0.0636458260664	2.54583304266	0
0.0636464533414	2.54585813366	0
0.0636470806163	2.54588322465	0
0.0636477078913	2.54590831565	0
0.0636483351663	2.54593340665	0
0.0636489624412	2.54595849765	0
0.0636495897162	2.54598358865	0
0.0636502169911	2.54600867964	0
0.0636508442661	2.54603377064	0
0.063651471541	2.54605886164	0
0.063652098816	2.54608395264	0
0.0636527260909	2.54610904364	0
0.0636533533659	2.54613413464	0
0.0636539806409	2.54615922563	0
0.0636546079158	2.54618431663	0
0.0636552351908	2.54620940763	0
0.0636558624657	2.54623449863	0
0.0636564897407	2.54625958963	0
0.0636571170156	2.54628468063	0
0.0636577442906	2.54630977162	0
0.0636583715655	2.54633486262	0
0.0636589988405	2.54635995362	0
0.0636596261154	2.54638504462	0
0.0636602533904	2.54641013562	0
0.0636608806654	2.54643522661	0
0.0636615079403	2.54646031761	0
0.0636621352153	2.54648540861	0
0.0636627624902	2.54651049961	0
0.0636633897652	2.54653559061	0
0.0636640170401	2.54656068161	0
0.0636646443151	2.5465857726	0
0.06366527159	2.5466108636	0
0.063665898865	2.5466359546	0
0.06366652614	2.5466610456	0
0.0636671534149	2.5466861366	0
0.0636677806899	2.54671122759	0
0.0636684079648	2.54673631859	0
0.0636690352398	2.54676140959	0
0.0636696625147	2.54678650059	0
0.0636702897897	2.54681159159	0
0.0636709170646	2.54683668259	0
0.0636715443396	2.54686177358	0
0.0636721716146	2.54688686458	0
0.0636727988895	2.54691195558	0
0.0636734261645	2.54693704658	0
0.0636740534394	2.54696213758	0
0.0636746807144	2.54698722858	0
0.0636753079893	2.54701231957	0
0.0636759352643	2.54703741057	0
0.0636765625392	2.54706250157	0
0.0636771898142	2.54708759257	0
0.0636778170892	2.54711268357	0
0.0636784443641	2.54713777456	0
0.0636790716391	2.54716286556	0
0.063679698914	2.54718795656	0
0.063680326189	2.54721304756	0
0.0636809534639	2.54723813856	0
0.0636815807389	2.54726322956	0
0.0636822080138	2.54728832055	0
0.0636828352888	2.54731341155	0
0.0636834625638	2.54733850255	0
0.0636840898387	2.54736359355	0
0.0636847171137	2.54738868455	0
0.0636853443886	2.54741377554	0
0.0636859716636	2.54743886654	0
0.0636865989385	2.54746395754	0
0.0636872262135	2.54748904854	0
0.0636878534884	2.54751413954	0
0.0636884807634	2.54753923054	0
0.0636891080383	2.54756432153	0
0.0636897353133	2.54758941253	0
0.0636903625883	2.54761450353	0
0.0636909898632	2.54763959453	0
0.0636916171382	2.54766468553	0
0.0636922444131	2.54768977653	0
0.0636928716881	2.54771486752	0
0.063693498963	2.54773995852	0
0.063694126238	2.54776504952	0
0.0636947535129	2.54779014052	0
0.0636953807879	2.54781523152	0
0.0636960080629	2.54784032251	0
0.0636966353378	2.54786541351	0
0.0636972626128	2.54789050451	0
0.0636978898877	2.54791559551	0
0.0636985171627	2.54794068651	0
0.0636991444376	2.54796577751	0
0.0636997717126	2.5479908685	0
0.0637003989875	2.5480159595	0
0.0637010262625	2.5480410505	0
0.0637016535375	2.5480661415	0
0.0637022808124	2.5480912325	0
0.0637029080874	2.54811632349	0
0.0637035353623	2.54814141449	0
0.0637041626373	2.54816650549	0
0.0637047899122	2.54819159649	0
0.0637054171872	2.54821668749	0
0.0637060444621	2.54824177849	0
0.0637066717371	2.54826686948	0
0.0637072990121	2.54829196048	0
0.063707926287	2.54831705148	0
0.063708553562	2.54834214248	0
0.0637091808369	2.54836723348	0
0.0637098081119	2.54839232447	0
0.0637104353868	2.54841741547	0
0.0637110626618	2.54844250647	0
0.0637116899367	2.54846759747	0
0.0637123172117	2.54849268847	0
0.0637129444867	2.54851777947	0
0.0637135717616	2.54854287046	0
0.0637141990366	2.54856796146	0
0.0637148263115	2.54859305246	0
0.0637154535865	2.54861814346	0
0.0637160808614	2.54864323446	0
0.0637167081364	2.54866832546	0
0.0637173354113	2.54869341645	0
0.0637179626863	2.54871850745	0
0.0637185899612	2.54874359845	0
0.0637192172362	2.54876868945	0
0.0637198445112	2.54879378045	0
0.0637204717861	2.54881887144	0
0.0637210990611	2.54884396244	0
0.063721726336	2.54886905344	0
0.063722353611	2.54889414444	0
0.0637229808859	2.54891923544	0
0.0637236081609	2.54894432644	0
0.0637242354358	2.54896941743	0
0.0637248627108	2.54899450843	0
0.0637254899858	2.54901959943	0
0.0637261172607	2.54904469043	0
0.0637267445357	2.54906978143	0
0.0637273718106	2.54909487242	0
0.0637279990856	2.54911996342	0
0.0637286263605	2.54914505442	0
0.0637292536355	2.54917014542	0
0.0637298809104	2.54919523642	0
0.0637305081854	2.54922032742	0
0.0637311354604	2.54924541841	0
0.0637317627353	2.54927050941	0
0.0637323900103	2.54929560041	0
0.0637330172852	2.54932069141	0
0.0637336445602	2.54934578241	0
0.0637342718351	2.54937087341	0
0.0637348991101	2.5493959644	0
0.063735526385	2.5494210554	0
0.06373615366	2.5494461464	0
0.063736780935	2.5494712374	0
0.0637374082099	2.5494963284	0
0.0637380354849	2.54952141939	0
0.0637386627598	2.54954651039	0
0.0637392900348	2.54957160139	0
0.0637399173097	2.54959669239	0
0.0637405445847	2.54962178339	0
0.0637411718596	2.54964687439	0
0.0637417991346	2.54967196538	0
0.0637424264096	2.54969705638	0
0.0637430536845	2.54972214738	0
0.0637436809595	2.54974723838	0
0.0637443082344	2.54977232938	0
0.0637449355094	2.54979742037	0
0.0637455627843	2.54982251137	0
0.0637461900593	2.54984760237	0
0.0637468173342	2.54987269337	0
0.0637474446092	2.54989778437	0
0.0637480718841	2.54992287537	0
0.0637486991591	2.54994796636	0
0.0637493264341	2.54997305736	0
0.063749953709	2.54999814836	0
0.063750580984	2.55002323936	0
0.0637512082589	2.55004833036	0
0.0637518355339	2.55007342136	0
0.0637524628088	2.55009851235	0
0.0637530900838	2.55012360335	0
0.0637537173587	2.55014869435	0
0.0637543446337	2.55017378535	0
0.0637549719087	2.55019887635	0
0.0637555991836	2.55022396734	0
0.0637562264586	2.55024905834	0
0.0637568537335	2.55027414934	0
0.0637574810085	2.55029924034	0
0.0637581082834	2.55032433134	0
0.0637587355584	2.55034942234	0
0.0637593628333	2.55037451333	0
0.0637599901083	2.55039960433	0
0.0637606173833	2.55042469533	0
0.0637612446582	2.55044978633	0
0.0637618719332	2.55047487733	0
0.0637624992081	2.55049996832	0
0.0637631264831	2.55052505932	0
0.063763753758	2.55055015032	0
0.063764381033	2.55057524132	0
0.0637650083079	2.55060033232	0
0.0637656355829	2.55062542332	0
0.0637662628579	2.55065051431	0
0.0637668901328	2.55067560531	0
0.0637675174078	2.55070069631	0
0.0637681446827	2.55072578731	0
0.0637687719577	2.55075087831	0
0.0637693992326	2.55077596931	0
0.0637700265076	2.5508010603	0
0.0637706537825	2.5508261513	0
0.0637712810575	2.5508512423	0
0.0637719083325	2.5508763333	0
0.0637725356074	2.5509014243	0
0.0637731628824	2.55092651529	0
0.0637737901573	2.55095160629	0
0.0637744174323	2.55097669729	0
0.0637750447072	2.55100178829	0
0.0637756719822	2.55102687929	0
0.0637762992571	2.55105197029	0
0.0637769265321	2.55107706128	0
0.063777553807	2.55110215228	0
0.063778181082	2.55112724328	0
0.063778808357	2.55115233428	0
0.0637794356319	2.55117742528	0
0.0637800629069	2.55120251627	0
0.0637806901818	2.55122760727	0
0.0637813174568	2.55125269827	0
0.0637819447317	2.55127778927	0
0.0637825720067	2.55130288027	0
0.0637831992816	2.55132797127	0
0.0637838265566	2.55135306226	0
0.0637844538316	2.55137815326	0
0.0637850811065	2.55140324426	0
0.0637857083815	2.55142833526	0
0.0637863356564	2.55145342626	0
0.0637869629314	2.55147851726	0
0.0637875902063	2.55150360825	0
0.0637882174813	2.55152869925	0
0.0637888447562	2.55155379025	0
0.0637894720312	2.55157888125	0
0.0637900993062	2.55160397225	0
0.0637907265811	2.55162906324	0
0.0637913538561	2.55165415424	0
0.063791981131	2.55167924524	0
0.063792608406	2.55170433624	0
0.0637932356809	2.55172942724	0
0.0637938629559	2.55175451824	0
0.0637944902308	2.55177960923	0
0.0637951175058	2.55180470023	0
0.0637957447808	2.55182979123	0
0.0637963720557	2.55185488223	0
0.0637969993307	2.55187997323	0
0.0637976266056	2.55190506422	0
0.0637982538806	2.55193015522	0
0.0637988811555	2.55195524622	0
0.0637995084305	2.55198033722	0
0.0638001357054	2.55200542822	0
0.0638007629804	2.55203051922	0
0.0638013902554	2.55205561021	0
0.0638020175303	2.55208070121	0
0.0638026448053	2.55210579221	0
0.0638032720802	2.55213088321	0
0.0638038993552	2.55215597421	0
0.0638045266301	2.55218106521	0
0.0638051539051	2.5522061562	0
0.06380578118	2.5522312472	0
0.063806408455	2.5522563382	0
0.0638070357299	2.5522814292	0
0.0638076630049	2.5523065202	0
0.0638082902799	2.55233161119	0
0.0638089175548	2.55235670219	0
0.0638095448298	2.55238179319	0
0.0638101721047	2.55240688419	0
0.0638107993797	2.55243197519	0
0.0638114266546	2.55245706619	0
0.0638120539296	2.55248215718	0
0.0638126812045	2.55250724818	0
0.0638133084795	2.55253233918	0
0.0638139357545	2.55255743018	0
0.0638145630294	2.55258252118	0
0.0638151903044	2.55260761217	0
0.0638158175793	2.55263270317	0
0.0638164448543	2.55265779417	0
0.0638170721292	2.55268288517	0
0.0638176994042	2.55270797617	0
0.0638183266791	2.55273306717	0
0.0638189539541	2.55275815816	0
0.0638195812291	2.55278324916	0
0.063820208504	2.55280834016	0
0.063820835779	2.55283343116	0
0.0638214630539	2.55285852216	0
0.0638220903289	2.55288361316	0
0.0638227176038	2.55290870415	0
0.0638233448788	2.55293379515	0
0.0638239721537	2.55295888615	0
0.0638245994287	2.55298397715	0
0.0638252267037	2.55300906815	0
0.0638258539786	2.55303415914	0
0.0638264812536	2.55305925014	0
0.0638271085285	2.55308434114	0
0.0638277358035	2.55310943214	0
0.0638283630784	2.55313452314	0
0.0638289903534	2.55315961414	0
0.0638296176283	2.55318470513	0
0.0638302449033	2.55320979613	0
0.0638308721783	2.55323488713	0
0.0638314994532	2.55325997813	0
0.0638321267282	2.55328506913	0
0.0638327540031	2.55331016012	0
0.0638333812781	2.55333525112	0
0.063834008553	2.55336034212	0
0.063834635828	2.55338543312	0
0.0638352631029	2.55341052412	0
0.0638358903779	2.55343561512	0
0.0638365176528	2.55346070611	0
0.0638371449278	2.55348579711	0
0.0638377722028	2.55351088811	0
0.0638383994777	2.55353597911	0
0.0638390267527	2.55356107011	0
0.0638396540276	2.55358616111	0
0.0638402813026	2.5536112521	0
0.0638409085775	2.5536363431	0
0.0638415358525	2.5536614341	0
0.0638421631274	2.5536865251	0
0.0638427904024	2.5537116161	0
0.0638434176774	2.55373670709	0
0.0638440449523	2.55376179809	0
0.0638446722273	2.55378688909	0
0.0638452995022	2.55381198009	0
0.0638459267772	2.55383707109	0
0.0638465540521	2.55386216209	0
0.0638471813271	2.55388725308	0
0.063847808602	2.55391234408	0
0.063848435877	2.55393743508	0
0.063849063152	2.55396252608	0
0.0638496904269	2.55398761708	0
0.0638503177019	2.55401270807	0
0.0638509449768	2.55403779907	0
0.0638515722518	2.55406289007	0
0.0638521995267	2.55408798107	0
0.0638528268017	2.55411307207	0
0.0638534540766	2.55413816307	0
0.0638540813516	2.55416325406	0
0.0638547086266	2.55418834506	0
0.0638553359015	2.55421343606	0
0.0638559631765	2.55423852706	0
0.0638565904514	2.55426361806	0
0.0638572177264	2.55428870905	0
0.0638578450013	2.55431380005	0
0.0638584722763	2.55433889105	0
0.0638590995512	2.55436398205	0
0.0638597268262	2.55438907305	0
0.0638603541012	2.55441416405	0
0.0638609813761	2.55443925504	0
0.0638616086511	2.55446434604	0
0.063862235926	2.55448943704	0
0.063862863201	2.55451452804	0
0.0638634904759	2.55453961904	0
0.0638641177509	2.55456471004	0
0.0638647450258	2.55458980103	0
0.0638653723008	2.55461489203	0
0.0638659995757	2.55463998303	0
0.0638666268507	2.55466507403	0
0.0638672541257	2.55469016503	0
0.0638678814006	2.55471525602	0
0.0638685086756	2.55474034702	0
0.0638691359505	2.55476543802	0
0.0638697632255	2.55479052902	0
0.0638703905004	2.55481562002	0
0.0638710177754	2.55484071102	0
0.0638716450503	2.55486580201	0
0.0638722723253	2.55489089301	0
0.0638728996003	2.55491598401	0
0.0638735268752	2.55494107501	0
0.0638741541502	2.55496616601	0
0.0638747814251	2.554991257	0
0.0638754087001	2.555016348	0
0.063876035975	2.555041439	0
0.06387666325	2.55506653	0
0.0638772905249	2.555091621	0
0.0638779177999	2.555116712	0
0.0638785450749	2.55514180299	0
0.0638791723498	2.55516689399	0
0.0638797996248	2.55519198499	0
0.0638804268997	2.55521707599	0
0.0638810541747	2.55524216699	0
0.0638816814496	2.55526725799	0
0.0638823087246	2.55529234898	0
0.0638829359995	2.55531743998	0
0.0638835632745	2.55534253098	0
0.0638841905495	2.55536762198	0
0.0638848178244	2.55539271298	0
0.0638854450994	2.55541780397	0
0.0638860723743	2.55544289497	0
0.0638866996493	2.55546798597	0
0.0638873269242	2.55549307697	0
0.0638879541992	2.55551816797	0
0.0638885814741	2.55554325897	0
0.0638892087491	2.55556834996	0
0.0638898360241	2.55559344096	0
0.063890463299	2.55561853196	0
0.063891090574	2.55564362296	0
0.0638917178489	2.55566871396	0
0.0638923451239	2.55569380495	0
0.0638929723988	2.55571889595	0
0.0638935996738	2.55574398695	0
0.0638942269487	2.55576907795	0
0.0638948542237	2.55579416895	0
0.0638954814986	2.55581925995	0
0.0638961087736	2.55584435094	0
0.0638967360486	2.55586944194	0
0.0638973633235	2.55589453294	0
0.0638979905985	2.55591962394	0
0.0638986178734	2.55594471494	0
0.0638992451484	2.55596980594	0
0.0638998724233	2.55599489693	0
0.0639004996983	2.55601998793	0
0.0639011269732	2.55604507893	0
0.0639017542482	2.55607016993	0
0.0639023815232	2.55609526093	0
0.0639030087981	2.55612035192	0
0.0639036360731	2.55614544292	0
0.063904263348	2.55617053392	0
0.063904890623	2.55619562492	0
0.0639055178979	2.55622071592	0
0.0639061451729	2.55624580692	0
0.0639067724478	2.55627089791	0
0.0639073997228	2.55629598891	0
0.0639080269978	2.55632107991	0
0.0639086542727	2.55634617091	0
0.0639092815477	2.55637126191	0
0.0639099088226	2.5563963529	0
0.0639105360976	2.5564214439	0
0.0639111633725	2.5564465349	0
0.0639117906475	2.5564716259	0
0.0639124179224	2.5564967169	0
0.0639130451974	2.5565218079	0
0.0639136724724	2.55654689889	0
0.0639142997473	2.55657198989	0
0.0639149270223	2.55659708089	0
0.0639155542972	2.55662217189	0
0.0639161815722	2.55664726289	0
0.0639168088471	2.55667235389	0
0.0639174361221	2.55669744488	0
0.063918063397	2.55672253588	0
0.063918690672	2.55674762688	0
0.063919317947	2.55677271788	0
0.0639199452219	2.55679780888	0
0.0639205724969	2.55682289987	0
0.0639211997718	2.55684799087	0
0.0639218270468	2.55687308187	0
0.0639224543217	2.55689817287	0
0.0639230815967	2.55692326387	0
0.0639237088716	2.55694835487	0
0.0639243361466	2.55697344586	0
0.0639249634215	2.55699853686	0
0.0639255906965	2.55702362786	0
0.0639262179715	2.55704871886	0
0.0639268452464	2.55707380986	0
0.0639274725214	2.55709890085	0
0.0639280997963	2.55712399185	0
0.0639287270713	2.55714908285	0
0.0639293543462	2.55717417385	0
0.0639299816212	2.55719926485	0
0.0639306088961	2.55722435585	0
0.0639312361711	2.55724944684	0
0.0639318634461	2.55727453784	0
0.063932490721	2.55729962884	0
0.063933117996	2.55732471984	0
0.0639337452709	2.55734981084	0
0.0639343725459	2.55737490184	0
0.0639349998208	2.55739999283	0
0.0639356270958	2.55742508383	0
0.0639362543707	2.55745017483	0
0.0639368816457	2.55747526583	0
0.0639375089207	2.55750035683	0
0.0639381361956	2.55752544782	0
0.0639387634706	2.55755053882	0
0.0639393907455	2.55757562982	0
0.0639400180205	2.55760072082	0
0.0639406452954	2.55762581182	0
0.0639412725704	2.55765090282	0
0.0639418998453	2.55767599381	0
0.0639425271203	2.55770108481	0
0.0639431543953	2.55772617581	0
0.0639437816702	2.55775126681	0
0.0639444089452	2.55777635781	0
0.0639450362201	2.5578014488	0
0.0639456634951	2.5578265398	0
0.06394629077	2.5578516308	0
0.063946918045	2.5578767218	0
0.0639475453199	2.5579018128	0
0.0639481725949	2.5579269038	0
0.0639487998699	2.55795199479	0
0.0639494271448	2.55797708579	0
0.0639500544198	2.55800217679	0
