t	i	extra
0.0	0.0	0.125392263568
0.000125454991064	0.00501819964255	5
0.000250909982127	0.0100363992851	0
0.000376364973191	0.0150545989276	0
0.000501819964255	0.0200727985702	0
0.000627274955318	0.0250909982127	0
0.000752729946382	0.0301091978553	0
0.000878184937446	0.0351273974978	0
0.00100363992851	0.0401455971404	0
0.00112909491957	0.0451637967829	0
0.00125454991064	0.0501819964255	0
0.0013800049017	0.055200196068	0
0.00150545989276	0.0602183957106	0
0.00163091488383	0.0652365953531	0
0.00175636987489	0.0702547949957	0
0.00188182486596	0.0752729946382	0
0.00200727985702	0.0802911942808	0
0.00213273484808	0.0853093939233	0
0.00225818983915	0.0903275935659	0
0.00238364483021	0.0953457932084	0
0.00250909982127	0.100363992851	0
0.00263455481234	0.105382192494	0
0.0027600098034	0.110400392136	0
0.00288546479446	0.115418591779	0
0.00301091978553	0.120436791421	0
0.00313637477659	0.125454991064	0
0.00326182976766	0.130473190706	0
0.00338728475872	0.135491390349	0
0.00351273974978	0.140509589991	0
0.00363819474085	0.145527789634	0
0.00376364973191	0.150545989276	0
0.00388910472297	0.155564188919	0
0.00401455971404	0.160582388562	0
0.0041400147051	0.165600588204	0
0.00426546969617	0.170618787847	0
0.00439092468723	0.175636987489	0
0.00451637967829	0.180655187132	0
0.00464183466936	0.185673386774	0
0.00476728966042	0.190691586417	0
0.00489274465148	0.195709786059	0
0.00501819964255	0.200727985702	0
0.00514365463361	0.205746185344	0
0.00526910962468	0.210764384987	0
0.00539456461574	0.21578258463	0
0.0055200196068	0.220800784272	0
0.00564547459787	0.225818983915	0
0.00577092958893	0.230837183557	0
0.00589638457999	0.2358553832	0
0.00602183957106	0.240873582842	0
0.00614729456212	0.245891782485	0
0.00627274955318	0.250909982127	0
0.00639820454425	0.25592818177	0
0.00652365953531	0.260946381412	0
0.00664911452638	0.265964581055	0
0.00677456951744	0.270982780698	0
0.0069000245085	0.27600098034	0
0.00702547949957	0.281019179983	0
0.00715093449063	0.286037379625	0
0.00727638948169	0.291055579268	0
0.00740184447276	0.29607377891	0
0.00752729946382	0.301091978553	0
0.00765275445489	0.306110178195	0
0.00777820944595	0.311128377838	0
0.00790366443701	0.316146577481	0
0.00802911942808	0.321164777123	0
0.00815457441914	0.326182976766	0
0.0082800294102	0.331201176408	0
0.00840548440127	0.336219376051	0
0.00853093939233	0.341237575693	0
0.00865639438339	0.346255775336	0
0.00878184937446	0.351273974978	0
0.00890730436552	0.356292174621	0
0.00903275935659	0.361310374263	0
0.00915821434765	0.366328573906	0
0.00928366933871	0.371346773549	0
0.00940912432978	0.376364973191	0
0.00953457932084	0.381383172834	0
0.0096600343119	0.386401372476	0
0.00978548930297	0.391419572119	0
0.00991094429403	0.396437771761	0
0.0100363992851	0.401455971404	0
0.0101618542762	0.406474171046	0
0.0102873092672	0.411492370689	0
0.0104127642583	0.416510570331	0
0.0105382192494	0.421528769974	0
0.0106636742404	0.426546969617	0
0.0107891292315	0.431565169259	0
0.0109145842225	0.436583368902	0
0.0110400392136	0.441601568544	0
0.0111654942047	0.446619768187	0
0.0112909491957	0.451637967829	0
0.0114164041868	0.456656167472	0
0.0115418591779	0.461674367114	0
0.0116673141689	0.466692566757	0
0.01179276916	0.471710766399	0
0.0119182241511	0.476728966042	0
0.0120436791421	0.481747165685	0
0.0121691341332	0.486765365327	0
0.0122945891242	0.49178356497	0
0.0124200441153	0.496801764612	0
0.0125454991064	0.501819964255	0
0.0126709540974	0.506838163897	0
0.0127964090885	0.51185636354	0
0.0129218640796	0.516874563182	0
0.0130473190706	0.521892762825	0
0.0131727740617	0.526910962468	0
0.0132982290528	0.53192916211	0
0.0134236840438	0.536947361753	0
0.0135491390349	0.541965561395	0
0.0136745940259	0.546983761038	0
0.013800049017	0.55200196068	0
0.0139255040081	0.557020160323	0
0.0140509589991	0.562038359965	0
0.0141764139902	0.567056559608	0
0.0143018689813	0.57207475925	0
0.0144273239723	0.577092958893	0
0.0145527789634	0.582111158536	0
0.0146782339545	0.587129358178	0
0.0148036889455	0.592147557821	0
0.0149291439366	0.597165757463	0
0.0150545989276	0.602183957106	0
0.0151800539187	0.607202156748	0
0.0153055089098	0.612220356391	0
0.0154309639008	0.617238556033	0
0.0155564188919	0.622256755676	0
0.015681873883	0.627274955318	0
0.015807328874	0.632293154961	0
0.0159327838651	0.637311354604	0
0.0160582388562	0.642329554246	0
0.0161836938472	0.647347753889	0
0.0163091488383	0.652365953531	0
0.0164346038293	0.657384153174	0
0.0165600588204	0.662402352816	0
0.0166855138115	0.667420552459	0
0.0168109688025	0.672438752101	0
0.0169364237936	0.677456951744	0
0.0170618787847	0.682475151386	0
0.0171873337757	0.687493351029	0
0.0173127887668	0.692511550672	0
0.0174382437579	0.697529750314	0
0.0175636987489	0.702547949957	0
0.01768915374	0.707566149599	0
0.017814608731	0.712584349242	0
0.0179400637221	0.717602548884	0
0.0180655187132	0.722620748527	0
0.0181909737042	0.727638948169	0
0.0183164286953	0.732657147812	0
0.0184418836864	0.737675347455	0
0.0185673386774	0.742693547097	0
0.0186927936685	0.74771174674	0
0.0188182486596	0.752729946382	0
0.0189437036506	0.757748146025	0
0.0190691586417	0.762766345667	0
0.0191946136327	0.76778454531	0
0.0193200686238	0.772802744952	0
0.0194455236149	0.777820944595	0
0.0195709786059	0.782839144237	0
0.019696433597	0.78785734388	0
0.0198218885881	0.792875543523	0
0.0199473435791	0.797893743165	0
0.0200727985702	0.802911942808	0
0.0201982535613	0.80793014245	0
0.0203237085523	0.812948342093	0
0.0204491635434	0.817966541735	0
0.0205746185344	0.822984741378	0
0.0207000735255	0.82800294102	0
0.0208255285166	0.833021140663	0
0.0209509835076	0.838039340305	0
0.0210764384987	0.843057539948	0
0.0212018934898	0.848075739591	0
0.0213273484808	0.853093939233	0
0.0214528034719	0.858112138876	0
0.021578258463	0.863130338518	0
0.021703713454	0.868148538161	0
0.0218291684451	0.873166737803	0
0.0219546234361	0.878184937446	0
0.0220800784272	0.883203137088	0
0.0222055334183	0.888221336731	0
0.0223309884093	0.893239536373	0
0.0224564434004	0.898257736016	0
0.0225818983915	0.903275935659	0
0.0227073533825	0.908294135301	0
0.0228328083736	0.913312334944	0
0.0229582633647	0.918330534586	0
0.0230837183557	0.923348734229	0
0.0232091733468	0.928366933871	0
0.0233346283378	0.933385133514	0
0.0234600833289	0.938403333156	0
0.02358553832	0.943421532799	0
0.023710993311	0.948439732442	0
0.0238364483021	0.953457932084	0
0.0239619032932	0.958476131727	0
0.0240873582842	0.963494331369	0
0.0242128132753	0.968512531012	0
0.0243382682664	0.973530730654	0
0.0244637232574	0.978548930297	0
0.0245891782485	0.983567129939	0
0.0247146332395	0.988585329582	0
0.0248400882306	0.993603529224	0
0.0249655432217	0.998621728867	0
0.0250909982127	1.00363992851	0
0.0252164532038	1.00865812815	0
0.0253419081949	1.01367632779	0
0.0254673631859	1.01869452744	0
0.025592818177	1.02371272708	0
0.0257182731681	1.02873092672	0
0.0258437281591	1.03374912636	0
0.0259691831502	1.03876732601	0
0.0260946381412	1.04378552565	0
0.0262200931323	1.04880372529	0
0.0263455481234	1.05382192494	0
0.0264710031144	1.05884012458	0
0.0265964581055	1.06385832422	0
0.0267219130966	1.06887652386	0
0.0268473680876	1.07389472351	0
0.0269728230787	1.07891292315	0
0.0270982780698	1.08393112279	0
0.0272237330608	1.08894932243	0
0.0273491880519	1.09396752208	0
0.0274746430429	1.09898572172	0
0.027600098034	1.10400392136	0
0.0277255530251	1.109022121	0
0.0278510080161	1.11404032065	0
0.0279764630072	1.11905852029	0
0.0281019179983	1.12407671993	0
0.0282273729893	1.12909491957	0
0.0283528279804	1.13411311922	0
0.0284782829715	1.13913131886	0
0.0286037379625	1.1441495185	0
0.0287291929536	1.14916771814	0
0.0288546479446	1.15418591779	0
0.0289801029357	1.15920411743	0
0.0291055579268	1.16422231707	0
0.0292310129178	1.16924051671	0
0.0293564679089	1.17425871636	0
0.0294819229	1.179276916	0
0.029607377891	1.18429511564	0
0.0297328328821	1.18931331528	0
0.0298582878732	1.19433151493	0
0.0299837428642	1.19934971457	0
0.0301091978553	1.20436791421	0
0.0302346528463	1.20938611385	0
0.0303601078374	1.2144043135	0
0.0304855628285	1.21942251314	0
0.0306110178195	1.22444071278	0
0.0307364728106	1.22945891242	0
0.0308619278017	1.23447711207	0
0.0309873827927	1.23949531171	0
0.0311128377838	1.24451351135	0
0.0312382927749	1.24953171099	0
0.0313637477659	1.25454991064	0
0.031489202757	1.25956811028	0
0.0316146577481	1.26458630992	0
0.0317401127391	1.26960450956	0
0.0318655677302	1.27462270921	0
0.0319910227212	1.27964090885	0
0.0321164777123	1.28465910849	0
0.0322419327034	1.28967730813	0
0.0323673876944	1.29469550778	0
0.0324928426855	1.29971370742	0
0.0326182976766	1.30473190706	0
0.0327437526676	1.3097501067	0
0.0328692076587	1.31476830635	0
0.0329946626498	1.31978650599	0
0.0331201176408	1.32480470563	0
0.0332455726319	1.32982290528	0
0.0333710276229	1.33484110492	0
0.033496482614	1.33985930456	0
0.0336219376051	1.3448775042	0
0.0337473925961	1.34989570385	0
0.0338728475872	1.35491390349	0
0.0339983025783	1.35993210313	0
0.0341237575693	1.36495030277	0
0.0342492125604	1.36996850242	0
0.0343746675515	1.37498670206	0
0.0345001225425	1.3800049017	0
0.0346255775336	1.38502310134	0
0.0347510325246	1.39004130099	0
0.0348764875157	1.39505950063	0
0.0350019425068	1.40007770027	0
0.0351273974978	1.40509589991	0
0.0352528524889	1.41011409956	0
0.03537830748	1.4151322992	0
0.035503762471	1.42015049884	0
0.0356292174621	1.42516869848	0
0.0357546724532	1.43018689813	0
0.0358801274442	1.43520509777	0
0.0360055824353	1.44022329741	0
0.0361310374263	1.44524149705	0
0.0362564924174	1.4502596967	0
0.0363819474085	1.45527789634	0
0.0365074023995	1.46029609598	0
0.0366328573906	1.46531429562	0
0.0367583123817	1.47033249527	0
0.0368837673727	1.47535069491	0
0.0370092223638	1.48036889455	0
0.0371346773549	1.48538709419	0
0.0372601323459	1.49040529384	0
0.037385587337	1.49542349348	0
0.037511042328	1.50044169312	0
0.0376364973191	1.50545989276	0
0.0377619523102	1.51047809241	0
0.0378874073012	1.51549629205	0
0.0380128622923	1.52051449169	0
0.0381383172834	1.52553269133	0
0.0382637722744	1.53055089098	0
0.0383892272655	1.53556909062	0
0.0385146822566	1.54058729026	0
0.0386401372476	1.5456054899	0
0.0387655922387	1.55062368955	0
0.0388910472297	1.55564188919	0
0.0390165022208	1.56066008883	0
0.0391419572119	1.56567828847	0
0.0392674122029	1.57069648812	0
0.039392867194	1.57571468776	0
0.0395183221851	1.5807328874	0
0.0396437771761	1.58575108705	0
0.0397692321672	1.59076928669	0
0.0398946871583	1.59578748633	0
0.0400201421493	1.60080568597	0
0.0401455971404	1.60582388562	0
0.0402710521314	1.61084208526	0
0.0403965071225	1.6158602849	0
0.0405219621136	1.62087848454	0
0.0406474171046	1.62589668419	0
0.0407728720957	1.63091488383	0
0.0408983270868	1.63593308347	0
0.0410237820778	1.64095128311	0
0.0411492370689	1.64596948276	0
0.04127469206	1.6509876824	0
0.041400147051	1.65600588204	0
0.0415256020421	1.66102408168	0
0.0416510570331	1.66604228133	0
0.0417765120242	1.67106048097	0
0.0419019670153	1.67607868061	0
0.0420274220063	1.68109688025	0
0.0421528769974	1.6861150799	0
0.0422783319885	1.69113327954	0
0.0424037869795	1.69615147918	0
0.0425292419706	1.70116967882	0
0.0426546969617	1.70618787847	0
0.0427801519527	1.71120607811	0
0.0429056069438	1.71622427775	0
0.0430310619348	1.72124247739	0
0.0431565169259	1.72626067704	0
0.043281971917	1.73127887668	0
0.043407426908	1.73629707632	0
0.0435328818991	1.74131527596	0
0.0436583368902	1.74633347561	0
0.0437837918812	1.75135167525	0
0.0439092468723	1.75636987489	0
0.0440347018634	1.76138807453	0
0.0441601568544	1.76640627418	0
0.0442856118455	1.77142447382	0
0.0444110668365	1.77644267346	0
0.0445365218276	1.7814608731	0
0.0446619768187	1.78647907275	0
0.0447874318097	1.79149727239	0
0.0449128868008	1.79651547203	0
0.0450383417919	1.80153367167	0
0.0451637967829	1.80655187132	0
0.045289251774	1.81157007096	0
0.0454147067651	1.8165882706	0
0.0455401617561	1.82160647024	0
0.0456656167472	1.82662466989	0
0.0457910717382	1.83164286953	0
0.0459165267293	1.83666106917	0
0.0460419817204	1.84167926881	0
0.0461674367114	1.84669746846	0
0.0462928917025	1.8517156681	0
0.0464183466936	1.85673386774	0
0.0465438016846	1.86175206739	0
0.0466692566757	1.86677026703	0
0.0467947116668	1.87178846667	0
0.0469201666578	1.87680666631	0
0.0470456216489	1.88182486596	0
0.0471710766399	1.8868430656	0
0.047296531631	1.89186126524	0
0.0474219866221	1.89687946488	0
0.0475474416131	1.90189766453	0
0.0476728966042	1.90691586417	0
0.0477983515953	1.91193406381	0
0.0479238065863	1.91695226345	0
0.0480492615774	1.9219704631	0
0.0481747165685	1.92698866274	0
0.0483001715595	1.93200686238	0
0.0484256265506	1.93702506202	0
0.0485510815416	1.94204326167	0
0.0486765365327	1.94706146131	0
0.0488019915238	1.95207966095	0
0.0489274465148	1.95709786059	0
0.0490529015059	1.96211606024	0
0.049178356497	1.96713425988	0
0.049303811488	1.97215245952	0
0.0494292664791	1.97717065916	0
0.0495547214702	1.98218885881	0
0.0496801764612	1.98720705845	0
0.0498056314523	1.99222525809	0
0.0499310864433	1.99724345773	0
0.0500565414344	2.00226165738	0
0.0501819964255	2.00727985702	0
0.0503074514165	2.01229805666	0
0.0504329064076	2.0173162563	0
0.0505583613987	2.02233445595	0
0.0506838163897	2.02735265559	0
0.0508092713808	2.03237085523	0
0.0509347263719	2.03738905487	0
0.0510601813629	2.04240725452	0
0.051185636354	2.04742545416	0
0.051311091345	2.0524436538	0
0.0514365463361	2.05746185344	0
0.0515620013272	2.06248005309	0
0.0516874563182	2.06749825273	0
0.0518129113093	2.07251645237	0
0.0519383663004	2.07753465201	0
0.0520638212914	2.08255285166	0
0.0521892762825	2.0875710513	0
0.0523147312736	2.09258925094	0
0.0524401862646	2.09760745058	0
0.0525656412557	2.10262565023	0
0.0526910962468	2.10764384987	0
0.0528165512378	2.11266204951	0
0.0529420062289	2.11768024916	0
0.0530674612199	2.1226984488	0
0.053192916211	2.12771664844	0
0.0533183712021	2.13273484808	0
0.0534438261931	2.13775304773	0
0.0535692811842	2.14277124737	0
0.0536947361753	2.14778944701	0
0.0538201911663	2.15280764665	0
0.0539456461574	2.1578258463	0
0.0540711011485	2.16284404594	0
0.0541965561395	2.16786224558	0
0.0543220111306	2.17288044522	0
0.0544474661216	2.17789864487	0
0.0545729211127	2.18291684451	0
0.0546983761038	2.18793504415	0
0.0548238310948	2.19295324379	0
0.0549492860859	2.19797144344	0
0.055074741077	2.20298964308	0
0.055200196068	2.20800784272	0
0.0553256510591	2.21302604236	0
0.0554511060502	2.21804424201	0
0.0555765610412	2.22306244165	0
0.0557020160323	2.22808064129	0
0.0558274710233	2.23309884093	0
0.0559529260144	2.23811704058	0
0.0560783810055	2.24313524022	0
0.0562038359965	2.24815343986	0
0.0563292909876	2.2531716395	0
0.0564547459787	2.25818983915	0
0.0565802009697	2.26320803879	0
0.0567056559608	2.26822623843	0
0.0568311109519	2.27324443807	0
0.0569565659429	2.27826263772	0
0.057082020934	2.28328083736	0
0.057207475925	2.288299037	0
0.0573329309161	2.29331723664	0
0.0574583859072	2.29833543629	0
0.0575838408982	2.30335363593	0
0.0577092958893	2.30837183557	0
0.0578347508804	2.31339003521	0
0.0579602058714	2.31840823486	0
0.0580856608625	2.3234264345	0
0.0582111158536	2.32844463414	0
0.0583365708446	2.33346283378	0
0.0584620258357	2.33848103343	0
0.0585874808267	2.34349923307	0
0.0587129358178	2.34851743271	0
0.0588383908089	2.35353563235	0
0.0589638457999	2.358553832	0
0.059089300791	2.36357203164	0
0.0592147557821	2.36859023128	0
0.0593402107731	2.37360843093	0
0.0594656657642	2.37862663057	0
0.0595911207553	2.38364483021	0
0.0597165757463	2.38866302985	0
0.0598420307374	2.3936812295	0
0.0599674857284	2.39869942914	0
0.0600929407195	2.40371762878	0
0.0602183957106	2.40873582842	0
0.0603438507016	2.41375402807	0
0.0604693056927	2.41877222771	0
0.0605947606838	2.42379042735	0
0.0607202156748	2.42880862699	0
0.0608456706659	2.43382682664	0
0.060971125657	2.43884502628	0
0.061096580648	2.44386322592	0
0.0612220356391	2.44888142556	0
0.0613474906301	2.45389962521	0
0.0614729456212	2.45891782485	0
0.0615984006123	2.46393602449	0
0.0617238556033	2.46895422413	0
0.0618493105944	2.47397242378	0
0.0619747655855	2.47899062342	0
0.0621002205765	2.48400882306	0
0.0622256755676	2.4890270227	0
0.0623511305587	2.49404522235	0
0.0624765855497	2.49906342199	0
0.0626020405408	2.50408162163	0
0.0627274955318	2.50909982127	0
0.0628529505229	2.51411802092	0
0.062978405514	2.51913622056	0
0.063103860505	2.5241544202	0
0.0632293154961	2.52917261984	0
0.0633547704872	2.53419081949	0
0.0634802254782	2.53920901913	0
0.0636056804693	2.54422721877	0
0.0637311354604	2.54924541841	0
0.0638565904514	2.55426361806	0
0.0639820454425	2.5592818177	0
0.0641075004335	2.56430001734	0
0.0642329554246	2.56931821698	0
0.0643584104157	2.57433641663	0
0.0644838654067	2.57935461627	0
0.0646093203978	2.58437281591	0
0.0647347753889	2.58939101555	0
0.0648602303799	2.5944092152	0
0.064985685371	2.59942741484	0
0.0651111403621	2.60444561448	0
0.0652365953531	2.60946381412	0
0.0653620503442	2.61448201377	0
0.0654875053352	2.61950021341	0
0.0656129603263	2.62451841305	0
0.0657384153174	2.62953661269	0
0.0658638703084	2.63455481234	0
0.0659893252995	2.63957301198	0
0.0661147802906	2.64459121162	0
0.0662402352816	2.64960941127	0
0.0663656902727	2.65462761091	0
0.0664911452638	2.65964581055	0
0.0666166002548	2.66466401019	0
0.0667420552459	2.66968220984	0
0.0668675102369	2.67470040948	0
0.066992965228	2.67971860912	0
0.0671184202191	2.68473680876	0
0.0672438752101	2.68975500841	0
0.0673693302012	2.69477320805	0
0.0674947851923	2.69979140769	0
0.0676202401833	2.70480960733	0
0.0677456951744	2.70982780698	0
0.0678711501655	2.71484600662	0
0.0679966051565	2.71986420626	0
0.0681220601476	2.7248824059	0
0.0682475151386	2.72990060555	0
0.0683729701297	2.73491880519	0
0.0684984251208	2.73993700483	0
0.0686238801118	2.74495520447	0
0.0687493351029	2.74997340412	0
0.068874790094	2.75499160376	0
0.069000245085	2.7600098034	0
0.0691257000761	2.76502800304	0
0.0692511550672	2.77004620269	0
0.0693766100582	2.77506440233	0
0.0695020650493	2.78008260197	0
0.0696275200403	2.78510080161	0
0.0697529750314	2.79011900126	0
0.0698784300225	2.7951372009	0
0.0700038850135	2.80015540054	0
0.0701293400046	2.80517360018	0
0.0702547949957	2.81019179983	0
0.0703802499867	2.81520999947	0
0.0705057049778	2.82022819911	0
0.0706311599689	2.82524639875	0
0.0707566149599	2.8302645984	0
0.070882069951	2.83528279804	0
0.071007524942	2.84030099768	0
0.0711329799331	2.84531919732	0
0.0712584349242	2.85033739697	0
0.0713838899152	2.85535559661	0
0.0715093449063	2.86037379625	0
0.0716347998974	2.86539199589	0
0.0717602548884	2.87041019554	0
0.0718857098795	2.87542839518	0
0.0720111648706	2.88044659482	0
0.0721366198616	2.88546479446	0
0.0722620748527	2.89048299411	0
0.0723875298437	2.89550119375	0
0.0725129848348	2.90051939339	0
0.0726384398259	2.90553759304	0
0.0727638948169	2.91055579268	0
0.072889349808	2.91557399232	0
0.0730148047991	2.92059219196	0
0.0731402597901	2.92561039161	0
0.0732657147812	2.93062859125	0
0.0733911697723	2.93564679089	0
0.0735166247633	2.94066499053	0
0.0736420797544	2.94568319018	0
0.0737675347455	2.95070138982	0
0.0738929897365	2.95571958946	0
0.0740184447276	2.9607377891	0
0.0741438997186	2.96575598875	0
0.0742693547097	2.97077418839	0
0.0743948097008	2.97579238803	0
0.0745202646918	2.98081058767	0
0.0746457196829	2.98582878732	0
0.074771174674	2.99084698696	0
0.074896629665	2.9958651866	0
0.0750220846561	3.00088338624	0
0.0751475396472	3.00590158589	0
0.0752729946382	3.01091978553	0
0.0753984496293	3.01593798517	0
0.0755239046203	3.02095618481	0
0.0756493596114	3.02597438446	0
0.0757748146025	3.0309925841	0
0.0759002695935	3.03601078374	0
0.0760257245846	3.04102898338	0
0.0761511795757	3.04604718303	0
0.0762766345667	3.05106538267	0
0.0764020895578	3.05608358231	0
0.0765275445489	3.06110178195	0
0.0766529995399	3.0661199816	0
0.076778454531	3.07113818124	0
0.076903909522	3.07615638088	0
0.0770293645131	3.08117458052	0
0.0771548195042	3.08619278017	0
0.0772802744952	3.09121097981	0
0.0774057294863	3.09622917945	0
0.0775311844774	3.10124737909	0
0.0776566394684	3.10626557874	0
0.0777820944595	3.11128377838	0
0.0779075494506	3.11630197802	0
0.0780330044416	3.12132017766	0
0.0781584594327	3.12633837731	0
0.0782839144237	3.13135657695	0
0.0784093694148	3.13637477659	0
0.0785348244059	3.14139297623	0
0.0786602793969	3.14641117588	0
0.078785734388	3.15142937552	0
0.0789111893791	3.15644757516	0
0.0790366443701	3.16146577481	0
0.0791620993612	3.16648397445	0
0.0792875543523	3.17150217409	0
0.0794130093433	3.17652037373	0
0.0795384643344	3.18153857338	0
0.0796639193254	3.18655677302	0
0.0797893743165	3.19157497266	0
0.0799148293076	3.1965931723	0
0.0800402842986	3.20161137195	0
0.0801657392897	3.20662957159	0
0.0802911942808	3.21164777123	0
0.0804166492718	3.21666597087	0
0.0805421042629	3.22168417052	0
0.080667559254	3.22670237016	0
0.080793014245	3.2317205698	0
0.0809184692361	3.23673876944	0
0.0810439242271	3.24175696909	0
0.0811693792182	3.24677516873	0
0.0812948342093	3.25179336837	0
0.0814202892003	3.25681156801	0
0.0815457441914	3.26182976766	0
0.0816711991825	3.2668479673	0
0.0817966541735	3.27186616694	0
0.0819221091646	3.27688436658	0
0.0820475641557	3.28190256623	0
0.0821730191467	3.28692076587	0
0.0822984741378	3.29193896551	0
0.0824239291288	3.29695716515	0
0.0825493841199	3.3019753648	0
0.082674839111	3.30699356444	0
0.082800294102	3.31201176408	0
0.0829257490931	3.31702996372	0
0.0830512040842	3.32204816337	0
0.0831766590752	3.32706636301	0
0.0833021140663	3.33208456265	0
0.0834275690574	3.33710276229	0
0.0835530240484	3.34212096194	0
0.0836784790395	3.34713916158	0
0.0838039340305	3.35215736122	0
0.0839293890216	3.35717556086	0
0.0840548440127	3.36219376051	0
0.0841802990037	3.36721196015	0
0.0843057539948	3.37223015979	0
0.0844312089859	3.37724835943	0
0.0845566639769	3.38226655908	0
0.084682118968	3.38728475872	0
0.0848075739591	3.39230295836	0
0.0849330289501	3.397321158	0
0.0850584839412	3.40233935765	0
0.0851839389322	3.40735755729	0
0.0853093939233	3.41237575693	0
0.0854348489144	3.41739395657	0
0.0855603039054	3.42241215622	0
0.0856857588965	3.42743035586	0
0.0858112138876	3.4324485555	0
0.0859366688786	3.43746675515	0
0.0860621238697	3.44248495479	0
0.0861875788608	3.44750315443	0
0.0863130338518	3.45252135407	0
0.0864384888429	3.45753955372	0
0.0865639438339	3.46255775336	0
0.086689398825	3.467575953	0
0.0868148538161	3.47259415264	0
0.0869403088071	3.47761235229	0
0.0870657637982	3.48263055193	0
0.0871912187893	3.48764875157	0
0.0873166737803	3.49266695121	0
0.0874421287714	3.49768515086	0
0.0875675837625	3.5027033505	0
0.0876930387535	3.50772155014	0
0.0878184937446	3.51273974978	0
0.0879439487356	3.51775794943	0
0.0880694037267	3.52277614907	0
0.0881948587178	3.52779434871	0
0.0883203137088	3.53281254835	0
0.0884457686999	3.537830748	0
0.088571223691	3.54284894764	0
0.088696678682	3.54786714728	0
0.0888221336731	3.55288534692	0
0.0889475886642	3.55790354657	0
0.0890730436552	3.56292174621	0
0.0891984986463	3.56793994585	0
0.0893239536373	3.57295814549	0
0.0894494086284	3.57797634514	0
0.0895748636195	3.58299454478	0
0.0897003186105	3.58801274442	0
0.0898257736016	3.59303094406	0
0.0899512285927	3.59804914371	0
0.0900766835837	3.60306734335	0
0.0902021385748	3.60808554299	0
0.0903275935659	3.61310374263	0
0.0904530485569	3.61812194228	0
0.090578503548	3.62314014192	0
0.090703958539	3.62815834156	0
0.0908294135301	3.6331765412	0
0.0909548685212	3.63819474085	0
0.0910803235122	3.64321294049	0
0.0912057785033	3.64823114013	0
0.0913312334944	3.65324933977	0
0.0914566884854	3.65826753942	0
0.0915821434765	3.66328573906	0
0.0917075984676	3.6683039387	0
0.0918330534586	3.67332213834	0
0.0919585084497	3.67834033799	0
0.0920839634407	3.68335853763	0
0.0922094184318	3.68837673727	0
0.0923348734229	3.69339493692	0
0.0924603284139	3.69841313656	0
0.092585783405	3.7034313362	0
0.0927112383961	3.70844953584	0
0.0928366933871	3.71346773549	0
0.0929621483782	3.71848593513	0
0.0930876033693	3.72350413477	0
0.0932130583603	3.72852233441	0
0.0933385133514	3.73354053406	0
0.0934639683424	3.7385587337	0
0.0935894233335	3.74357693334	0
0.0937148783246	3.74859513298	0
0.0938403333156	3.75361333263	0
0.0939657883067	3.75863153227	0
0.0940912432978	3.76364973191	0
0.0942166982888	3.76866793155	0
0.0943421532799	3.7736861312	0
0.094467608271	3.77870433084	0
0.094593063262	3.78372253048	0
0.0947185182531	3.78874073012	0
0.0948439732442	3.79375892977	0
0.0949694282352	3.79877712941	0
0.0950948832263	3.80379532905	0
0.0952203382173	3.80881352869	0
0.0953457932084	3.81383172834	0
0.0954712481995	3.81884992798	0
0.0955967031905	3.82386812762	0
0.0957221581816	3.82888632726	0
0.0958476131727	3.83390452691	0
0.0959730681637	3.83892272655	0
0.0960985231548	3.84394092619	0
0.0962239781459	3.84895912583	0
0.0963494331369	3.85397732548	0
0.096474888128	3.85899552512	0
0.096600343119	3.86401372476	0
0.0967257981101	3.8690319244	0
0.0968512531012	3.87405012405	0
0.0969767080922	3.87906832369	0
0.0971021630833	3.88408652333	0
0.0972276180744	3.88910472297	0
0.0973530730654	3.89412292262	0
0.0974785280565	3.89914112226	0
0.0976039830476	3.9041593219	0
0.0977294380386	3.90917752154	0
0.0978548930297	3.91419572119	0
0.0979803480207	3.91921392083	0
0.0981058030118	3.92423212047	0
0.0982312580029	3.92925032011	0
0.0983567129939	3.93426851976	0
0.098482167985	3.9392867194	0
0.0986076229761	3.94430491904	0
0.0987330779671	3.94932311868	0
0.0988585329582	3.95434131833	0
0.0989839879493	3.95935951797	0
0.0991094429403	3.96437771761	0
0.0992348979314	3.96939591726	0
0.0993603529224	3.9744141169	0
0.0994858079135	3.97943231654	0
0.0996112629046	3.98445051618	0
0.0997367178956	3.98946871583	0
0.0998621728867	3.99448691547	0
0.0999876278778	3.99950511511	0
0.100113082869	4.00452331475	0
0.10023853786	4.0095415144	0
0.100363992851	4.01455971404	0
0.100489447842	4.01957791368	0
0.100614902833	4.02459611332	0
0.100740357824	4.02961431297	0
0.100865812815	4.03463251261	0
0.100991267806	4.03965071225	0
0.101116722797	4.04466891189	0
0.101242177788	4.04968711154	0
0.101367632779	4.05470531118	0
0.101493087771	4.05972351082	0
0.101618542762	4.06474171046	0
0.101743997753	4.06975991011	0
0.101869452744	4.07477810975	0
0.101994907735	4.07979630939	0
0.102120362726	4.08481450903	0
0.102245817717	4.08983270868	0
0.102371272708	4.09485090832	0
0.102496727699	4.09986910796	0
0.10262218269	4.1048873076	0
0.102747637681	4.10990550725	0
0.102873092672	4.11492370689	0
0.102998547663	4.11994190653	0
0.103124002654	4.12496010617	0
0.103249457645	4.12997830582	0
0.103374912636	4.13499650546	0
0.103500367628	4.1400147051	0
0.103625822619	4.14503290474	0
0.10375127761	4.15005110439	0
0.103876732601	4.15506930403	0
0.104002187592	4.16008750367	0
0.104127642583	4.16510570331	0
0.104253097574	4.17012390296	0
0.104378552565	4.1751421026	0
0.104504007556	4.18016030224	0
0.104629462547	4.18517850188	0
0.104754917538	4.19019670153	0
0.104880372529	4.19521490117	0
0.10500582752	4.20023310081	0
0.105131282511	4.20525130045	0
0.105256737502	4.2102695001	0
0.105382192494	4.21528769974	0
0.105507647485	4.22030589938	0
0.105633102476	4.22532409903	0
0.105758557467	4.23034229867	0
0.105884012458	4.23536049831	0
0.106009467449	4.24037869795	0
0.10613492244	4.2453968976	0
0.106260377431	4.25041509724	0
0.106385832422	4.25543329688	0
0.106511287413	4.26045149652	0
0.106636742404	4.26546969617	0
0.106762197395	4.27048789581	0
0.106887652386	4.27550609545	0
0.107013107377	4.28052429509	0
0.107138562368	4.28554249474	0
0.107264017359	4.29056069438	0
0.107389472351	4.29557889402	0
0.107514927342	4.30059709366	0
0.107640382333	4.30561529331	0
0.107765837324	4.31063349295	0
0.107891292315	4.31565169259	0
0.108016747306	4.32066989223	0
0.108142202297	4.32568809188	0
0.108267657288	4.33070629152	0
0.108393112279	4.33572449116	0
0.10851856727	4.3407426908	0
0.108644022261	4.34576089045	0
0.108769477252	4.35077909009	0
0.108894932243	4.35579728973	0
0.109020387234	4.36081548937	0
0.109145842225	4.36583368902	0
0.109271297216	4.37085188866	0
0.109396752208	4.3758700883	0
0.109522207199	4.38088828794	0
0.10964766219	4.38590648759	0
0.109773117181	4.39092468723	0
0.109898572172	4.39594288687	0
0.110024027163	4.40096108651	0
0.110149482154	4.40597928616	0
0.110274937145	4.4109974858	0
0.110400392136	4.41601568544	0
0.110525847127	4.42103388508	0
0.110651302118	4.42605208473	0
0.110776757109	4.43107028437	0
0.1109022121	4.43608848401	0
0.111027667091	4.44110668365	0
0.111153122082	4.4461248833	0
0.111278577073	4.45114308294	0
0.111404032065	4.45616128258	0
0.111529487056	4.46117948222	0
0.111654942047	4.46619768187	0
0.111780397038	4.47121588151	0
0.111905852029	4.47623408115	0
0.11203130702	4.4812522808	0
0.112156762011	4.48627048044	0
0.112282217002	4.49128868008	0
0.112407671993	4.49630687972	0
0.112533126984	4.50132507937	0
0.112658581975	4.50634327901	0
0.112784036966	4.51136147865	0
0.112909491957	4.51637967829	0
0.113034946948	4.52139787794	0
0.113160401939	4.52641607758	0
0.113285856931	4.53143427722	0
0.113411311922	4.53645247686	0
0.113536766913	4.54147067651	0
0.113662221904	4.54648887615	0
0.113787676895	4.55150707579	0
0.113913131886	4.55652527543	0
0.114038586877	4.56154347508	0
0.114164041868	4.56656167472	0
0.114289496859	4.57157987436	0
0.11441495185	4.576598074	0
0.114540406841	4.58161627365	0
0.114665861832	4.58663447329	0
0.114791316823	4.59165267293	0
0.114916771814	4.59667087257	0
0.115042226805	4.60168907222	0
0.115167681796	4.60670727186	0
0.115293136788	4.6117254715	0
0.115418591779	4.61674367114	0
0.11554404677	4.62176187079	0
0.115669501761	4.62678007043	0
0.115794956752	4.63179827007	0
0.115920411743	4.63681646971	0
0.116045866734	4.64183466936	0
0.116171321725	4.646852869	0
0.116296776716	4.65187106864	0
0.116422231707	4.65688926828	0
0.116547686698	4.66190746793	0
0.116673141689	4.66692566757	0
0.11679859668	4.67194386721	0
0.116924051671	4.67696206685	0
0.117049506662	4.6819802665	0
0.117174961653	4.68699846614	0
0.117300416645	4.69201666578	0
0.117425871636	4.69703486542	0
0.117551326627	4.70205306507	0
0.117676781618	4.70707126471	0
0.117802236609	4.71208946435	0
0.1179276916	4.71710766399	0
0.118053146591	4.72212586364	0
0.118178601582	4.72714406328	0
0.118304056573	4.73216226292	0
0.118429511564	4.73718046256	0
0.118554966555	4.74219866221	0
0.118680421546	4.74721686185	0
0.118805876537	4.75223506149	0
0.118931331528	4.75725326114	0
0.119056786519	4.76227146078	0
0.119182241511	4.76728966042	0
0.119307696502	4.77230786006	0
0.119433151493	4.77732605971	0
0.119558606484	4.78234425935	0
0.119684061475	4.78736245899	0
0.119809516466	4.79238065863	0
0.119934971457	4.79739885828	0
0.120060426448	4.80241705792	0
0.120185881439	4.80743525756	0
0.12031133643	4.8124534572	0
0.120436791421	4.81747165685	0
0.120562246412	4.82248985649	0
0.120687701403	4.82750805613	0
0.120813156394	4.83252625577	0
0.120938611385	4.83754445542	0
0.121064066376	4.84256265506	0
0.121189521368	4.8475808547	0
0.121314976359	4.85259905434	0
0.12144043135	4.85761725399	0
0.121565886341	4.86263545363	0
0.121691341332	4.86765365327	0
0.121816796323	4.87267185291	0
0.121942251314	4.87769005256	0
0.122067706305	4.8827082522	0
0.122193161296	4.88772645184	0
0.122318616287	4.89274465148	0
0.122444071278	4.89776285113	0
0.122569526269	4.90278105077	0
0.12269498126	4.90779925041	0
0.122820436251	4.91281745005	0
0.122945891242	4.9178356497	0
0.123071346233	4.92285384934	0
0.123196801225	4.92787204898	0
0.123322256216	4.93289024862	0
0.123447711207	4.93790844827	0
0.123573166198	4.94292664791	0
0.123698621189	4.94794484755	0
0.12382407618	4.95296304719	0
0.123949531171	4.95798124684	0
0.124074986162	4.96299944648	0
0.124200441153	4.96801764612	0
0.124325896144	4.97303584576	0
0.124451351135	4.97805404541	0
0.124576806126	4.98307224505	0
0.124702261117	4.98809044469	0
0.124827716108	4.99310864433	0
0.124953171099	4.99812684398	0
0.12507862609	5.00314504362	0
0.125204081082	5.00816324326	0
0.125329536073	5.01318144291	0
0.125454991064	5.01819964255	0
0.125580446055	5.02321784219	0
0.125705901046	5.02823604183	0
0.125831356037	5.03325424148	0
0.125956811028	5.03827244112	0
0.126082266019	5.04329064076	0
0.12620772101	5.0483088404	0
0.126333176001	5.05332704005	0
0.126458630992	5.05834523969	0
0.126584085983	5.06336343933	0
0.126709540974	5.06838163897	0
0.126834995965	5.07339983862	0
0.126960450956	5.07841803826	0
0.127085905948	5.0834362379	0
0.127211360939	5.08845443754	0
0.12733681593	5.09347263719	0
0.127462270921	5.09849083683	0
0.127587725912	5.10350903647	0
0.127713180903	5.10852723611	0
0.127838635894	5.11354543576	0
0.127964090885	5.1185636354	0
0.128089545876	5.12358183504	0
0.128215000867	5.12860003468	0
0.128340455858	5.13361823433	0
0.128465910849	5.13863643397	0
0.12859136584	5.14365463361	0
0.128716820831	5.14867283325	0
0.128842275822	5.1536910329	0
0.128967730813	5.15870923254	0
0.129093185805	5.16372743218	0
0.129218640796	5.16874563182	0
0.129344095787	5.17376383147	0
0.129469550778	5.17878203111	0
0.129595005769	5.18380023075	0
0.12972046076	5.18881843039	0
0.129845915751	5.19383663004	0
0.129971370742	5.19885482968	0
0.130096825733	5.20387302932	0
0.130222280724	5.20889122896	0
0.130347735715	5.21390942861	0
0.130473190706	5.21892762825	0
0.130598645697	5.22394582789	0
0.130724100688	5.22896402753	0
0.130849555679	5.23398222718	0
0.13097501067	5.23900042682	0
0.131100465662	5.24401862646	0
0.131225920653	5.2490368261	0
0.131351375644	5.25405502575	0
0.131476830635	5.25907322539	0
0.131602285626	5.26409142503	0
0.131727740617	5.26910962468	0
0.131853195608	5.27412782432	0
0.131978650599	5.27914602396	0
0.13210410559	5.2841642236	0
0.132229560581	5.28918242325	0
0.132355015572	5.29420062289	0
0.132480470563	5.29921882253	0
0.132605925554	5.30423702217	0
0.132731380545	5.30925522182	0
0.132856835536	5.31427342146	0
0.132982290528	5.3192916211	0
0.133107745519	5.32430982074	0
0.13323320051	5.32932802039	0
0.133358655501	5.33434622003	0
0.133484110492	5.33936441967	0
0.133609565483	5.34438261931	0
0.133735020474	5.34940081896	0
0.133860475465	5.3544190186	0
0.133985930456	5.35943721824	0
0.134111385447	5.36445541788	0
0.134236840438	5.36947361753	0
0.134362295429	5.37449181717	0
0.13448775042	5.37951001681	0
0.134613205411	5.38452821645	0
0.134738660402	5.3895464161	0
0.134864115393	5.39456461574	0
0.134989570385	5.39958281538	0
0.135115025376	5.40460101502	0
0.135240480367	5.40961921467	0
0.135365935358	5.41463741431	0
0.135491390349	5.41965561395	0
0.13561684534	5.42467381359	0
0.135742300331	5.42969201324	0
0.135867755322	5.43471021288	0
0.135993210313	5.43972841252	0
0.136118665304	5.44474661216	0
0.136244120295	5.44976481181	0
0.136369575286	5.45478301145	0
0.136495030277	5.45980121109	0
0.136620485268	5.46481941073	0
0.136745940259	5.46983761038	0
0.13687139525	5.47485581002	0
0.136996850242	5.47987400966	0
0.137122305233	5.4848922093	0
0.137247760224	5.48991040895	0
0.137373215215	5.49492860859	0
0.137498670206	5.49994680823	0
0.137624125197	5.50496500787	0
0.137749580188	5.50998320752	0
0.137875035179	5.51500140716	0
0.13800049017	5.5200196068	0
0.138125945161	5.52503780644	0
0.138251400152	5.53005600609	0
0.138376855143	5.53507420573	0
0.138502310134	5.54009240537	0
0.138627765125	5.54511060502	0
0.138753220116	5.55012880466	0
0.138878675108	5.5551470043	0
0.139004130099	5.56016520394	0
0.13912958509	5.56518340359	0
0.139255040081	5.57020160323	0
0.139380495072	5.57521980287	0
0.139505950063	5.58023800251	0
0.139631405054	5.58525620216	0
0.139756860045	5.5902744018	0
0.139882315036	5.59529260144	0
0.140007770027	5.60031080108	0
0.140133225018	5.60532900073	0
0.140258680009	5.61034720037	0
0.140384135	5.61536540001	0
0.140509589991	5.62038359965	0
0.140635044982	5.6254017993	0
0.140760499973	5.63041999894	0
0.140885954965	5.63543819858	0
0.141011409956	5.64045639822	0
0.141136864947	5.64547459787	0
0.141262319938	5.65049279751	0
0.141387774929	5.65551099715	0
0.14151322992	5.66052919679	0
0.141638684911	5.66554739644	0
0.141764139902	5.67056559608	0
0.141889594893	5.67558379572	0
0.142015049884	5.68060199536	0
0.142140504875	5.68562019501	0
0.142265959866	5.69063839465	0
0.142391414857	5.69565659429	0
0.142516869848	5.70067479393	0
0.142642324839	5.70569299358	0
0.14276777983	5.71071119322	0
0.142893234822	5.71572939286	0
0.143018689813	5.7207475925	0
0.143144144804	5.72576579215	0
0.143269599795	5.73078399179	0
0.143395054786	5.73580219143	0
0.143520509777	5.74082039107	0
0.143645964768	5.74583859072	0
0.143771419759	5.75085679036	0
0.14389687475	5.75587499	0
0.144022329741	5.76089318964	0
0.144147784732	5.76591138929	0
0.144273239723	5.77092958893	0
0.144398694714	5.77594778857	0
0.144524149705	5.78096598821	0
0.144649604696	5.78598418786	0
0.144775059687	5.7910023875	0
0.144900514679	5.79602058714	0
0.14502596967	5.80103878679	0
0.145151424661	5.80605698643	0
0.145276879652	5.81107518607	0
0.145402334643	5.81609338571	0
0.145527789634	5.82111158536	0
0.145653244625	5.826129785	0
0.145778699616	5.83114798464	0
0.145904154607	5.83616618428	0
0.146029609598	5.84118438393	0
0.146155064589	5.84620258357	0
0.14628051958	5.85122078321	0
0.146405974571	5.85623898285	0
0.146531429562	5.8612571825	0
0.146656884553	5.86627538214	0
0.146782339545	5.87129358178	0
0.146907794536	5.87631178142	0
0.147033249527	5.88132998107	0
0.147158704518	5.88634818071	0
0.147284159509	5.89136638035	0
0.1474096145	5.89638457999	0
0.147535069491	5.90140277964	0
0.147660524482	5.90642097928	0
0.147785979473	5.91143917892	0
0.147911434464	5.91645737856	0
0.148036889455	5.92147557821	0
0.148162344446	5.92649377785	0
0.148287799437	5.93151197749	0
0.148413254428	5.93653017713	0
0.148538709419	5.94154837678	0
0.14866416441	5.94656657642	0
0.148789619402	5.95158477606	0
0.148915074393	5.9566029757	0
0.149040529384	5.96162117535	0
0.149165984375	5.96663937499	0
0.149291439366	5.97165757463	0
0.149416894357	5.97667577427	0
0.149542349348	5.98169397392	0
0.149667804339	5.98671217356	0
0.14979325933	5.9917303732	0
0.149918714321	5.99674857284	0
0.150044169312	6.00176677249	0
0.150169624303	6.00678497213	0
0.150295079294	6.01180317177	0
0.150420534285	6.01682137141	0
0.150545989276	6.02183957106	0
0.150671444267	6.0268577707	0
0.150796899259	6.03187597034	0
0.15092235425	6.03689416998	0
0.151047809241	6.04191236963	0
0.151173264232	6.04693056927	0
0.151298719223	6.05194876891	0
0.151424174214	6.05696696855	0
0.151549629205	6.0619851682	0
0.151675084196	6.06700336784	0
0.151800539187	6.07202156748	0
0.151925994178	6.07703976713	0
0.152051449169	6.08205796677	0
0.15217690416	6.08707616641	0
0.152302359151	6.09209436605	0
0.152427814142	6.0971125657	0
0.152553269133	6.10213076534	0
0.152678724125	6.10714896498	0
0.152804179116	6.11216716462	0
0.152929634107	6.11718536427	0
0.153055089098	6.12220356391	0
0.153180544089	6.12722176355	0
0.15330599908	6.13223996319	0
0.153431454071	6.13725816284	0
0.153556909062	6.14227636248	0
0.153682364053	6.14729456212	0
0.153807819044	6.15231276176	0
0.153933274035	6.15733096141	0
0.154058729026	6.16234916105	0
0.154184184017	6.16736736069	0
0.154309639008	6.17238556033	0
0.154435093999	6.17740375998	0
0.15456054899	6.18242195962	0
0.154686003982	6.18744015926	0
0.154811458973	6.1924583589	0
0.154936913964	6.19747655855	0
0.155062368955	6.20249475819	0
0.155187823946	6.20751295783	0
0.155313278937	6.21253115747	0
0.155438733928	6.21754935712	0
0.155564188919	6.22256755676	0
0.15568964391	6.2275857564	0
0.155815098901	6.23260395604	0
0.155940553892	6.23762215569	0
0.156066008883	6.24264035533	0
0.156191463874	6.24765855497	0
0.156316918865	6.25267675461	0
0.156442373856	6.25769495426	0
0.156567828847	6.2627131539	0
0.156693283839	6.26773135354	0
0.15681873883	6.27274955318	0
0.156944193821	6.27776775283	0
0.157069648812	6.28278595247	0
0.157195103803	6.28780415211	0
0.157320558794	6.29282235175	0
0.157446013785	6.2978405514	0
0.157571468776	6.30285875104	0
0.157696923767	6.30787695068	0
0.157822378758	6.31289515032	0
0.157947833749	6.31791334997	0
0.15807328874	6.32293154961	0
0.158198743731	6.32794974925	0
0.158324198722	6.3329679489	0
0.158449653713	6.33798614854	0
0.158575108705	6.34300434818	0
0.158700563696	6.34802254782	0
0.158826018687	6.35304074747	0
0.158951473678	6.35805894711	0
0.159076928669	6.36307714675	0
0.15920238366	6.36809534639	0
0.159327838651	6.37311354604	0
0.159453293642	6.37813174568	0
0.159578748633	6.38314994532	0
0.159704203624	6.38816814496	0
0.159829658615	6.39318634461	0
0.159955113606	6.39820454425	0
0.160080568597	6.40322274389	0
0.160206023588	6.40824094353	0
0.160331478579	6.41325914318	0
0.16045693357	6.41827734282	0
0.160582388562	6.42329554246	0
0.160707843553	6.4283137421	0
0.160833298544	6.43333194175	0
0.160958753535	6.43835014139	0
0.161084208526	6.44336834103	0
0.161209663517	6.44838654067	0
0.161335118508	6.45340474032	0
0.161460573499	6.45842293996	0
0.16158602849	6.4634411396	0
0.161711483481	6.46845933924	0
0.161836938472	6.47347753889	0
0.161962393463	6.47849573853	0
0.162087848454	6.48351393817	0
0.162213303445	6.48853213781	0
0.162338758436	6.49355033746	0
0.162464213427	6.4985685371	0
0.162589668419	6.50358673674	0
0.16271512341	6.50860493638	0
0.162840578401	6.51362313603	0
0.162966033392	6.51864133567	0
0.163091488383	6.52365953531	0
0.163216943374	6.52867773495	0
0.163342398365	6.5336959346	0
0.163467853356	6.53871413424	0
0.163593308347	6.54373233388	0
0.163718763338	6.54875053352	0
0.163844218329	6.55376873317	0
0.16396967332	6.55878693281	0
0.164095128311	6.56380513245	0
0.164220583302	6.56882333209	0
0.164346038293	6.57384153174	0
0.164471493284	6.57885973138	0
0.164596948276	6.58387793102	0
0.164722403267	6.58889613067	0
0.164847858258	6.59391433031	0
0.164973313249	6.59893252995	0
0.16509876824	6.60395072959	0
0.165224223231	6.60896892924	0
0.165349678222	6.61398712888	0
0.165475133213	6.61900532852	0
0.165600588204	6.62402352816	0
0.165726043195	6.62904172781	0
0.165851498186	6.63405992745	0
0.165976953177	6.63907812709	0
0.166102408168	6.64409632673	0
0.166227863159	6.64911452638	0
0.16635331815	6.65413272602	0
0.166478773142	6.65915092566	0
0.166604228133	6.6641691253	0
0.166729683124	6.66918732495	0
0.166855138115	6.67420552459	0
0.166980593106	6.67922372423	0
0.167106048097	6.68424192387	0
0.167231503088	6.68926012352	0
0.167356958079	6.69427832316	0
0.16748241307	6.6992965228	0
0.167607868061	6.70431472244	0
0.167733323052	6.70933292209	0
0.167858778043	6.71435112173	0
0.167984233034	6.71936932137	0
0.168109688025	6.72438752101	0
0.168235143016	6.72940572066	0
0.168360598007	6.7344239203	0
0.168486052999	6.73944211994	0
0.16861150799	6.74446031958	0
0.168736962981	6.74947851923	0
0.168862417972	6.75449671887	0
0.168987872963	6.75951491851	0
0.169113327954	6.76453311815	0
0.169238782945	6.7695513178	0
0.169364237936	6.77456951744	0
0.169489692927	6.77958771708	0
0.169615147918	6.78460591672	0
0.169740602909	6.78962411637	0
0.1698660579	6.79464231601	0
0.169991512891	6.79966051565	0
0.170116967882	6.80467871529	0
0.170242422873	6.80969691494	0
0.170367877864	6.81471511458	0
0.170493332856	6.81973331422	0
0.170618787847	6.82475151386	0
0.170744242838	6.82976971351	0
0.170869697829	6.83478791315	0
0.17099515282	6.83980611279	0
0.171120607811	6.84482431243	0
0.171246062802	6.84984251208	0
0.171371517793	6.85486071172	0
0.171496972784	6.85987891136	0
0.171622427775	6.86489711101	0
0.171747882766	6.86991531065	0
0.171873337757	6.87493351029	0
0.171998792748	6.87995170993	0
0.172124247739	6.88496990958	0
0.17224970273	6.88998810922	0
0.172375157722	6.89500630886	0
0.172500612713	6.9000245085	0
0.172626067704	6.90504270815	0
0.172751522695	6.91006090779	0
0.172876977686	6.91507910743	0
0.173002432677	6.92009730707	0
0.173127887668	6.92511550672	0
0.173253342659	6.93013370636	0
0.17337879765	6.935151906	0
0.173504252641	6.94017010564	0
0.173629707632	6.94518830529	0
0.173755162623	6.95020650493	0
0.173880617614	6.95522470457	0
0.174006072605	6.96024290421	0
0.174131527596	6.96526110386	0
0.174256982587	6.9702793035	0
0.174382437579	6.97529750314	0
0.17450789257	6.98031570278	0
0.174633347561	6.98533390243	0
0.174758802552	6.99035210207	0
0.174884257543	6.99537030171	0
0.175009712534	7.00038850135	0
0.175135167525	7.005406701	0
0.175260622516	7.01042490064	0
0.175386077507	7.01544310028	0
0.175511532498	7.02046129992	0
0.175636987489	7.02547949957	0
0.17576244248	7.03049769921	0
0.175887897471	7.03551589885	0
0.176013352462	7.04053409849	0
0.176138807453	7.04555229814	0
0.176264262444	7.05057049778	0
0.176389717436	7.05558869742	0
0.176515172427	7.06060689706	0
0.176640627418	7.06562509671	0
0.176766082409	7.07064329635	0
0.1768915374	7.07566149599	0
0.177016992391	7.08067969563	0
0.177142447382	7.08569789528	0
0.177267902373	7.09071609492	0
0.177393357364	7.09573429456	0
0.177518812355	7.1007524942	0
0.177644267346	7.10577069385	0
0.177769722337	7.11078889349	0
0.177895177328	7.11580709313	0
0.178020632319	7.12082529278	0
0.17814608731	7.12584349242	0
0.178271542302	7.13086169206	0
0.178396997293	7.1358798917	0
0.178522452284	7.14089809135	0
0.178647907275	7.14591629099	0
0.178773362266	7.15093449063	0
0.178898817257	7.15595269027	0
0.179024272248	7.16097088992	0
0.179149727239	7.16598908956	0
0.17927518223	7.1710072892	0
0.179400637221	7.17602548884	0
0.179526092212	7.18104368849	0
0.179651547203	7.18606188813	0
0.179777002194	7.19108008777	0
0.179902457185	7.19609828741	0
0.180027912176	7.20111648706	0
0.180153367167	7.2061346867	0
0.180278822159	7.21115288634	0
0.18040427715	7.21617108598	0
0.180529732141	7.22118928563	0
0.180655187132	7.22620748527	0
0.180780642123	7.23122568491	0
0.180906097114	7.23624388455	0
0.181031552105	7.2412620842	0
0.181157007096	7.24628028384	0
0.181282462087	7.25129848348	0
0.181407917078	7.25631668312	0
0.181533372069	7.26133488277	0
0.18165882706	7.26635308241	0
0.181784282051	7.27137128205	0
0.181909737042	7.27638948169	0
0.182035192033	7.28140768134	0
0.182160647024	7.28642588098	0
0.182286102016	7.29144408062	0
0.182411557007	7.29646228026	0
0.182537011998	7.30148047991	0
0.182662466989	7.30649867955	0
0.18278792198	7.31151687919	0
0.182913376971	7.31653507883	0
0.183038831962	7.32155327848	0
0.183164286953	7.32657147812	0
0.183289741944	7.33158967776	0
0.183415196935	7.3366078774	0
0.183540651926	7.34162607705	0
0.183666106917	7.34664427669	0
0.183791561908	7.35166247633	0
0.183917016899	7.35668067597	0
0.18404247189	7.36169887562	0
0.184167926881	7.36671707526	0
0.184293381873	7.3717352749	0
0.184418836864	7.37675347455	0
0.184544291855	7.38177167419	0
0.184669746846	7.38678987383	0
0.184795201837	7.39180807347	0
0.184920656828	7.39682627312	0
0.185046111819	7.40184447276	0
0.18517156681	7.4068626724	0
0.185297021801	7.41188087204	0
0.185422476792	7.41689907169	0
0.185547931783	7.42191727133	0
0.185673386774	7.42693547097	0
0.185798841765	7.43195367061	0
0.185924296756	7.43697187026	0
0.186049751747	7.4419900699	0
0.186175206739	7.44700826954	0
0.18630066173	7.45202646918	0
0.186426116721	7.45704466883	0
0.186551571712	7.46206286847	0
0.186677026703	7.46708106811	0
0.186802481694	7.47209926775	0
0.186927936685	7.4771174674	0
0.187053391676	7.48213566704	0
0.187178846667	7.48715386668	0
0.187304301658	7.49217206632	0
0.187429756649	7.49719026597	0
0.18755521164	7.50220846561	0
0.187680666631	7.50722666525	0
0.187806121622	7.51224486489	0
0.187931576613	7.51726306454	0
0.188057031604	7.52228126418	0
0.188182486596	7.52729946382	0
0.188307941587	7.53231766346	0
0.188433396578	7.53733586311	0
0.188558851569	7.54235406275	0
0.18868430656	7.54737226239	0
0.188809761551	7.55239046203	0
0.188935216542	7.55740866168	0
0.189060671533	7.56242686132	0
0.189186126524	7.56744506096	0
0.189311581515	7.5724632606	0
0.189437036506	7.57748146025	0
0.189562491497	7.58249965989	0
0.189687946488	7.58751785953	0
0.189813401479	7.59253605917	0
0.18993885647	7.59755425882	0
0.190064311461	7.60257245846	0
0.190189766453	7.6075906581	0
0.190315221444	7.61260885774	0
0.190440676435	7.61762705739	0
0.190566131426	7.62264525703	0
0.190691586417	7.62766345667	0
0.190817041408	7.63268165631	0
0.190942496399	7.63769985596	0
0.19106795139	7.6427180556	0
0.191193406381	7.64773625524	0
0.191318861372	7.65275445489	0
0.191444316363	7.65777265453	0
0.191569771354	7.66279085417	0
0.191695226345	7.66780905381	0
0.191820681336	7.67282725346	0
0.191946136327	7.6778454531	0
0.192071591319	7.68286365274	0
0.19219704631	7.68788185238	0
0.192322501301	7.69290005203	0
0.192447956292	7.69791825167	0
0.192573411283	7.70293645131	0
0.192698866274	7.70795465095	0
0.192824321265	7.7129728506	0
0.192949776256	7.71799105024	0
0.193075231247	7.72300924988	0
0.193200686238	7.72802744952	0
0.193326141229	7.73304564917	0
0.19345159622	7.73806384881	0
0.193577051211	7.74308204845	0
0.193702506202	7.74810024809	0
0.193827961193	7.75311844774	0
0.193953416184	7.75813664738	0
0.194078871176	7.76315484702	0
0.194204326167	7.76817304666	0
0.194329781158	7.77319124631	0
0.194455236149	7.77820944595	0
0.19458069114	7.78322764559	0
0.194706146131	7.78824584523	0
0.194831601122	7.79326404488	0
0.194957056113	7.79828224452	0
0.195082511104	7.80330044416	0
0.195207966095	7.8083186438	0
0.195333421086	7.81333684345	0
0.195458876077	7.81835504309	0
0.195584331068	7.82337324273	0
0.195709786059	7.82839144237	0
0.19583524105	7.83340964202	0
0.195960696041	7.83842784166	0
0.196086151033	7.8434460413	0
0.196211606024	7.84846424094	0
0.196337061015	7.85348244059	0
0.196462516006	7.85850064023	0
0.196587970997	7.86351883987	0
0.196713425988	7.86853703951	0
0.196838880979	7.87355523916	0
0.19696433597	7.8785734388	0
0.197089790961	7.88359163844	0
0.197215245952	7.88860983808	0
0.197340700943	7.89362803773	0
0.197466155934	7.89864623737	0
0.197591610925	7.90366443701	0
0.197717065916	7.90868263666	0
0.197842520907	7.9137008363	0
0.197967975899	7.91871903594	0
0.19809343089	7.92373723558	0
0.198218885881	7.92875543523	0
0.198344340872	7.93377363487	0
0.198469795863	7.93879183451	0
0.198595250854	7.94381003415	0
0.198720705845	7.9488282338	0
0.198846160836	7.95384643344	0
0.198971615827	7.95886463308	0
0.199097070818	7.96388283272	0
0.199222525809	7.96890103237	0
0.1993479808	7.97391923201	0
0.199473435791	7.97893743165	0
0.199598890782	7.98395563129	0
0.199724345773	7.98897383094	0
0.199849800764	7.99399203058	0
0.199975255756	7.99901023022	0
0.200100710747	8.00402842986	0
0.200226165738	8.00904662951	0
0.200351620729	8.01406482915	0
0.20047707572	8.01908302879	0
0.200602530711	8.02410122843	0
0.200727985702	8.02911942808	0
0.200853440693	8.03413762772	0
0.200978895684	8.03915582736	0
0.201104350675	8.044174027	0
0.201229805666	8.04919222665	0
0.201355260657	8.05421042629	0
0.201480715648	8.05922862593	0
0.201606170639	8.06424682557	0
0.20173162563	8.06926502522	0
0.201857080621	8.07428322486	0
0.201982535613	8.0793014245	0
0.202107990604	8.08431962414	0
0.202233445595	8.08933782379	0
0.202358900586	8.09435602343	0
0.202484355577	8.09937422307	0
0.202609810568	8.10439242271	0
0.202735265559	8.10941062236	0
0.20286072055	8.114428822	0
0.202986175541	8.11944702164	0
0.203111630532	8.12446522128	0
0.203237085523	8.12948342093	0
0.203362540514	8.13450162057	0
0.203487995505	8.13951982021	0
0.203613450496	8.14453801985	0
0.203738905487	8.1495562195	0
0.203864360478	8.15457441914	0
0.20398981547	8.15959261878	0
0.204115270461	8.16461081843	0
0.204240725452	8.16962901807	0
0.204366180443	8.17464721771	0
0.204491635434	8.17966541735	0
0.204617090425	8.184683617	0
0.204742545416	8.18970181664	0
0.204868000407	8.19472001628	0
0.204993455398	8.19973821592	0
0.205118910389	8.20475641557	0
0.20524436538	8.20977461521	0
0.205369820371	8.21479281485	0
0.205495275362	8.21981101449	0
0.205620730353	8.22482921414	0
0.205746185344	8.22984741378	0
0.205871640336	8.23486561342	0
0.205997095327	8.23988381306	0
0.206122550318	8.24490201271	0
0.206248005309	8.24992021235	0
0.2063734603	8.25493841199	0
0.206498915291	8.25995661163	0
0.206624370282	8.26497481128	0
0.206749825273	8.26999301092	0
0.206875280264	8.27501121056	0
0.207000735255	8.2800294102	0
0.207126190246	8.28504760985	0
0.207251645237	8.29006580949	0
0.207377100228	8.29508400913	0
0.207502555219	8.30010220877	0
0.20762801021	8.30512040842	0
0.207753465201	8.31013860806	0
0.207878920193	8.3151568077	0
0.208004375184	8.32017500734	0
0.208129830175	8.32519320699	0
0.208255285166	8.33021140663	0
0.208380740157	8.33522960627	0
0.208506195148	8.34024780591	0
0.208631650139	8.34526600556	0
0.20875710513	8.3502842052	0
0.208882560121	8.35530240484	0
0.209008015112	8.36032060448	0
0.209133470103	8.36533880413	0
0.209258925094	8.37035700377	0
0.209384380085	8.37537520341	0
0.209509835076	8.38039340305	0
0.209635290067	8.3854116027	0
0.209760745058	8.39042980234	0
0.20988620005	8.39544800198	0
0.210011655041	8.40046620162	0
0.210137110032	8.40548440127	0
0.210262565023	8.41050260091	0
0.210388020014	8.41552080055	0
0.210513475005	8.42053900019	0
0.210638929996	8.42555719984	0
0.210764384987	8.43057539948	0
0.210889839978	8.43559359912	0
0.211015294969	8.44061179877	0
0.21114074996	8.44562999841	0
0.211266204951	8.45064819805	0
0.211391659942	8.45566639769	0
0.211517114933	8.46068459734	0
0.211642569924	8.46570279698	0
0.211768024916	8.47072099662	0
0.211893479907	8.47573919626	0
0.212018934898	8.48075739591	0
0.212144389889	8.48577559555	0
0.21226984488	8.49079379519	0
0.212395299871	8.49581199483	0
0.212520754862	8.50083019448	0
0.212646209853	8.50584839412	0
0.212771664844	8.51086659376	0
0.212897119835	8.5158847934	0
0.213022574826	8.52090299305	0
0.213148029817	8.52592119269	0
0.213273484808	8.53093939233	0
0.213398939799	8.53595759197	0
0.21352439479	8.54097579162	0
0.213649849781	8.54599399126	0
0.213775304773	8.5510121909	0
0.213900759764	8.55603039054	0
0.214026214755	8.56104859019	0
0.214151669746	8.56606678983	0
0.214277124737	8.57108498947	0
0.214402579728	8.57610318911	0
0.214528034719	8.58112138876	0
0.21465348971	8.5861395884	0
0.214778944701	8.59115778804	0
0.214904399692	8.59617598768	0
0.215029854683	8.60119418733	0
0.215155309674	8.60621238697	0
0.215280764665	8.61123058661	0
0.215406219656	8.61624878625	0
0.215531674647	8.6212669859	0
0.215657129638	8.62628518554	0
0.21578258463	8.63130338518	0
0.215908039621	8.63632158482	0
0.216033494612	8.64133978447	0
0.216158949603	8.64635798411	0
0.216284404594	8.65137618375	0
0.216409859585	8.65639438339	0
0.216535314576	8.66141258304	0
0.216660769567	8.66643078268	0
0.216786224558	8.67144898232	0
0.216911679549	8.67646718196	0
0.21703713454	8.68148538161	0
0.217162589531	8.68650358125	0
0.217288044522	8.69152178089	0
0.217413499513	8.69653998054	0
0.217538954504	8.70155818018	0
0.217664409496	8.70657637982	0
0.217789864487	8.71159457946	0
0.217915319478	8.71661277911	0
0.218040774469	8.72163097875	0
0.21816622946	8.72664917839	0
0.218291684451	8.73166737803	0
0.218417139442	8.73668557768	0
0.218542594433	8.74170377732	0
0.218668049424	8.74672197696	0
0.218793504415	8.7517401766	0
0.218918959406	8.75675837625	0
0.219044414397	8.76177657589	0
0.219169869388	8.76679477553	0
0.219295324379	8.77181297517	0
0.21942077937	8.77683117482	0
0.219546234361	8.78184937446	0
0.219671689353	8.7868675741	0
0.219797144344	8.79188577374	0
0.219922599335	8.79690397339	0
0.220048054326	8.80192217303	0
0.220173509317	8.80694037267	0
0.220298964308	8.81195857231	0
0.220424419299	8.81697677196	0
0.22054987429	8.8219949716	0
0.220675329281	8.82701317124	0
0.220800784272	8.83203137088	0
0.220926239263	8.83704957053	0
0.221051694254	8.84206777017	0
0.221177149245	8.84708596981	0
0.221302604236	8.85210416945	0
0.221428059227	8.8571223691	0
0.221553514218	8.86214056874	0
0.22167896921	8.86715876838	0
0.221804424201	8.87217696802	0
0.221929879192	8.87719516767	0
0.222055334183	8.88221336731	0
0.222180789174	8.88723156695	0
0.222306244165	8.89224976659	0
0.222431699156	8.89726796624	0
0.222557154147	8.90228616588	0
0.222682609138	8.90730436552	0
0.222808064129	8.91232256516	0
0.22293351912	8.91734076481	0
0.223058974111	8.92235896445	0
0.223184429102	8.92737716409	0
0.223309884093	8.93239536373	0
0.223435339084	8.93741356338	0
0.223560794075	8.94243176302	0
0.223686249067	8.94744996266	0
0.223811704058	8.9524681623	0
0.223937159049	8.95748636195	0
0.22406261404	8.96250456159	0
0.224188069031	8.96752276123	0
0.224313524022	8.97254096088	0
0.224438979013	8.97755916052	0
0.224564434004	8.98257736016	0
0.224689888995	8.9875955598	0
0.224815343986	8.99261375945	0
0.224940798977	8.99763195909	0
0.225066253968	9.00265015873	0
0.225191708959	9.00766835837	0
0.22531716395	9.01268655802	0
0.225442618941	9.01770475766	0
0.225568073933	9.0227229573	0
0.225693528924	9.02774115694	0
0.225818983915	9.03275935659	0
0.225944438906	9.03777755623	0
0.226069893897	9.04279575587	0
0.226195348888	9.04781395551	0
0.226320803879	9.05283215516	0
0.22644625887	9.0578503548	0
0.226571713861	9.06286855444	0
0.226697168852	9.06788675408	0
0.226822623843	9.07290495373	0
0.226948078834	9.07792315337	0
0.227073533825	9.08294135301	0
0.227198988816	9.08795955265	0
0.227324443807	9.0929777523	0
0.227449898798	9.09799595194	0
0.22757535379	9.10301415158	0
0.227700808781	9.10803235122	0
0.227826263772	9.11305055087	0
0.227951718763	9.11806875051	0
0.228077173754	9.12308695015	0
0.228202628745	9.12810514979	0
0.228328083736	9.13312334944	0
0.228453538727	9.13814154908	0
0.228578993718	9.14315974872	0
0.228704448709	9.14817794836	0
0.2288299037	9.15319614801	0
0.228955358691	9.15821434765	0
0.229080813682	9.16323254729	0
0.229206268673	9.16825074693	0
0.229331723664	9.17326894658	0
0.229457178655	9.17828714622	0
0.229582633647	9.18330534586	0
0.229708088638	9.1883235455	0
0.229833543629	9.19334174515	0
0.22995899862	9.19835994479	0
0.230084453611	9.20337814443	0
0.230209908602	9.20839634407	0
0.230335363593	9.21341454372	0
0.230460818584	9.21843274336	0
0.230586273575	9.223450943	0
0.230711728566	9.22846914265	0
0.230837183557	9.23348734229	0
0.230962638548	9.23850554193	0
0.231088093539	9.24352374157	0
0.23121354853	9.24854194122	0
0.231339003521	9.25356014086	0
0.231464458513	9.2585783405	0
0.231589913504	9.26359654014	0
0.231715368495	9.26861473979	0
0.231840823486	9.27363293943	0
0.231966278477	9.27865113907	0
0.232091733468	9.28366933871	0
0.232217188459	9.28868753836	0
0.23234264345	9.293705738	0
0.232468098441	9.29872393764	0
0.232593553432	9.30374213728	0
0.232719008423	9.30876033693	0
0.232844463414	9.31377853657	0
0.232969918405	9.31879673621	0
0.233095373396	9.32381493585	0
0.233220828387	9.3288331355	0
0.233346283378	9.33385133514	0
0.23347173837	9.33886953478	0
0.233597193361	9.34388773442	0
0.233722648352	9.34890593407	0
0.233848103343	9.35392413371	0
0.233973558334	9.35894233335	0
0.234099013325	9.36396053299	0
0.234224468316	9.36897873264	0
0.234349923307	9.37399693228	0
0.234475378298	9.37901513192	0
0.234600833289	9.38403333156	0
0.23472628828	9.38905153121	0
0.234851743271	9.39406973085	0
0.234977198262	9.39908793049	0
0.235102653253	9.40410613013	0
0.235228108244	9.40912432978	0
0.235353563235	9.41414252942	0
0.235479018227	9.41916072906	0
0.235604473218	9.4241789287	0
0.235729928209	9.42919712835	0
0.2358553832	9.43421532799	0
0.235980838191	9.43923352763	0
0.236106293182	9.44425172727	0
0.236231748173	9.44926992692	0
0.236357203164	9.45428812656	0
0.236482658155	9.4593063262	0
0.236608113146	9.46432452584	0
0.236733568137	9.46934272549	0
0.236859023128	9.47436092513	0
0.236984478119	9.47937912477	0
0.23710993311	9.48439732442	0
0.237235388101	9.48941552406	0
0.237360843093	9.4944337237	0
0.237486298084	9.49945192334	0
0.237611753075	9.50447012299	0
0.237737208066	9.50948832263	0
0.237862663057	9.51450652227	0
0.237988118048	9.51952472191	0
0.238113573039	9.52454292156	0
0.23823902803	9.5295611212	0
0.238364483021	9.53457932084	0
0.238489938012	9.53959752048	0
0.238615393003	9.54461572013	0
0.238740847994	9.54963391977	0
0.238866302985	9.55465211941	0
0.238991757976	9.55967031905	0
0.239117212967	9.5646885187	0
0.239242667958	9.56970671834	0
0.23936812295	9.57472491798	0
0.239493577941	9.57974311762	0
0.239619032932	9.58476131727	0
0.239744487923	9.58977951691	0
0.239869942914	9.59479771655	0
0.239995397905	9.59981591619	0
0.240120852896	9.60483411584	0
0.240246307887	9.60985231548	0
0.240371762878	9.61487051512	0
0.240497217869	9.61988871476	0
0.24062267286	9.62490691441	0
0.240748127851	9.62992511405	0
0.240873582842	9.63494331369	0
0.240999037833	9.63996151333	0
0.241124492824	9.64497971298	0
0.241249947815	9.64999791262	0
0.241375402807	9.65501611226	0
0.241500857798	9.6600343119	0
0.241626312789	9.66505251155	0
0.24175176778	9.67007071119	0
0.241877222771	9.67508891083	0
0.242002677762	9.68010711047	0
0.242128132753	9.68512531012	0
0.242253587744	9.69014350976	0
0.242379042735	9.6951617094	0
0.242504497726	9.70017990904	0
0.242629952717	9.70519810869	0
0.242755407708	9.71021630833	0
0.242880862699	9.71523450797	0
0.24300631769	9.72025270761	0
0.243131772681	9.72527090726	0
0.243257227672	9.7302891069	0
0.243382682664	9.73530730654	0
0.243508137655	9.74032550618	0
0.243633592646	9.74534370583	0
0.243759047637	9.75036190547	0
0.243884502628	9.75538010511	0
0.244009957619	9.76039830476	0
0.24413541261	9.7654165044	0
0.244260867601	9.77043470404	0
0.244386322592	9.77545290368	0
0.244511777583	9.78047110333	0
0.244637232574	9.78548930297	0
0.244762687565	9.79050750261	0
0.244888142556	9.79552570225	0
0.245013597547	9.8005439019	0
0.245139052538	9.80556210154	0
0.24526450753	9.81058030118	0
0.245389962521	9.81559850082	0
0.245515417512	9.82061670047	0
0.245640872503	9.82563490011	0
0.245766327494	9.83065309975	0
0.245891782485	9.83567129939	0
0.246017237476	9.84068949904	0
0.246142692467	9.84570769868	0
0.246268147458	9.85072589832	0
0.246393602449	9.85574409796	0
0.24651905744	9.86076229761	0
0.246644512431	9.86578049725	0
0.246769967422	9.87079869689	0
0.246895422413	9.87581689653	0
0.247020877404	9.88083509618	0
0.247146332395	9.88585329582	0
0.247271787387	9.89087149546	0
0.247397242378	9.8958896951	0
0.247522697369	9.90090789475	0
0.24764815236	9.90592609439	0
0.247773607351	9.91094429403	0
0.247899062342	9.91596249367	0
0.248024517333	9.92098069332	0
0.248149972324	9.92599889296	0
0.248275427315	9.9310170926	0
0.248400882306	9.93603529224	0
0.248526337297	9.94105349189	0
0.248651792288	9.94607169153	0
0.248777247279	9.95108989117	0
0.24890270227	9.95610809081	0
0.249028157261	9.96112629046	0
0.249153612252	9.9661444901	0
0.249279067244	9.97116268974	0
0.249404522235	9.97618088938	0
0.249529977226	9.98119908903	0
0.249655432217	9.98621728867	0
0.249780887208	9.99123548831	0
0.249906342199	9.99625368795	0
0.25003179719	10.0012718876	0
0.250157252181	10.0062900872	0
0.250282707172	10.0113082869	0
0.250408162163	10.0163264865	0
0.250533617154	10.0213446862	0
0.250659072145	10.0263628858	0
0.250784527136	10.0313810855	0
