t	i	extra
0.0827145063087	2.4813432829	0.165429012617
0.0827153338675	2.48131808373	0.0
0.0827161614264	2.48129288457	0
0.0827169889852	2.4812676854	0
0.082717816544	2.48124248623	0
0.0827186441029	2.48121728707	0
0.0827194716617	2.4811920879	0
0.0827202992206	2.48116688873	0
0.0827211267794	2.48114168957	0
0.0827219543383	2.4811164904	0
0.0827227818971	2.48109129123	0
0.0827236094559	2.48106609207	0
0.0827244370148	2.4810408929	0
0.0827252645736	2.48101569373	0
0.0827260921325	2.48099049457	0
0.0827269196913	2.4809652954	0
0.0827277472501	2.48094009623	0
0.082728574809	2.48091489707	0
0.0827294023678	2.4808896979	0
0.0827302299267	2.48086449873	0
0.0827310574855	2.48083929957	0
0.0827318850444	2.4808141004	0
0.0827327126032	2.48078890123	0
0.082733540162	2.48076370207	0
0.0827343677209	2.4807385029	0
0.0827351952797	2.48071330373	0
0.0827360228386	2.48068810457	0
0.0827368503974	2.4806629054	0
0.0827376779563	2.48063770623	0
0.0827385055151	2.48061250707	0
0.0827393330739	2.4805873079	0
0.0827401606328	2.48056210873	0
0.0827409881916	2.48053690956	0
0.0827418157505	2.4805117104	0
0.0827426433093	2.48048651123	0
0.0827434708682	2.48046131206	0
0.082744298427	2.4804361129	0
0.0827451259858	2.48041091373	0
0.0827459535447	2.48038571456	0
0.0827467811035	2.4803605154	0
0.0827476086624	2.48033531623	0
0.0827484362212	2.48031011706	0
0.0827492637801	2.4802849179	0
0.0827500913389	2.48025971873	0
0.0827509188977	2.48023451956	0
0.0827517464566	2.4802093204	0
0.0827525740154	2.48018412123	0
0.0827534015743	2.48015892206	0
0.0827542291331	2.4801337229	0
0.082755056692	2.48010852373	0
0.0827558842508	2.48008332456	0
0.0827567118096	2.4800581254	0
0.0827575393685	2.48003292623	0
0.0827583669273	2.48000772706	0
0.0827591944862	2.4799825279	0
0.082760022045	2.47995732873	0
0.0827608496038	2.47993212956	0
0.0827616771627	2.4799069304	0
0.0827625047215	2.47988173123	0
0.0827633322804	2.47985653206	0
0.0827641598392	2.4798313329	0
0.0827649873981	2.47980613373	0
0.0827658149569	2.47978093456	0
0.0827666425157	2.4797557354	0
0.0827674700746	2.47973053623	0
0.0827682976334	2.47970533706	0
0.0827691251923	2.4796801379	0
0.0827699527511	2.47965493873	0
0.08277078031	2.47962973956	0
0.0827716078688	2.47960454039	0
0.0827724354276	2.47957934123	0
0.0827732629865	2.47955414206	0
0.0827740905453	2.47952894289	0
0.0827749181042	2.47950374373	0
0.082775745663	2.47947854456	0
0.0827765732219	2.47945334539	0
0.0827774007807	2.47942814623	0
0.0827782283395	2.47940294706	0
0.0827790558984	2.47937774789	0
0.0827798834572	2.47935254873	0
0.0827807110161	2.47932734956	0
0.0827815385749	2.47930215039	0
0.0827823661338	2.47927695123	0
0.0827831936926	2.47925175206	0
0.0827840212514	2.47922655289	0
0.0827848488103	2.47920135373	0
0.0827856763691	2.47917615456	0
0.082786503928	2.47915095539	0
0.0827873314868	2.47912575623	0
0.0827881590457	2.47910055706	0
0.0827889866045	2.47907535789	0
0.0827898141633	2.47905015873	0
0.0827906417222	2.47902495956	0
0.082791469281	2.47899976039	0
0.0827922968399	2.47897456123	0
0.0827931243987	2.47894936206	0
0.0827939519575	2.47892416289	0
0.0827947795164	2.47889896373	0
0.0827956070752	2.47887376456	0
0.0827964346341	2.47884856539	0
0.0827972621929	2.47882336623	0
0.0827980897518	2.47879816706	0
0.0827989173106	2.47877296789	0
0.0827997448694	2.47874776873	0
0.0828005724283	2.47872256956	0
0.0828013999871	2.47869737039	0
0.082802227546	2.47867217123	0
0.0828030551048	2.47864697206	0
0.0828038826637	2.47862177289	0
0.0828047102225	2.47859657372	0
0.0828055377813	2.47857137456	0
0.0828063653402	2.47854617539	0
0.082807192899	2.47852097622	0
0.0828080204579	2.47849577706	0
0.0828088480167	2.47847057789	0
0.0828096755756	2.47844537872	0
0.0828105031344	2.47842017956	0
0.0828113306932	2.47839498039	0
0.0828121582521	2.47836978122	0
0.0828129858109	2.47834458206	0
0.0828138133698	2.47831938289	0
0.0828146409286	2.47829418372	0
0.0828154684875	2.47826898456	0
0.0828162960463	2.47824378539	0
0.0828171236051	2.47821858622	0
0.082817951164	2.47819338706	0
0.0828187787228	2.47816818789	0
0.0828196062817	2.47814298872	0
0.0828204338405	2.47811778956	0
0.0828212613994	2.47809259039	0
0.0828220889582	2.47806739122	0
0.082822916517	2.47804219206	0
0.0828237440759	2.47801699289	0
0.0828245716347	2.47799179372	0
0.0828253991936	2.47796659456	0
0.0828262267524	2.47794139539	0
0.0828270543112	2.47791619622	0
0.0828278818701	2.47789099706	0
0.0828287094289	2.47786579789	0
0.0828295369878	2.47784059872	0
0.0828303645466	2.47781539956	0
0.0828311921055	2.47779020039	0
0.0828320196643	2.47776500122	0
0.0828328472231	2.47773980206	0
0.082833674782	2.47771460289	0
0.0828345023408	2.47768940372	0
0.0828353298997	2.47766420455	0
0.0828361574585	2.47763900539	0
0.0828369850174	2.47761380622	0
0.0828378125762	2.47758860705	0
0.082838640135	2.47756340789	0
0.0828394676939	2.47753820872	0
0.0828402952527	2.47751300955	0
0.0828411228116	2.47748781039	0
0.0828419503704	2.47746261122	0
0.0828427779293	2.47743741205	0
0.0828436054881	2.47741221289	0
0.0828444330469	2.47738701372	0
0.0828452606058	2.47736181455	0
0.0828460881646	2.47733661539	0
0.0828469157235	2.47731141622	0
0.0828477432823	2.47728621705	0
0.0828485708412	2.47726101789	0
0.0828493984	2.47723581872	0
0.0828502259588	2.47721061955	0
0.0828510535177	2.47718542039	0
0.0828518810765	2.47716022122	0
0.0828527086354	2.47713502205	0
0.0828535361942	2.47710982289	0
0.0828543637531	2.47708462372	0
0.0828551913119	2.47705942455	0
0.0828560188707	2.47703422539	0
0.0828568464296	2.47700902622	0
0.0828576739884	2.47698382705	0
0.0828585015473	2.47695862789	0
0.0828593291061	2.47693342872	0
0.082860156665	2.47690822955	0
0.0828609842238	2.47688303039	0
0.0828618117826	2.47685783122	0
0.0828626393415	2.47683263205	0
0.0828634669003	2.47680743289	0
0.0828642944592	2.47678223372	0
0.082865122018	2.47675703455	0
0.0828659495768	2.47673183538	0
0.0828667771357	2.47670663622	0
0.0828676046945	2.47668143705	0
0.0828684322534	2.47665623788	0
0.0828692598122	2.47663103872	0
0.0828700873711	2.47660583955	0
0.0828709149299	2.47658064038	0
0.0828717424887	2.47655544122	0
0.0828725700476	2.47653024205	0
0.0828733976064	2.47650504288	0
0.0828742251653	2.47647984372	0
0.0828750527241	2.47645464455	0
0.082875880283	2.47642944538	0
0.0828767078418	2.47640424622	0
0.0828775354006	2.47637904705	0
0.0828783629595	2.47635384788	0
0.0828791905183	2.47632864872	0
0.0828800180772	2.47630344955	0
0.082880845636	2.47627825038	0
0.0828816731949	2.47625305122	0
0.0828825007537	2.47622785205	0
0.0828833283125	2.47620265288	0
0.0828841558714	2.47617745372	0
0.0828849834302	2.47615225455	0
0.0828858109891	2.47612705538	0
0.0828866385479	2.47610185622	0
0.0828874661068	2.47607665705	0
0.0828882936656	2.47605145788	0
0.0828891212244	2.47602625872	0
0.0828899487833	2.47600105955	0
0.0828907763421	2.47597586038	0
0.082891603901	2.47595066122	0
0.0828924314598	2.47592546205	0
0.0828932590187	2.47590026288	0
0.0828940865775	2.47587506372	0
0.0828949141363	2.47584986455	0
0.0828957416952	2.47582466538	0
0.082896569254	2.47579946622	0
0.0828973968129	2.47577426705	0
0.0828982243717	2.47574906788	0
0.0828990519305	2.47572386871	0
0.0828998794894	2.47569866955	0
0.0829007070482	2.47567347038	0
0.0829015346071	2.47564827121	0
0.0829023621659	2.47562307205	0
0.0829031897248	2.47559787288	0
0.0829040172836	2.47557267371	0
0.0829048448424	2.47554747455	0
0.0829056724013	2.47552227538	0
0.0829064999601	2.47549707621	0
0.082907327519	2.47547187705	0
0.0829081550778	2.47544667788	0
0.0829089826367	2.47542147871	0
0.0829098101955	2.47539627955	0
0.0829106377543	2.47537108038	0
0.0829114653132	2.47534588121	0
0.082912292872	2.47532068205	0
0.0829131204309	2.47529548288	0
0.0829139479897	2.47527028371	0
0.0829147755486	2.47524508455	0
0.0829156031074	2.47521988538	0
0.0829164306662	2.47519468621	0
0.0829172582251	2.47516948705	0
0.0829180857839	2.47514428788	0
0.0829189133428	2.47511908871	0
0.0829197409016	2.47509388955	0
0.0829205684605	2.47506869038	0
0.0829213960193	2.47504349121	0
0.0829222235781	2.47501829205	0
0.082923051137	2.47499309288	0
0.0829238786958	2.47496789371	0
0.0829247062547	2.47494269455	0
0.0829255338135	2.47491749538	0
0.0829263613724	2.47489229621	0
0.0829271889312	2.47486709705	0
0.08292801649	2.47484189788	0
0.0829288440489	2.47481669871	0
0.0829296716077	2.47479149954	0
0.0829304991666	2.47476630038	0
0.0829313267254	2.47474110121	0
0.0829321542842	2.47471590204	0
0.0829329818431	2.47469070288	0
0.0829338094019	2.47466550371	0
0.0829346369608	2.47464030454	0
0.0829354645196	2.47461510538	0
0.0829362920785	2.47458990621	0
0.0829371196373	2.47456470704	0
0.0829379471961	2.47453950788	0
0.082938774755	2.47451430871	0
0.0829396023138	2.47448910954	0
0.0829404298727	2.47446391038	0
0.0829412574315	2.47443871121	0
0.0829420849904	2.47441351204	0
0.0829429125492	2.47438831288	0
0.082943740108	2.47436311371	0
0.0829445676669	2.47433791454	0
0.0829453952257	2.47431271538	0
0.0829462227846	2.47428751621	0
0.0829470503434	2.47426231704	0
0.0829478779023	2.47423711788	0
0.0829487054611	2.47421191871	0
0.0829495330199	2.47418671954	0
0.0829503605788	2.47416152038	0
0.0829511881376	2.47413632121	0
0.0829520156965	2.47411112204	0
0.0829528432553	2.47408592288	0
0.0829536708142	2.47406072371	0
0.082954498373	2.47403552454	0
0.0829553259318	2.47401032538	0
0.0829561534907	2.47398512621	0
0.0829569810495	2.47395992704	0
0.0829578086084	2.47393472788	0
0.0829586361672	2.47390952871	0
0.0829594637261	2.47388432954	0
0.0829602912849	2.47385913037	0
0.0829611188437	2.47383393121	0
0.0829619464026	2.47380873204	0
0.0829627739614	2.47378353287	0
0.0829636015203	2.47375833371	0
0.0829644290791	2.47373313454	0
0.0829652566379	2.47370793537	0
0.0829660841968	2.47368273621	0
0.0829669117556	2.47365753704	0
0.0829677393145	2.47363233787	0
0.0829685668733	2.47360713871	0
0.0829693944322	2.47358193954	0
0.082970221991	2.47355674037	0
0.0829710495498	2.47353154121	0
0.0829718771087	2.47350634204	0
0.0829727046675	2.47348114287	0
0.0829735322264	2.47345594371	0
0.0829743597852	2.47343074454	0
0.0829751873441	2.47340554537	0
0.0829760149029	2.47338034621	0
0.0829768424617	2.47335514704	0
0.0829776700206	2.47332994787	0
0.0829784975794	2.47330474871	0
0.0829793251383	2.47327954954	0
0.0829801526971	2.47325435037	0
0.082980980256	2.47322915121	0
0.0829818078148	2.47320395204	0
0.0829826353736	2.47317875287	0
0.0829834629325	2.47315355371	0
0.0829842904913	2.47312835454	0
0.0829851180502	2.47310315537	0
0.082985945609	2.47307795621	0
0.0829867731679	2.47305275704	0
0.0829876007267	2.47302755787	0
0.0829884282855	2.47300235871	0
0.0829892558444	2.47297715954	0
0.0829900834032	2.47295196037	0
0.0829909109621	2.47292676121	0
0.0829917385209	2.47290156204	0
0.0829925660798	2.47287636287	0
0.0829933936386	2.4728511637	0
0.0829942211974	2.47282596454	0
0.0829950487563	2.47280076537	0
0.0829958763151	2.4727755662	0
0.082996703874	2.47275036704	0
0.0829975314328	2.47272516787	0
0.0829983589916	2.4726999687	0
0.0829991865505	2.47267476954	0
0.0830000141093	2.47264957037	0
0.0830008416682	2.4726243712	0
0.083001669227	2.47259917204	0
0.0830024967859	2.47257397287	0
0.0830033243447	2.4725487737	0
0.0830041519035	2.47252357454	0
0.0830049794624	2.47249837537	0
0.0830058070212	2.4724731762	0
0.0830066345801	2.47244797704	0
0.0830074621389	2.47242277787	0
0.0830082896978	2.4723975787	0
0.0830091172566	2.47237237954	0
0.0830099448154	2.47234718037	0
0.0830107723743	2.4723219812	0
0.0830115999331	2.47229678204	0
0.083012427492	2.47227158287	0
0.0830132550508	2.4722463837	0
0.0830140826097	2.47222118454	0
0.0830149101685	2.47219598537	0
0.0830157377273	2.4721707862	0
0.0830165652862	2.47214558704	0
0.083017392845	2.47212038787	0
0.0830182204039	2.4720951887	0
0.0830190479627	2.47206998954	0
0.0830198755216	2.47204479037	0
0.0830207030804	2.4720195912	0
0.0830215306392	2.47199439204	0
0.0830223581981	2.47196919287	0
0.0830231857569	2.4719439937	0
0.0830240133158	2.47191879453	0
0.0830248408746	2.47189359537	0
0.0830256684335	2.4718683962	0
0.0830264959923	2.47184319703	0
0.0830273235511	2.47181799787	0
0.08302815111	2.4717927987	0
0.0830289786688	2.47176759953	0
0.0830298062277	2.47174240037	0
0.0830306337865	2.4717172012	0
0.0830314613453	2.47169200203	0
0.0830322889042	2.47166680287	0
0.083033116463	2.4716416037	0
0.0830339440219	2.47161640453	0
0.0830347715807	2.47159120537	0
0.0830355991396	2.4715660062	0
0.0830364266984	2.47154080703	0
0.0830372542572	2.47151560787	0
0.0830380818161	2.4714904087	0
0.0830389093749	2.47146520953	0
0.0830397369338	2.47144001037	0
0.0830405644926	2.4714148112	0
0.0830413920515	2.47138961203	0
0.0830422196103	2.47136441287	0
0.0830430471691	2.4713392137	0
0.083043874728	2.47131401453	0
0.0830447022868	2.47128881537	0
0.0830455298457	2.4712636162	0
0.0830463574045	2.47123841703	0
0.0830471849634	2.47121321787	0
0.0830480125222	2.4711880187	0
0.083048840081	2.47116281953	0
0.0830496676399	2.47113762037	0
0.0830504951987	2.4711124212	0
0.0830513227576	2.47108722203	0
0.0830521503164	2.47106202287	0
0.0830529778753	2.4710368237	0
0.0830538054341	2.47101162453	0
0.0830546329929	2.47098642536	0
0.0830554605518	2.4709612262	0
0.0830562881106	2.47093602703	0
0.0830571156695	2.47091082786	0
0.0830579432283	2.4708856287	0
0.0830587707872	2.47086042953	0
0.083059598346	2.47083523036	0
0.0830604259048	2.4708100312	0
0.0830612534637	2.47078483203	0
0.0830620810225	2.47075963286	0
0.0830629085814	2.4707344337	0
0.0830637361402	2.47070923453	0
0.083064563699	2.47068403536	0
0.0830653912579	2.4706588362	0
0.0830662188167	2.47063363703	0
0.0830670463756	2.47060843786	0
0.0830678739344	2.4705832387	0
0.0830687014933	2.47055803953	0
0.0830695290521	2.47053284036	0
0.0830703566109	2.4705076412	0
0.0830711841698	2.47048244203	0
0.0830720117286	2.47045724286	0
0.0830728392875	2.4704320437	0
0.0830736668463	2.47040684453	0
0.0830744944052	2.47038164536	0
0.083075321964	2.4703564462	0
0.0830761495228	2.47033124703	0
0.0830769770817	2.47030604786	0
0.0830778046405	2.4702808487	0
0.0830786321994	2.47025564953	0
0.0830794597582	2.47023045036	0
0.0830802873171	2.4702052512	0
0.0830811148759	2.47018005203	0
0.0830819424347	2.47015485286	0
0.0830827699936	2.4701296537	0
0.0830835975524	2.47010445453	0
0.0830844251113	2.47007925536	0
0.0830852526701	2.4700540562	0
0.083086080229	2.47002885703	0
0.0830869077878	2.47000365786	0
0.0830877353466	2.46997845869	0
0.0830885629055	2.46995325953	0
0.0830893904643	2.46992806036	0
0.0830902180232	2.46990286119	0
0.083091045582	2.46987766203	0
0.0830918731409	2.46985246286	0
0.0830927006997	2.46982726369	0
0.0830935282585	2.46980206453	0
0.0830943558174	2.46977686536	0
0.0830951833762	2.46975166619	0
0.0830960109351	2.46972646703	0
0.0830968384939	2.46970126786	0
0.0830976660527	2.46967606869	0
0.0830984936116	2.46965086953	0
0.0830993211704	2.46962567036	0
0.0831001487293	2.46960047119	0
0.0831009762881	2.46957527203	0
0.083101803847	2.46955007286	0
0.0831026314058	2.46952487369	0
0.0831034589646	2.46949967453	0
0.0831042865235	2.46947447536	0
0.0831051140823	2.46944927619	0
0.0831059416412	2.46942407703	0
0.0831067692	2.46939887786	0
0.0831075967589	2.46937367869	0
0.0831084243177	2.46934847953	0
0.0831092518765	2.46932328036	0
0.0831100794354	2.46929808119	0
0.0831109069942	2.46927288203	0
0.0831117345531	2.46924768286	0
0.0831125621119	2.46922248369	0
0.0831133896708	2.46919728453	0
0.0831142172296	2.46917208536	0
0.0831150447884	2.46914688619	0
0.0831158723473	2.46912168703	0
0.0831166999061	2.46909648786	0
0.083117527465	2.46907128869	0
0.0831183550238	2.46904608952	0
0.0831191825827	2.46902089036	0
0.0831200101415	2.46899569119	0
0.0831208377003	2.46897049202	0
0.0831216652592	2.46894529286	0
0.083122492818	2.46892009369	0
0.0831233203769	2.46889489452	0
0.0831241479357	2.46886969536	0
0.0831249754946	2.46884449619	0
0.0831258030534	2.46881929702	0
0.0831266306122	2.46879409786	0
0.0831274581711	2.46876889869	0
0.0831282857299	2.46874369952	0
0.0831291132888	2.46871850036	0
0.0831299408476	2.46869330119	0
0.0831307684065	2.46866810202	0
0.0831315959653	2.46864290286	0
0.0831324235241	2.46861770369	0
0.083133251083	2.46859250452	0
0.0831340786418	2.46856730536	0
0.0831349062007	2.46854210619	0
0.0831357337595	2.46851690702	0
0.0831365613183	2.46849170786	0
0.0831373888772	2.46846650869	0
0.083138216436	2.46844130952	0
0.0831390439949	2.46841611036	0
0.0831398715537	2.46839091119	0
0.0831406991126	2.46836571202	0
0.0831415266714	2.46834051286	0
0.0831423542302	2.46831531369	0
0.0831431817891	2.46829011452	0
0.0831440093479	2.46826491536	0
0.0831448369068	2.46823971619	0
0.0831456644656	2.46821451702	0
0.0831464920245	2.46818931786	0
0.0831473195833	2.46816411869	0
0.0831481471421	2.46813891952	0
0.083148974701	2.46811372035	0
0.0831498022598	2.46808852119	0
0.0831506298187	2.46806332202	0
0.0831514573775	2.46803812285	0
0.0831522849364	2.46801292369	0
0.0831531124952	2.46798772452	0
0.083153940054	2.46796252535	0
0.0831547676129	2.46793732619	0
0.0831555951717	2.46791212702	0
0.0831564227306	2.46788692785	0
0.0831572502894	2.46786172869	0
0.0831580778483	2.46783652952	0
0.0831589054071	2.46781133035	0
0.0831597329659	2.46778613119	0
0.0831605605248	2.46776093202	0
0.0831613880836	2.46773573285	0
0.0831622156425	2.46771053369	0
0.0831630432013	2.46768533452	0
0.0831638707602	2.46766013535	0
0.083164698319	2.46763493619	0
0.0831655258778	2.46760973702	0
0.0831663534367	2.46758453785	0
0.0831671809955	2.46755933869	0
0.0831680085544	2.46753413952	0
0.0831688361132	2.46750894035	0
0.083169663672	2.46748374119	0
0.0831704912309	2.46745854202	0
0.0831713187897	2.46743334285	0
0.0831721463486	2.46740814369	0
0.0831729739074	2.46738294452	0
0.0831738014663	2.46735774535	0
0.0831746290251	2.46733254619	0
0.0831754565839	2.46730734702	0
0.0831762841428	2.46728214785	0
0.0831771117016	2.46725694869	0
0.0831779392605	2.46723174952	0
0.0831787668193	2.46720655035	0
0.0831795943782	2.46718135119	0
0.083180421937	2.46715615202	0
0.0831812494958	2.46713095285	0
0.0831820770547	2.46710575368	0
0.0831829046135	2.46708055452	0
0.0831837321724	2.46705535535	0
0.0831845597312	2.46703015618	0
0.0831853872901	2.46700495702	0
0.0831862148489	2.46697975785	0
0.0831870424077	2.46695455868	0
0.0831878699666	2.46692935952	0
0.0831886975254	2.46690416035	0
0.0831895250843	2.46687896118	0
0.0831903526431	2.46685376202	0
0.083191180202	2.46682856285	0
0.0831920077608	2.46680336368	0
0.0831928353196	2.46677816452	0
0.0831936628785	2.46675296535	0
0.0831944904373	2.46672776618	0
0.0831953179962	2.46670256702	0
0.083196145555	2.46667736785	0
0.0831969731139	2.46665216868	0
0.0831978006727	2.46662696952	0
0.0831986282315	2.46660177035	0
0.0831994557904	2.46657657118	0
0.0832002833492	2.46655137202	0
0.0832011109081	2.46652617285	0
0.0832019384669	2.46650097368	0
0.0832027660257	2.46647577452	0
0.0832035935846	2.46645057535	0
0.0832044211434	2.46642537618	0
0.0832052487023	2.46640017702	0
0.0832060762611	2.46637497785	0
0.08320690382	2.46634977868	0
0.0832077313788	2.46632457952	0
0.0832085589376	2.46629938035	0
0.0832093864965	2.46627418118	0
0.0832102140553	2.46624898202	0
0.0832110416142	2.46622378285	0
0.083211869173	2.46619858368	0
0.0832126967319	2.46617338451	0
0.0832135242907	2.46614818535	0
0.0832143518495	2.46612298618	0
0.0832151794084	2.46609778701	0
0.0832160069672	2.46607258785	0
0.0832168345261	2.46604738868	0
0.0832176620849	2.46602218951	0
0.0832184896438	2.46599699035	0
0.0832193172026	2.46597179118	0
0.0832201447614	2.46594659201	0
0.0832209723203	2.46592139285	0
0.0832217998791	2.46589619368	0
0.083222627438	2.46587099451	0
0.0832234549968	2.46584579535	0
0.0832242825557	2.46582059618	0
0.0832251101145	2.46579539701	0
0.0832259376733	2.46577019785	0
0.0832267652322	2.46574499868	0
0.083227592791	2.46571979951	0
0.0832284203499	2.46569460035	0
0.0832292479087	2.46566940118	0
0.0832300754676	2.46564420201	0
0.0832309030264	2.46561900285	0
0.0832317305852	2.46559380368	0
0.0832325581441	2.46556860451	0
0.0832333857029	2.46554340535	0
0.0832342132618	2.46551820618	0
0.0832350408206	2.46549300701	0
0.0832358683794	2.46546780785	0
0.0832366959383	2.46544260868	0
0.0832375234971	2.46541740951	0
0.083238351056	2.46539221035	0
0.0832391786148	2.46536701118	0
0.0832400061737	2.46534181201	0
0.0832408337325	2.46531661285	0
0.0832416612913	2.46529141368	0
0.0832424888502	2.46526621451	0
0.083243316409	2.46524101534	0
0.0832441439679	2.46521581618	0
0.0832449715267	2.46519061701	0
0.0832457990856	2.46516541784	0
0.0832466266444	2.46514021868	0
0.0832474542032	2.46511501951	0
0.0832482817621	2.46508982034	0
0.0832491093209	2.46506462118	0
0.0832499368798	2.46503942201	0
0.0832507644386	2.46501422284	0
0.0832515919975	2.46498902368	0
0.0832524195563	2.46496382451	0
0.0832532471151	2.46493862534	0
0.083254074674	2.46491342618	0
0.0832549022328	2.46488822701	0
0.0832557297917	2.46486302784	0
0.0832565573505	2.46483782868	0
0.0832573849094	2.46481262951	0
0.0832582124682	2.46478743034	0
0.083259040027	2.46476223118	0
0.0832598675859	2.46473703201	0
0.0832606951447	2.46471183284	0
0.0832615227036	2.46468663368	0
0.0832623502624	2.46466143451	0
0.0832631778213	2.46463623534	0
0.0832640053801	2.46461103618	0
0.0832648329389	2.46458583701	0
0.0832656604978	2.46456063784	0
0.0832664880566	2.46453543868	0
0.0832673156155	2.46451023951	0
0.0832681431743	2.46448504034	0
0.0832689707331	2.46445984118	0
0.083269798292	2.46443464201	0
0.0832706258508	2.46440944284	0
0.0832714534097	2.46438424368	0
0.0832722809685	2.46435904451	0
0.0832731085274	2.46433384534	0
0.0832739360862	2.46430864618	0
0.083274763645	2.46428344701	0
0.0832755912039	2.46425824784	0
0.0832764187627	2.46423304867	0
0.0832772463216	2.46420784951	0
0.0832780738804	2.46418265034	0
0.0832789014393	2.46415745117	0
0.0832797289981	2.46413225201	0
0.0832805565569	2.46410705284	0
0.0832813841158	2.46408185367	0
0.0832822116746	2.46405665451	0
0.0832830392335	2.46403145534	0
0.0832838667923	2.46400625617	0
0.0832846943512	2.46398105701	0
0.08328552191	2.46395585784	0
0.0832863494688	2.46393065867	0
0.0832871770277	2.46390545951	0
0.0832880045865	2.46388026034	0
0.0832888321454	2.46385506117	0
0.0832896597042	2.46382986201	0
0.0832904872631	2.46380466284	0
0.0832913148219	2.46377946367	0
0.0832921423807	2.46375426451	0
0.0832929699396	2.46372906534	0
0.0832937974984	2.46370386617	0
0.0832946250573	2.46367866701	0
0.0832954526161	2.46365346784	0
0.083296280175	2.46362826867	0
0.0832971077338	2.46360306951	0
0.0832979352926	2.46357787034	0
0.0832987628515	2.46355267117	0
0.0832995904103	2.46352747201	0
0.0833004179692	2.46350227284	0
0.083301245528	2.46347707367	0
0.0833020730868	2.46345187451	0
0.0833029006457	2.46342667534	0
0.0833037282045	2.46340147617	0
0.0833045557634	2.46337627701	0
0.0833053833222	2.46335107784	0
0.0833062108811	2.46332587867	0
0.0833070384399	2.4633006795	0
0.0833078659987	2.46327548034	0
0.0833086935576	2.46325028117	0
0.0833095211164	2.463225082	0
0.0833103486753	2.46319988284	0
0.0833111762341	2.46317468367	0
0.083312003793	2.4631494845	0
0.0833128313518	2.46312428534	0
0.0833136589106	2.46309908617	0
0.0833144864695	2.463073887	0
0.0833153140283	2.46304868784	0
0.0833161415872	2.46302348867	0
0.083316969146	2.4629982895	0
0.0833177967049	2.46297309034	0
0.0833186242637	2.46294789117	0
0.0833194518225	2.462922692	0
0.0833202793814	2.46289749284	0
0.0833211069402	2.46287229367	0
0.0833219344991	2.4628470945	0
0.0833227620579	2.46282189534	0
0.0833235896168	2.46279669617	0
0.0833244171756	2.462771497	0
0.0833252447344	2.46274629784	0
0.0833260722933	2.46272109867	0
0.0833268998521	2.4626958995	0
0.083327727411	2.46267070034	0
0.0833285549698	2.46264550117	0
0.0833293825287	2.462620302	0
0.0833302100875	2.46259510284	0
0.0833310376463	2.46256990367	0
0.0833318652052	2.4625447045	0
0.083332692764	2.46251950534	0
0.0833335203229	2.46249430617	0
0.0833343478817	2.462469107	0
0.0833351754405	2.46244390784	0
0.0833360029994	2.46241870867	0
0.0833368305582	2.4623935095	0
0.0833376581171	2.46236831033	0
0.0833384856759	2.46234311117	0
0.0833393132348	2.462317912	0
0.0833401407936	2.46229271283	0
0.0833409683524	2.46226751367	0
0.0833417959113	2.4622423145	0
0.0833426234701	2.46221711533	0
0.083343451029	2.46219191617	0
0.0833442785878	2.462166717	0
0.0833451061467	2.46214151783	0
0.0833459337055	2.46211631867	0
0.0833467612643	2.4620911195	0
0.0833475888232	2.46206592033	0
0.083348416382	2.46204072117	0
0.0833492439409	2.462015522	0
0.0833500714997	2.46199032283	0
0.0833508990586	2.46196512367	0
0.0833517266174	2.4619399245	0
0.0833525541762	2.46191472533	0
0.0833533817351	2.46188952617	0
0.0833542092939	2.461864327	0
0.0833550368528	2.46183912783	0
0.0833558644116	2.46181392867	0
0.0833566919705	2.4617887295	0
0.0833575195293	2.46176353033	0
0.0833583470881	2.46173833117	0
0.083359174647	2.461713132	0
0.0833600022058	2.46168793283	0
0.0833608297647	2.46166273367	0
0.0833616573235	2.4616375345	0
0.0833624848824	2.46161233533	0
0.0833633124412	2.46158713617	0
0.08336414	2.461561937	0
0.0833649675589	2.46153673783	0
0.0833657951177	2.46151153867	0
0.0833666226766	2.4614863395	0
0.0833674502354	2.46146114033	0
0.0833682777943	2.46143594117	0
0.0833691053531	2.461410742	0
0.0833699329119	2.46138554283	0
0.0833707604708	2.46136034366	0
0.0833715880296	2.4613351445	0
0.0833724155885	2.46130994533	0
0.0833732431473	2.46128474616	0
0.0833740707061	2.461259547	0
0.083374898265	2.46123434783	0
0.0833757258238	2.46120914866	0
0.0833765533827	2.4611839495	0
0.0833773809415	2.46115875033	0
0.0833782085004	2.46113355116	0
0.0833790360592	2.461108352	0
0.083379863618	2.46108315283	0
0.0833806911769	2.46105795366	0
0.0833815187357	2.4610327545	0
0.0833823462946	2.46100755533	0
0.0833831738534	2.46098235616	0
0.0833840014123	2.460957157	0
0.0833848289711	2.46093195783	0
0.0833856565299	2.46090675866	0
0.0833864840888	2.4608815595	0
0.0833873116476	2.46085636033	0
0.0833881392065	2.46083116116	0
0.0833889667653	2.460805962	0
0.0833897943242	2.46078076283	0
0.083390621883	2.46075556366	0
0.0833914494418	2.4607303645	0
0.0833922770007	2.46070516533	0
0.0833931045595	2.46067996616	0
0.0833939321184	2.460654767	0
0.0833947596772	2.46062956783	0
0.0833955872361	2.46060436866	0
0.0833964147949	2.4605791695	0
0.0833972423537	2.46055397033	0
0.0833980699126	2.46052877116	0
0.0833988974714	2.460503572	0
0.0833997250303	2.46047837283	0
0.0834005525891	2.46045317366	0
0.083401380148	2.46042797449	0
0.0834022077068	2.46040277533	0
0.0834030352656	2.46037757616	0
0.0834038628245	2.46035237699	0
0.0834046903833	2.46032717783	0
0.0834055179422	2.46030197866	0
0.083406345501	2.46027677949	0
0.0834071730598	2.46025158033	0
0.0834080006187	2.46022638116	0
0.0834088281775	2.46020118199	0
0.0834096557364	2.46017598283	0
0.0834104832952	2.46015078366	0
0.0834113108541	2.46012558449	0
0.0834121384129	2.46010038533	0
0.0834129659717	2.46007518616	0
0.0834137935306	2.46004998699	0
0.0834146210894	2.46002478783	0
0.0834154486483	2.45999958866	0
0.0834162762071	2.45997438949	0
0.083417103766	2.45994919033	0
0.0834179313248	2.45992399116	0
0.0834187588836	2.45989879199	0
0.0834195864425	2.45987359283	0
0.0834204140013	2.45984839366	0
0.0834212415602	2.45982319449	0
0.083422069119	2.45979799533	0
0.0834228966779	2.45977279616	0
0.0834237242367	2.45974759699	0
0.0834245517955	2.45972239783	0
0.0834253793544	2.45969719866	0
0.0834262069132	2.45967199949	0
0.0834270344721	2.45964680033	0
0.0834278620309	2.45962160116	0
0.0834286895898	2.45959640199	0
0.0834295171486	2.45957120283	0
0.0834303447074	2.45954600366	0
0.0834311722663	2.45952080449	0
0.0834319998251	2.45949560532	0
0.083432827384	2.45947040616	0
0.0834336549428	2.45944520699	0
0.0834344825017	2.45942000782	0
0.0834353100605	2.45939480866	0
0.0834361376193	2.45936960949	0
0.0834369651782	2.45934441032	0
0.083437792737	2.45931921116	0
0.0834386202959	2.45929401199	0
0.0834394478547	2.45926881282	0
0.0834402754135	2.45924361366	0
0.0834411029724	2.45921841449	0
0.0834419305312	2.45919321532	0
0.0834427580901	2.45916801616	0
0.0834435856489	2.45914281699	0
0.0834444132078	2.45911761782	0
0.0834452407666	2.45909241866	0
0.0834460683254	2.45906721949	0
0.0834468958843	2.45904202032	0
0.0834477234431	2.45901682116	0
0.083448551002	2.45899162199	0
0.0834493785608	2.45896642282	0
0.0834502061197	2.45894122366	0
0.0834510336785	2.45891602449	0
0.0834518612373	2.45889082532	0
0.0834526887962	2.45886562616	0
0.083453516355	2.45884042699	0
0.0834543439139	2.45881522782	0
0.0834551714727	2.45879002866	0
0.0834559990316	2.45876482949	0
0.0834568265904	2.45873963032	0
0.0834576541492	2.45871443116	0
0.0834584817081	2.45868923199	0
0.0834593092669	2.45866403282	0
0.0834601368258	2.45863883366	0
0.0834609643846	2.45861363449	0
0.0834617919435	2.45858843532	0
0.0834626195023	2.45856323616	0
0.0834634470611	2.45853803699	0
0.08346427462	2.45851283782	0
0.0834651021788	2.45848763865	0
0.0834659297377	2.45846243949	0
0.0834667572965	2.45843724032	0
0.0834675848554	2.45841204115	0
0.0834684124142	2.45838684199	0
0.083469239973	2.45836164282	0
0.0834700675319	2.45833644365	0
0.0834708950907	2.45831124449	0
0.0834717226496	2.45828604532	0
0.0834725502084	2.45826084615	0
0.0834733777672	2.45823564699	0
0.0834742053261	2.45821044782	0
0.0834750328849	2.45818524865	0
0.0834758604438	2.45816004949	0
0.0834766880026	2.45813485032	0
0.0834775155615	2.45810965115	0
0.0834783431203	2.45808445199	0
0.0834791706791	2.45805925282	0
0.083479998238	2.45803405365	0
0.0834808257968	2.45800885449	0
0.0834816533557	2.45798365532	0
0.0834824809145	2.45795845615	0
0.0834833084734	2.45793325699	0
0.0834841360322	2.45790805782	0
0.083484963591	2.45788285865	0
0.0834857911499	2.45785765949	0
0.0834866187087	2.45783246032	0
0.0834874462676	2.45780726115	0
0.0834882738264	2.45778206199	0
0.0834891013853	2.45775686282	0
0.0834899289441	2.45773166365	0
0.0834907565029	2.45770646449	0
0.0834915840618	2.45768126532	0
0.0834924116206	2.45765606615	0
0.0834932391795	2.45763086699	0
0.0834940667383	2.45760566782	0
0.0834948942972	2.45758046865	0
0.083495721856	2.45755526948	0
0.0834965494148	2.45753007032	0
0.0834973769737	2.45750487115	0
0.0834982045325	2.45747967198	0
0.0834990320914	2.45745447282	0
0.0834998596502	2.45742927365	0
0.0835006872091	2.45740407448	0
0.0835015147679	2.45737887532	0
0.0835023423267	2.45735367615	0
0.0835031698856	2.45732847698	0
0.0835039974444	2.45730327782	0
0.0835048250033	2.45727807865	0
0.0835056525621	2.45725287948	0
0.0835064801209	2.45722768032	0
0.0835073076798	2.45720248115	0
0.0835081352386	2.45717728198	0
0.0835089627975	2.45715208282	0
0.0835097903563	2.45712688365	0
0.0835106179152	2.45710168448	0
0.083511445474	2.45707648532	0
0.0835122730328	2.45705128615	0
0.0835131005917	2.45702608698	0
0.0835139281505	2.45700088782	0
0.0835147557094	2.45697568865	0
0.0835155832682	2.45695048948	0
0.0835164108271	2.45692529032	0
0.0835172383859	2.45690009115	0
0.0835180659447	2.45687489198	0
0.0835188935036	2.45684969282	0
0.0835197210624	2.45682449365	0
0.0835205486213	2.45679929448	0
0.0835213761801	2.45677409532	0
0.083522203739	2.45674889615	0
0.0835230312978	2.45672369698	0
0.0835238588566	2.45669849782	0
0.0835246864155	2.45667329865	0
0.0835255139743	2.45664809948	0
0.0835263415332	2.45662290032	0
0.083527169092	2.45659770115	0
0.0835279966509	2.45657250198	0
0.0835288242097	2.45654730281	0
0.0835296517685	2.45652210365	0
0.0835304793274	2.45649690448	0
0.0835313068862	2.45647170531	0
0.0835321344451	2.45644650615	0
0.0835329620039	2.45642130698	0
0.0835337895628	2.45639610781	0
0.0835346171216	2.45637090865	0
0.0835354446804	2.45634570948	0
0.0835362722393	2.45632051031	0
0.0835370997981	2.45629531115	0
0.083537927357	2.45627011198	0
0.0835387549158	2.45624491281	0
0.0835395824746	2.45621971365	0
0.0835404100335	2.45619451448	0
0.0835412375923	2.45616931531	0
0.0835420651512	2.45614411615	0
0.08354289271	2.45611891698	0
0.0835437202689	2.45609371781	0
0.0835445478277	2.45606851865	0
0.0835453753865	2.45604331948	0
0.0835462029454	2.45601812031	0
0.0835470305042	2.45599292115	0
0.0835478580631	2.45596772198	0
0.0835486856219	2.45594252281	0
0.0835495131808	2.45591732365	0
0.0835503407396	2.45589212448	0
0.0835511682984	2.45586692531	0
0.0835519958573	2.45584172615	0
0.0835528234161	2.45581652698	0
0.083553650975	2.45579132781	0
0.0835544785338	2.45576612865	0
0.0835553060927	2.45574092948	0
0.0835561336515	2.45571573031	0
0.0835569612103	2.45569053115	0
0.0835577887692	2.45566533198	0
0.083558616328	2.45564013281	0
0.0835594438869	2.45561493364	0
0.0835602714457	2.45558973448	0
0.0835610990046	2.45556453531	0
0.0835619265634	2.45553933614	0
0.0835627541222	2.45551413698	0
0.0835635816811	2.45548893781	0
0.0835644092399	2.45546373864	0
0.0835652367988	2.45543853948	0
0.0835660643576	2.45541334031	0
0.0835668919165	2.45538814114	0
0.0835677194753	2.45536294198	0
0.0835685470341	2.45533774281	0
0.083569374593	2.45531254364	0
0.0835702021518	2.45528734448	0
0.0835710297107	2.45526214531	0
0.0835718572695	2.45523694614	0
0.0835726848283	2.45521174698	0
0.0835735123872	2.45518654781	0
0.083574339946	2.45516134864	0
0.0835751675049	2.45513614948	0
0.0835759950637	2.45511095031	0
0.0835768226226	2.45508575114	0
0.0835776501814	2.45506055198	0
0.0835784777402	2.45503535281	0
0.0835793052991	2.45501015364	0
0.0835801328579	2.45498495448	0
0.0835809604168	2.45495975531	0
0.0835817879756	2.45493455614	0
0.0835826155345	2.45490935698	0
0.0835834430933	2.45488415781	0
0.0835842706521	2.45485895864	0
0.083585098211	2.45483375948	0
0.0835859257698	2.45480856031	0
0.0835867533287	2.45478336114	0
0.0835875808875	2.45475816198	0
0.0835884084464	2.45473296281	0
0.0835892360052	2.45470776364	0
0.083590063564	2.45468256447	0
0.0835908911229	2.45465736531	0
0.0835917186817	2.45463216614	0
0.0835925462406	2.45460696697	0
0.0835933737994	2.45458176781	0
0.0835942013583	2.45455656864	0
0.0835950289171	2.45453136947	0
0.0835958564759	2.45450617031	0
0.0835966840348	2.45448097114	0
0.0835975115936	2.45445577197	0
0.0835983391525	2.45443057281	0
0.0835991667113	2.45440537364	0
0.0835999942702	2.45438017447	0
0.083600821829	2.45435497531	0
0.0836016493878	2.45432977614	0
0.0836024769467	2.45430457697	0
0.0836033045055	2.45427937781	0
0.0836041320644	2.45425417864	0
0.0836049596232	2.45422897947	0
0.083605787182	2.45420378031	0
0.0836066147409	2.45417858114	0
0.0836074422997	2.45415338197	0
0.0836082698586	2.45412818281	0
0.0836090974174	2.45410298364	0
0.0836099249763	2.45407778447	0
0.0836107525351	2.45405258531	0
0.0836115800939	2.45402738614	0
0.0836124076528	2.45400218697	0
0.0836132352116	2.45397698781	0
0.0836140627705	2.45395178864	0
0.0836148903293	2.45392658947	0
0.0836157178882	2.45390139031	0
0.083616545447	2.45387619114	0
0.0836173730058	2.45385099197	0
0.0836182005647	2.45382579281	0
0.0836190281235	2.45380059364	0
0.0836198556824	2.45377539447	0
0.0836206832412	2.45375019531	0
0.0836215108001	2.45372499614	0
0.0836223383589	2.45369979697	0
0.0836231659177	2.4536745978	0
0.0836239934766	2.45364939864	0
0.0836248210354	2.45362419947	0
0.0836256485943	2.4535990003	0
0.0836264761531	2.45357380114	0
0.083627303712	2.45354860197	0
0.0836281312708	2.4535234028	0
0.0836289588296	2.45349820364	0
0.0836297863885	2.45347300447	0
0.0836306139473	2.4534478053	0
0.0836314415062	2.45342260614	0
0.083632269065	2.45339740697	0
0.0836330966239	2.4533722078	0
0.0836339241827	2.45334700864	0
0.0836347517415	2.45332180947	0
0.0836355793004	2.4532966103	0
0.0836364068592	2.45327141114	0
0.0836372344181	2.45324621197	0
0.0836380619769	2.4532210128	0
0.0836388895358	2.45319581364	0
0.0836397170946	2.45317061447	0
0.0836405446534	2.4531454153	0
0.0836413722123	2.45312021614	0
0.0836421997711	2.45309501697	0
0.08364302733	2.4530698178	0
0.0836438548888	2.45304461864	0
0.0836446824476	2.45301941947	0
0.0836455100065	2.4529942203	0
0.0836463375653	2.45296902114	0
0.0836471651242	2.45294382197	0
0.083647992683	2.4529186228	0
0.0836488202419	2.45289342364	0
0.0836496478007	2.45286822447	0
0.0836504753595	2.4528430253	0
0.0836513029184	2.45281782614	0
0.0836521304772	2.45279262697	0
0.0836529580361	2.4527674278	0
0.0836537855949	2.45274222863	0
0.0836546131538	2.45271702947	0
0.0836554407126	2.4526918303	0
0.0836562682714	2.45266663113	0
0.0836570958303	2.45264143197	0
0.0836579233891	2.4526162328	0
0.083658750948	2.45259103363	0
0.0836595785068	2.45256583447	0
0.0836604060657	2.4525406353	0
0.0836612336245	2.45251543613	0
0.0836620611833	2.45249023697	0
0.0836628887422	2.4524650378	0
0.083663716301	2.45243983863	0
0.0836645438599	2.45241463947	0
0.0836653714187	2.4523894403	0
0.0836661989776	2.45236424113	0
0.0836670265364	2.45233904197	0
0.0836678540952	2.4523138428	0
0.0836686816541	2.45228864363	0
0.0836695092129	2.45226344447	0
0.0836703367718	2.4522382453	0
0.0836711643306	2.45221304613	0
0.0836719918895	2.45218784697	0
0.0836728194483	2.4521626478	0
0.0836736470071	2.45213744863	0
0.083674474566	2.45211224947	0
0.0836753021248	2.4520870503	0
0.0836761296837	2.45206185113	0
0.0836769572425	2.45203665197	0
0.0836777848013	2.4520114528	0
0.0836786123602	2.45198625363	0
0.083679439919	2.45196105447	0
0.0836802674779	2.4519358553	0
0.0836810950367	2.45191065613	0
0.0836819225956	2.45188545697	0
0.0836827501544	2.4518602578	0
0.0836835777132	2.45183505863	0
0.0836844052721	2.45180985946	0
0.0836852328309	2.4517846603	0
0.0836860603898	2.45175946113	0
0.0836868879486	2.45173426196	0
0.0836877155075	2.4517090628	0
0.0836885430663	2.45168386363	0
0.0836893706251	2.45165866446	0
0.083690198184	2.4516334653	0
0.0836910257428	2.45160826613	0
0.0836918533017	2.45158306696	0
0.0836926808605	2.4515578678	0
0.0836935084194	2.45153266863	0
0.0836943359782	2.45150746946	0
0.083695163537	2.4514822703	0
0.0836959910959	2.45145707113	0
0.0836968186547	2.45143187196	0
0.0836976462136	2.4514066728	0
0.0836984737724	2.45138147363	0
0.0836993013313	2.45135627446	0
0.0837001288901	2.4513310753	0
0.0837009564489	2.45130587613	0
0.0837017840078	2.45128067696	0
0.0837026115666	2.4512554778	0
0.0837034391255	2.45123027863	0
0.0837042666843	2.45120507946	0
0.0837050942432	2.4511798803	0
0.083705921802	2.45115468113	0
0.0837067493608	2.45112948196	0
0.0837075769197	2.4511042828	0
0.0837084044785	2.45107908363	0
0.0837092320374	2.45105388446	0
0.0837100595962	2.4510286853	0
0.083710887155	2.45100348613	0
0.0837117147139	2.45097828696	0
0.0837125422727	2.4509530878	0
0.0837133698316	2.45092788863	0
0.0837141973904	2.45090268946	0
0.0837150249493	2.4508774903	0
0.0837158525081	2.45085229113	0
0.0837166800669	2.45082709196	0
0.0837175076258	2.45080189279	0
0.0837183351846	2.45077669363	0
0.0837191627435	2.45075149446	0
0.0837199903023	2.45072629529	0
0.0837208178612	2.45070109613	0
0.08372164542	2.45067589696	0
0.0837224729788	2.45065069779	0
0.0837233005377	2.45062549863	0
0.0837241280965	2.45060029946	0
0.0837249556554	2.45057510029	0
0.0837257832142	2.45054990113	0
0.0837266107731	2.45052470196	0
0.0837274383319	2.45049950279	0
0.0837282658907	2.45047430363	0
0.0837290934496	2.45044910446	0
0.0837299210084	2.45042390529	0
0.0837307485673	2.45039870613	0
0.0837315761261	2.45037350696	0
0.083732403685	2.45034830779	0
0.0837332312438	2.45032310863	0
0.0837340588026	2.45029790946	0
0.0837348863615	2.45027271029	0
0.0837357139203	2.45024751113	0
0.0837365414792	2.45022231196	0
0.083737369038	2.45019711279	0
0.0837381965969	2.45017191363	0
0.0837390241557	2.45014671446	0
0.0837398517145	2.45012151529	0
0.0837406792734	2.45009631613	0
0.0837415068322	2.45007111696	0
0.0837423343911	2.45004591779	0
0.0837431619499	2.45002071863	0
0.0837439895087	2.44999551946	0
0.0837448170676	2.44997032029	0
0.0837456446264	2.44994512113	0
0.0837464721853	2.44991992196	0
0.0837472997441	2.44989472279	0
0.083748127303	2.44986952362	0
0.0837489548618	2.44984432446	0
0.0837497824206	2.44981912529	0
0.0837506099795	2.44979392612	0
0.0837514375383	2.44976872696	0
0.0837522650972	2.44974352779	0
0.083753092656	2.44971832862	0
0.0837539202149	2.44969312946	0
0.0837547477737	2.44966793029	0
0.0837555753325	2.44964273112	0
0.0837564028914	2.44961753196	0
0.0837572304502	2.44959233279	0
0.0837580580091	2.44956713362	0
0.0837588855679	2.44954193446	0
0.0837597131268	2.44951673529	0
0.0837605406856	2.44949153612	0
0.0837613682444	2.44946633696	0
0.0837621958033	2.44944113779	0
0.0837630233621	2.44941593862	0
0.083763850921	2.44939073946	0
0.0837646784798	2.44936554029	0
0.0837655060387	2.44934034112	0
0.0837663335975	2.44931514196	0
0.0837671611563	2.44928994279	0
0.0837679887152	2.44926474362	0
0.083768816274	2.44923954446	0
0.0837696438329	2.44921434529	0
0.0837704713917	2.44918914612	0
0.0837712989506	2.44916394696	0
0.0837721265094	2.44913874779	0
0.0837729540682	2.44911354862	0
0.0837737816271	2.44908834946	0
0.0837746091859	2.44906315029	0
0.0837754367448	2.44903795112	0
0.0837762643036	2.44901275196	0
0.0837770918624	2.44898755279	0
0.0837779194213	2.44896235362	0
0.0837787469801	2.44893715445	0
0.083779574539	2.44891195529	0
0.0837804020978	2.44888675612	0
0.0837812296567	2.44886155695	0
0.0837820572155	2.44883635779	0
0.0837828847743	2.44881115862	0
0.0837837123332	2.44878595945	0
0.083784539892	2.44876076029	0
0.0837853674509	2.44873556112	0
0.0837861950097	2.44871036195	0
0.0837870225686	2.44868516279	0
0.0837878501274	2.44865996362	0
0.0837886776862	2.44863476445	0
0.0837895052451	2.44860956529	0
0.0837903328039	2.44858436612	0
0.0837911603628	2.44855916695	0
0.0837919879216	2.44853396779	0
0.0837928154805	2.44850876862	0
0.0837936430393	2.44848356945	0
0.0837944705981	2.44845837029	0
0.083795298157	2.44843317112	0
0.0837961257158	2.44840797195	0
0.0837969532747	2.44838277279	0
0.0837977808335	2.44835757362	0
0.0837986083924	2.44833237445	0
0.0837994359512	2.44830717529	0
0.08380026351	2.44828197612	0
0.0838010910689	2.44825677695	0
0.0838019186277	2.44823157779	0
0.0838027461866	2.44820637862	0
0.0838035737454	2.44818117945	0
0.0838044013043	2.44815598029	0
0.0838052288631	2.44813078112	0
0.0838060564219	2.44810558195	0
0.0838068839808	2.44808038279	0
0.0838077115396	2.44805518362	0
0.0838085390985	2.44802998445	0
0.0838093666573	2.44800478529	0
0.0838101942161	2.44797958612	0
0.083811021775	2.44795438695	0
0.0838118493338	2.44792918778	0
0.0838126768927	2.44790398862	0
0.0838135044515	2.44787878945	0
0.0838143320104	2.44785359028	0
0.0838151595692	2.44782839112	0
0.083815987128	2.44780319195	0
0.0838168146869	2.44777799278	0
0.0838176422457	2.44775279362	0
0.0838184698046	2.44772759445	0
0.0838192973634	2.44770239528	0
0.0838201249223	2.44767719612	0
0.0838209524811	2.44765199695	0
0.0838217800399	2.44762679778	0
0.0838226075988	2.44760159862	0
0.0838234351576	2.44757639945	0
0.0838242627165	2.44755120028	0
0.0838250902753	2.44752600112	0
0.0838259178342	2.44750080195	0
0.083826745393	2.44747560278	0
0.0838275729518	2.44745040362	0
0.0838284005107	2.44742520445	0
0.0838292280695	2.44740000528	0
0.0838300556284	2.44737480612	0
0.0838308831872	2.44734960695	0
0.0838317107461	2.44732440778	0
0.0838325383049	2.44729920862	0
0.0838333658637	2.44727400945	0
0.0838341934226	2.44724881028	0
0.0838350209814	2.44722361112	0
0.0838358485403	2.44719841195	0
0.0838366760991	2.44717321278	0
0.083837503658	2.44714801362	0
0.0838383312168	2.44712281445	0
0.0838391587756	2.44709761528	0
0.0838399863345	2.44707241612	0
0.0838408138933	2.44704721695	0
0.0838416414522	2.44702201778	0
0.083842469011	2.44699681861	0
0.0838432965698	2.44697161945	0
0.0838441241287	2.44694642028	0
0.0838449516875	2.44692122111	0
0.0838457792464	2.44689602195	0
0.0838466068052	2.44687082278	0
0.0838474343641	2.44684562361	0
0.0838482619229	2.44682042445	0
0.0838490894817	2.44679522528	0
0.0838499170406	2.44677002611	0
0.0838507445994	2.44674482695	0
0.0838515721583	2.44671962778	0
0.0838523997171	2.44669442861	0
0.083853227276	2.44666922945	0
0.0838540548348	2.44664403028	0
0.0838548823936	2.44661883111	0
0.0838557099525	2.44659363195	0
0.0838565375113	2.44656843278	0
0.0838573650702	2.44654323361	0
0.083858192629	2.44651803445	0
0.0838590201879	2.44649283528	0
0.0838598477467	2.44646763611	0
0.0838606753055	2.44644243695	0
0.0838615028644	2.44641723778	0
0.0838623304232	2.44639203861	0
0.0838631579821	2.44636683945	0
0.0838639855409	2.44634164028	0
0.0838648130998	2.44631644111	0
0.0838656406586	2.44629124195	0
0.0838664682174	2.44626604278	0
0.0838672957763	2.44624084361	0
0.0838681233351	2.44621564445	0
0.083868950894	2.44619044528	0
0.0838697784528	2.44616524611	0
0.0838706060117	2.44614004695	0
0.0838714335705	2.44611484778	0
0.0838722611293	2.44608964861	0
0.0838730886882	2.44606444944	0
0.083873916247	2.44603925028	0
0.0838747438059	2.44601405111	0
0.0838755713647	2.44598885194	0
0.0838763989235	2.44596365278	0
0.0838772264824	2.44593845361	0
0.0838780540412	2.44591325444	0
0.0838788816001	2.44588805528	0
0.0838797091589	2.44586285611	0
0.0838805367178	2.44583765694	0
0.0838813642766	2.44581245778	0
0.0838821918354	2.44578725861	0
0.0838830193943	2.44576205944	0
0.0838838469531	2.44573686028	0
0.083884674512	2.44571166111	0
0.0838855020708	2.44568646194	0
0.0838863296297	2.44566126278	0
0.0838871571885	2.44563606361	0
0.0838879847473	2.44561086444	0
0.0838888123062	2.44558566528	0
0.083889639865	2.44556046611	0
0.0838904674239	2.44553526694	0
0.0838912949827	2.44551006778	0
0.0838921225416	2.44548486861	0
0.0838929501004	2.44545966944	0
0.0838937776592	2.44543447028	0
0.0838946052181	2.44540927111	0
0.0838954327769	2.44538407194	0
0.0838962603358	2.44535887278	0
0.0838970878946	2.44533367361	0
0.0838979154535	2.44530847444	0
0.0838987430123	2.44528327528	0
0.0838995705711	2.44525807611	0
0.08390039813	2.44523287694	0
0.0839012256888	2.44520767778	0
0.0839020532477	2.44518247861	0
0.0839028808065	2.44515727944	0
0.0839037083654	2.44513208028	0
0.0839045359242	2.44510688111	0
0.083905363483	2.44508168194	0
0.0839061910419	2.44505648277	0
0.0839070186007	2.44503128361	0
0.0839078461596	2.44500608444	0
0.0839086737184	2.44498088527	0
0.0839095012773	2.44495568611	0
0.0839103288361	2.44493048694	0
0.0839111563949	2.44490528777	0
0.0839119839538	2.44488008861	0
0.0839128115126	2.44485488944	0
0.0839136390715	2.44482969027	0
0.0839144666303	2.44480449111	0
0.0839152941891	2.44477929194	0
0.083916121748	2.44475409277	0
0.0839169493068	2.44472889361	0
0.0839177768657	2.44470369444	0
0.0839186044245	2.44467849527	0
0.0839194319834	2.44465329611	0
0.0839202595422	2.44462809694	0
0.083921087101	2.44460289777	0
0.0839219146599	2.44457769861	0
0.0839227422187	2.44455249944	0
0.0839235697776	2.44452730027	0
0.0839243973364	2.44450210111	0
0.0839252248953	2.44447690194	0
0.0839260524541	2.44445170277	0
0.0839268800129	2.44442650361	0
0.0839277075718	2.44440130444	0
0.0839285351306	2.44437610527	0
0.0839293626895	2.44435090611	0
0.0839301902483	2.44432570694	0
0.0839310178072	2.44430050777	0
0.083931845366	2.44427530861	0
0.0839326729248	2.44425010944	0
0.0839335004837	2.44422491027	0
0.0839343280425	2.44419971111	0
0.0839351556014	2.44417451194	0
0.0839359831602	2.44414931277	0
0.0839368107191	2.4441241136	0
0.0839376382779	2.44409891444	0
0.0839384658367	2.44407371527	0
0.0839392933956	2.4440485161	0
0.0839401209544	2.44402331694	0
0.0839409485133	2.44399811777	0
0.0839417760721	2.4439729186	0
0.083942603631	2.44394771944	0
0.0839434311898	2.44392252027	0
0.0839442587486	2.4438973211	0
0.0839450863075	2.44387212194	0
0.0839459138663	2.44384692277	0
0.0839467414252	2.4438217236	0
0.083947568984	2.44379652444	0
0.0839483965428	2.44377132527	0
0.0839492241017	2.4437461261	0
0.0839500516605	2.44372092694	0
0.0839508792194	2.44369572777	0
0.0839517067782	2.4436705286	0
0.0839525343371	2.44364532944	0
0.0839533618959	2.44362013027	0
0.0839541894547	2.4435949311	0
0.0839550170136	2.44356973194	0
0.0839558445724	2.44354453277	0
0.0839566721313	2.4435193336	0
0.0839574996901	2.44349413444	0
0.083958327249	2.44346893527	0
0.0839591548078	2.4434437361	0
0.0839599823666	2.44341853694	0
0.0839608099255	2.44339333777	0
0.0839616374843	2.4433681386	0
0.0839624650432	2.44334293944	0
0.083963292602	2.44331774027	0
0.0839641201609	2.4432925411	0
0.0839649477197	2.44326734194	0
0.0839657752785	2.44324214277	0
0.0839666028374	2.4432169436	0
0.0839674303962	2.44319174443	0
0.0839682579551	2.44316654527	0
0.0839690855139	2.4431413461	0
0.0839699130728	2.44311614693	0
0.0839707406316	2.44309094777	0
0.0839715681904	2.4430657486	0
0.0839723957493	2.44304054943	0
0.0839732233081	2.44301535027	0
0.083974050867	2.4429901511	0
0.0839748784258	2.44296495193	0
0.0839757059847	2.44293975277	0
0.0839765335435	2.4429145536	0
0.0839773611023	2.44288935443	0
0.0839781886612	2.44286415527	0
0.08397901622	2.4428389561	0
0.0839798437789	2.44281375693	0
0.0839806713377	2.44278855777	0
0.0839814988965	2.4427633586	0
0.0839823264554	2.44273815943	0
0.0839831540142	2.44271296027	0
0.0839839815731	2.4426877611	0
0.0839848091319	2.44266256193	0
0.0839856366908	2.44263736277	0
0.0839864642496	2.4426121636	0
0.0839872918084	2.44258696443	0
0.0839881193673	2.44256176527	0
0.0839889469261	2.4425365661	0
0.083989774485	2.44251136693	0
0.0839906020438	2.44248616777	0
0.0839914296027	2.4424609686	0
0.0839922571615	2.44243576943	0
0.0839930847203	2.44241057027	0
0.0839939122792	2.4423853711	0
0.083994739838	2.44236017193	0
0.0839955673969	2.44233497277	0
0.0839963949557	2.4423097736	0
0.0839972225146	2.44228457443	0
0.0839980500734	2.44225937527	0
0.0839988776322	2.4422341761	0
0.0839997051911	2.44220897693	0
0.0840005327499	2.44218377776	0
0.0840013603088	2.4421585786	0
0.0840021878676	2.44213337943	0
0.0840030154265	2.44210818026	0
0.0840038429853	2.4420829811	0
0.0840046705441	2.44205778193	0
0.084005498103	2.44203258276	0
0.0840063256618	2.4420073836	0
0.0840071532207	2.44198218443	0
0.0840079807795	2.44195698526	0
0.0840088083384	2.4419317861	0
0.0840096358972	2.44190658693	0
0.084010463456	2.44188138776	0
0.0840112910149	2.4418561886	0
0.0840121185737	2.44183098943	0
0.0840129461326	2.44180579026	0
0.0840137736914	2.4417805911	0
0.0840146012502	2.44175539193	0
0.0840154288091	2.44173019276	0
0.0840162563679	2.4417049936	0
0.0840170839268	2.44167979443	0
0.0840179114856	2.44165459526	0
0.0840187390445	2.4416293961	0
0.0840195666033	2.44160419693	0
0.0840203941621	2.44157899776	0
0.084021221721	2.4415537986	0
0.0840220492798	2.44152859943	0
0.0840228768387	2.44150340026	0
0.0840237043975	2.4414782011	0
0.0840245319564	2.44145300193	0
0.0840253595152	2.44142780276	0
0.084026187074	2.4414026036	0
0.0840270146329	2.44137740443	0
0.0840278421917	2.44135220526	0
0.0840286697506	2.4413270061	0
0.0840294973094	2.44130180693	0
0.0840303248683	2.44127660776	0
0.0840311524271	2.44125140859	0
0.0840319799859	2.44122620943	0
0.0840328075448	2.44120101026	0
0.0840336351036	2.44117581109	0
0.0840344626625	2.44115061193	0
0.0840352902213	2.44112541276	0
0.0840361177802	2.44110021359	0
0.084036945339	2.44107501443	0
0.0840377728978	2.44104981526	0
0.0840386004567	2.44102461609	0
0.0840394280155	2.44099941693	0
0.0840402555744	2.44097421776	0
0.0840410831332	2.44094901859	0
0.0840419106921	2.44092381943	0
0.0840427382509	2.44089862026	0
0.0840435658097	2.44087342109	0
0.0840443933686	2.44084822193	0
0.0840452209274	2.44082302276	0
0.0840460484863	2.44079782359	0
0.0840468760451	2.44077262443	0
0.0840477036039	2.44074742526	0
0.0840485311628	2.44072222609	0
0.0840493587216	2.44069702693	0
0.0840501862805	2.44067182776	0
0.0840510138393	2.44064662859	0
0.0840518413982	2.44062142943	0
0.084052668957	2.44059623026	0
0.0840534965158	2.44057103109	0
0.0840543240747	2.44054583193	0
0.0840551516335	2.44052063276	0
0.0840559791924	2.44049543359	0
0.0840568067512	2.44047023443	0
0.0840576343101	2.44044503526	0
0.0840584618689	2.44041983609	0
0.0840592894277	2.44039463693	0
0.0840601169866	2.44036943776	0
0.0840609445454	2.44034423859	0
0.0840617721043	2.44031903942	0
0.0840625996631	2.44029384026	0
0.084063427222	2.44026864109	0
0.0840642547808	2.44024344192	0
0.0840650823396	2.44021824276	0
0.0840659098985	2.44019304359	0
0.0840667374573	2.44016784442	0
0.0840675650162	2.44014264526	0
0.084068392575	2.44011744609	0
0.0840692201339	2.44009224692	0
0.0840700476927	2.44006704776	0
0.0840708752515	2.44004184859	0
0.0840717028104	2.44001664942	0
0.0840725303692	2.43999145026	0
0.0840733579281	2.43996625109	0
0.0840741854869	2.43994105192	0
0.0840750130458	2.43991585276	0
0.0840758406046	2.43989065359	0
0.0840766681634	2.43986545442	0
0.0840774957223	2.43984025526	0
0.0840783232811	2.43981505609	0
0.08407915084	2.43978985692	0
0.0840799783988	2.43976465776	0
0.0840808059576	2.43973945859	0
0.0840816335165	2.43971425942	0
0.0840824610753	2.43968906026	0
0.0840832886342	2.43966386109	0
0.084084116193	2.43963866192	0
0.0840849437519	2.43961346276	0
0.0840857713107	2.43958826359	0
0.0840865988695	2.43956306442	0
0.0840874264284	2.43953786526	0
0.0840882539872	2.43951266609	0
0.0840890815461	2.43948746692	0
0.0840899091049	2.43946226776	0
0.0840907366638	2.43943706859	0
0.0840915642226	2.43941186942	0
0.0840923917814	2.43938667026	0
0.0840932193403	2.43936147109	0
0.0840940468991	2.43933627192	0
0.084094874458	2.43931107275	0
0.0840957020168	2.43928587359	0
0.0840965295757	2.43926067442	0
0.0840973571345	2.43923547525	0
0.0840981846933	2.43921027609	0
0.0840990122522	2.43918507692	0
0.084099839811	2.43915987775	0
0.0841006673699	2.43913467859	0
0.0841014949287	2.43910947942	0
0.0841023224876	2.43908428025	0
0.0841031500464	2.43905908109	0
0.0841039776052	2.43903388192	0
0.0841048051641	2.43900868275	0
0.0841056327229	2.43898348359	0
0.0841064602818	2.43895828442	0
0.0841072878406	2.43893308525	0
0.0841081153995	2.43890788609	0
0.0841089429583	2.43888268692	0
0.0841097705171	2.43885748775	0
0.084110598076	2.43883228859	0
0.0841114256348	2.43880708942	0
0.0841122531937	2.43878189025	0
0.0841130807525	2.43875669109	0
0.0841139083113	2.43873149192	0
0.0841147358702	2.43870629275	0
0.084115563429	2.43868109359	0
0.0841163909879	2.43865589442	0
0.0841172185467	2.43863069525	0
0.0841180461056	2.43860549609	0
0.0841188736644	2.43858029692	0
0.0841197012232	2.43855509775	0
0.0841205287821	2.43852989859	0
0.0841213563409	2.43850469942	0
0.0841221838998	2.43847950025	0
0.0841230114586	2.43845430109	0
0.0841238390175	2.43842910192	0
0.0841246665763	2.43840390275	0
0.0841254941351	2.43837870358	0
0.084126321694	2.43835350442	0
0.0841271492528	2.43832830525	0
0.0841279768117	2.43830310608	0
0.0841288043705	2.43827790692	0
0.0841296319294	2.43825270775	0
0.0841304594882	2.43822750858	0
0.084131287047	2.43820230942	0
0.0841321146059	2.43817711025	0
0.0841329421647	2.43815191108	0
0.0841337697236	2.43812671192	0
0.0841345972824	2.43810151275	0
0.0841354248413	2.43807631358	0
0.0841362524001	2.43805111442	0
0.0841370799589	2.43802591525	0
0.0841379075178	2.43800071608	0
0.0841387350766	2.43797551692	0
0.0841395626355	2.43795031775	0
0.0841403901943	2.43792511858	0
0.0841412177532	2.43789991942	0
0.084142045312	2.43787472025	0
0.0841428728708	2.43784952108	0
0.0841437004297	2.43782432192	0
0.0841445279885	2.43779912275	0
0.0841453555474	2.43777392358	0
0.0841461831062	2.43774872442	0
0.0841470106651	2.43772352525	0
0.0841478382239	2.43769832608	0
0.0841486657827	2.43767312692	0
0.0841494933416	2.43764792775	0
0.0841503209004	2.43762272858	0
0.0841511484593	2.43759752942	0
0.0841519760181	2.43757233025	0
0.0841528035769	2.43754713108	0
0.0841536311358	2.43752193192	0
0.0841544586946	2.43749673275	0
0.0841552862535	2.43747153358	0
0.0841561138123	2.43744633441	0
0.0841569413712	2.43742113525	0
0.08415776893	2.43739593608	0
0.0841585964888	2.43737073691	0
0.0841594240477	2.43734553775	0
0.0841602516065	2.43732033858	0
0.0841610791654	2.43729513941	0
0.0841619067242	2.43726994025	0
0.0841627342831	2.43724474108	0
0.0841635618419	2.43721954191	0
0.0841643894007	2.43719434275	0
0.0841652169596	2.43716914358	0
0.0841660445184	2.43714394441	0
0.0841668720773	2.43711874525	0
0.0841676996361	2.43709354608	0
0.084168527195	2.43706834691	0
0.0841693547538	2.43704314775	0
0.0841701823126	2.43701794858	0
0.0841710098715	2.43699274941	0
0.0841718374303	2.43696755025	0
0.0841726649892	2.43694235108	0
0.084173492548	2.43691715191	0
0.0841743201069	2.43689195275	0
0.0841751476657	2.43686675358	0
0.0841759752245	2.43684155441	0
0.0841768027834	2.43681635525	0
0.0841776303422	2.43679115608	0
0.0841784579011	2.43676595691	0
0.0841792854599	2.43674075775	0
0.0841801130188	2.43671555858	0
0.0841809405776	2.43669035941	0
0.0841817681364	2.43666516025	0
0.0841825956953	2.43663996108	0
0.0841834232541	2.43661476191	0
0.084184250813	2.43658956275	0
0.0841850783718	2.43656436358	0
0.0841859059306	2.43653916441	0
0.0841867334895	2.43651396525	0
0.0841875610483	2.43648876608	0
0.0841883886072	2.43646356691	0
0.084189216166	2.43643836774	0
0.0841900437249	2.43641316858	0
0.0841908712837	2.43638796941	0
0.0841916988425	2.43636277024	0
0.0841925264014	2.43633757108	0
0.0841933539602	2.43631237191	0
0.0841941815191	2.43628717274	0
0.0841950090779	2.43626197358	0
0.0841958366368	2.43623677441	0
0.0841966641956	2.43621157524	0
0.0841974917544	2.43618637608	0
0.0841983193133	2.43616117691	0
0.0841991468721	2.43613597774	0
0.084199974431	2.43611077858	0
0.0842008019898	2.43608557941	0
0.0842016295487	2.43606038024	0
0.0842024571075	2.43603518108	0
0.0842032846663	2.43600998191	0
0.0842041122252	2.43598478274	0
0.084204939784	2.43595958358	0
0.0842057673429	2.43593438441	0
0.0842065949017	2.43590918524	0
0.0842074224606	2.43588398608	0
0.0842082500194	2.43585878691	0
0.0842090775782	2.43583358774	0
0.0842099051371	2.43580838858	0
0.0842107326959	2.43578318941	0
0.0842115602548	2.43575799024	0
0.0842123878136	2.43573279108	0
0.0842132153725	2.43570759191	0
0.0842140429313	2.43568239274	0
0.0842148704901	2.43565719358	0
0.084215698049	2.43563199441	0
0.0842165256078	2.43560679524	0
0.0842173531667	2.43558159608	0
0.0842181807255	2.43555639691	0
0.0842190082843	2.43553119774	0
0.0842198358432	2.43550599857	0
0.084220663402	2.43548079941	0
0.0842214909609	2.43545560024	0
0.0842223185197	2.43543040107	0
0.0842231460786	2.43540520191	0
0.0842239736374	2.43538000274	0
0.0842248011962	2.43535480357	0
0.0842256287551	2.43532960441	0
0.0842264563139	2.43530440524	0
0.0842272838728	2.43527920607	0
0.0842281114316	2.43525400691	0
0.0842289389905	2.43522880774	0
0.0842297665493	2.43520360857	0
0.0842305941081	2.43517840941	0
0.084231421667	2.43515321024	0
0.0842322492258	2.43512801107	0
0.0842330767847	2.43510281191	0
0.0842339043435	2.43507761274	0
0.0842347319024	2.43505241357	0
0.0842355594612	2.43502721441	0
0.08423638702	2.43500201524	0
0.0842372145789	2.43497681607	0
0.0842380421377	2.43495161691	0
0.0842388696966	2.43492641774	0
0.0842396972554	2.43490121857	0
0.0842405248143	2.43487601941	0
0.0842413523731	2.43485082024	0
0.0842421799319	2.43482562107	0
0.0842430074908	2.43480042191	0
0.0842438350496	2.43477522274	0
0.0842446626085	2.43475002357	0
0.0842454901673	2.43472482441	0
0.0842463177262	2.43469962524	0
0.084247145285	2.43467442607	0
0.0842479728438	2.43464922691	0
0.0842488004027	2.43462402774	0
0.0842496279615	2.43459882857	0
0.0842504555204	2.4345736294	0
0.0842512830792	2.43454843024	0
0.084252110638	2.43452323107	0
0.0842529381969	2.4344980319	0
0.0842537657557	2.43447283274	0
0.0842545933146	2.43444763357	0
0.0842554208734	2.4344224344	0
0.0842562484323	2.43439723524	0
0.0842570759911	2.43437203607	0
0.0842579035499	2.4343468369	0
0.0842587311088	2.43432163774	0
0.0842595586676	2.43429643857	0
0.0842603862265	2.4342712394	0
0.0842612137853	2.43424604024	0
0.0842620413442	2.43422084107	0
0.084262868903	2.4341956419	0
0.0842636964618	2.43417044274	0
0.0842645240207	2.43414524357	0
0.0842653515795	2.4341200444	0
0.0842661791384	2.43409484524	0
0.0842670066972	2.43406964607	0
0.0842678342561	2.4340444469	0
0.0842686618149	2.43401924774	0
0.0842694893737	2.43399404857	0
0.0842703169326	2.4339688494	0
0.0842711444914	2.43394365024	0
0.0842719720503	2.43391845107	0
0.0842727996091	2.4338932519	0
0.084273627168	2.43386805274	0
0.0842744547268	2.43384285357	0
0.0842752822856	2.4338176544	0
0.0842761098445	2.43379245524	0
0.0842769374033	2.43376725607	0
0.0842777649622	2.4337420569	0
0.084278592521	2.43371685774	0
0.0842794200799	2.43369165857	0
0.0842802476387	2.4336664594	0
0.0842810751975	2.43364126024	0
0.0842819027564	2.43361606107	0
0.0842827303152	2.4335908619	0
0.0842835578741	2.43356566273	0
0.0842843854329	2.43354046357	0
0.0842852129917	2.4335152644	0
0.0842860405506	2.43349006523	0
0.0842868681094	2.43346486607	0
0.0842876956683	2.4334396669	0
0.0842885232271	2.43341446773	0
0.084289350786	2.43338926857	0
0.0842901783448	2.4333640694	0
0.0842910059036	2.43333887023	0
0.0842918334625	2.43331367107	0
0.0842926610213	2.4332884719	0
0.0842934885802	2.43326327273	0
0.084294316139	2.43323807357	0
0.0842951436979	2.4332128744	0
0.0842959712567	2.43318767523	0
0.0842967988155	2.43316247607	0
0.0842976263744	2.4331372769	0
0.0842984539332	2.43311207773	0
0.0842992814921	2.43308687857	0
0.0843001090509	2.4330616794	0
0.0843009366098	2.43303648023	0
0.0843017641686	2.43301128107	0
0.0843025917274	2.4329860819	0
0.0843034192863	2.43296088273	0
0.0843042468451	2.43293568357	0
0.084305074404	2.4329104844	0
0.0843059019628	2.43288528523	0
0.0843067295217	2.43286008607	0
0.0843075570805	2.4328348869	0
0.0843083846393	2.43280968773	0
0.0843092121982	2.43278448857	0
0.084310039757	2.4327592894	0
0.0843108673159	2.43273409023	0
0.0843116948747	2.43270889107	0
0.0843125224336	2.4326836919	0
0.0843133499924	2.43265849273	0
0.0843141775512	2.43263329356	0
0.0843150051101	2.4326080944	0
0.0843158326689	2.43258289523	0
0.0843166602278	2.43255769606	0
0.0843174877866	2.4325324969	0
0.0843183153454	2.43250729773	0
0.0843191429043	2.43248209856	0
0.0843199704631	2.4324568994	0
0.084320798022	2.43243170023	0
0.0843216255808	2.43240650106	0
0.0843224531397	2.4323813019	0
0.0843232806985	2.43235610273	0
0.0843241082573	2.43233090356	0
0.0843249358162	2.4323057044	0
0.084325763375	2.43228050523	0
0.0843265909339	2.43225530606	0
0.0843274184927	2.4322301069	0
0.0843282460516	2.43220490773	0
0.0843290736104	2.43217970856	0
0.0843299011692	2.4321545094	0
0.0843307287281	2.43212931023	0
0.0843315562869	2.43210411106	0
0.0843323838458	2.4320789119	0
0.0843332114046	2.43205371273	0
0.0843340389635	2.43202851356	0
0.0843348665223	2.4320033144	0
0.0843356940811	2.43197811523	0
0.08433652164	2.43195291606	0
0.0843373491988	2.4319277169	0
0.0843381767577	2.43190251773	0
0.0843390043165	2.43187731856	0
0.0843398318754	2.4318521194	0
0.0843406594342	2.43182692023	0
0.084341486993	2.43180172106	0
0.0843423145519	2.4317765219	0
0.0843431421107	2.43175132273	0
0.0843439696696	2.43172612356	0
0.0843447972284	2.43170092439	0
0.0843456247873	2.43167572523	0
0.0843464523461	2.43165052606	0
0.0843472799049	2.43162532689	0
0.0843481074638	2.43160012773	0
0.0843489350226	2.43157492856	0
0.0843497625815	2.43154972939	0
0.0843505901403	2.43152453023	0
0.0843514176991	2.43149933106	0
0.084352245258	2.43147413189	0
0.0843530728168	2.43144893273	0
0.0843539003757	2.43142373356	0
0.0843547279345	2.43139853439	0
0.0843555554934	2.43137333523	0
0.0843563830522	2.43134813606	0
0.084357210611	2.43132293689	0
0.0843580381699	2.43129773773	0
0.0843588657287	2.43127253856	0
0.0843596932876	2.43124733939	0
0.0843605208464	2.43122214023	0
0.0843613484053	2.43119694106	0
0.0843621759641	2.43117174189	0
0.0843630035229	2.43114654273	0
0.0843638310818	2.43112134356	0
0.0843646586406	2.43109614439	0
0.0843654861995	2.43107094523	0
0.0843663137583	2.43104574606	0
0.0843671413172	2.43102054689	0
0.084367968876	2.43099534773	0
0.0843687964348	2.43097014856	0
