t	i	extra
0.0626977783881	2.50396782337	0.125395556776
0.0626984056795	2.503992836	5
0.0626990329709	2.50401784862	0
0.0626996602624	2.50404286125	0
0.0627002875538	2.50406787388	0
0.0627009148452	2.5040928865	0
0.0627015421366	2.50411789913	0
0.0627021694281	2.50414291175	0
0.0627027967195	2.50416792437	0
0.0627034240109	2.50419293699	0
0.0627040513024	2.50421794962	0
0.0627046785938	2.50424296224	0
0.0627053058852	2.50426797486	0
0.0627059331766	2.50429298747	0
0.0627065604681	2.50431800009	0
0.0627071877595	2.50434301271	0
0.0627078150509	2.50436802533	0
0.0627084423424	2.50439303794	0
0.0627090696338	2.50441805056	0
0.0627096969252	2.50444306317	0
0.0627103242167	2.50446807578	0
0.0627109515081	2.5044930884	0
0.0627115787995	2.50451810101	0
0.0627122060909	2.50454311362	0
0.0627128333824	2.50456812623	0
0.0627134606738	2.50459313884	0
0.0627140879652	2.50461815145	0
0.0627147152567	2.50464316405	0
0.0627153425481	2.50466817666	0
0.0627159698395	2.50469318927	0
0.062716597131	2.50471820187	0
0.0627172244224	2.50474321448	0
0.0627178517138	2.50476822708	0
0.0627184790052	2.50479323968	0
0.0627191062967	2.50481825228	0
0.0627197335881	2.50484326489	0
0.0627203608795	2.50486827749	0
0.062720988171	2.50489329009	0
0.0627216154624	2.50491830268	0
0.0627222427538	2.50494331528	0
0.0627228700452	2.50496832788	0
0.0627234973367	2.50499334048	0
0.0627241246281	2.50501835307	0
0.0627247519195	2.50504336567	0
0.062725379211	2.50506837826	0
0.0627260065024	2.50509339085	0
0.0627266337938	2.50511840345	0
0.0627272610853	2.50514341604	0
0.0627278883767	2.50516842863	0
0.0627285156681	2.50519344122	0
0.0627291429595	2.50521845381	0
0.062729770251	2.5052434664	0
0.0627303975424	2.50526847898	0
0.0627310248338	2.50529349157	0
0.0627316521253	2.50531850416	0
0.0627322794167	2.50534351674	0
0.0627329067081	2.50536852933	0
0.0627335339996	2.50539354191	0
0.062734161291	2.50541855449	0
0.0627347885824	2.50544356708	0
0.0627354158738	2.50546857966	0
0.0627360431653	2.50549359224	0
0.0627366704567	2.50551860482	0
0.0627372977481	2.5055436174	0
0.0627379250396	2.50556862998	0
0.062738552331	2.50559364255	0
0.0627391796224	2.50561865513	0
0.0627398069138	2.50564366771	0
0.0627404342053	2.50566868028	0
0.0627410614967	2.50569369285	0
0.0627416887881	2.50571870543	0
0.0627423160796	2.505743718	0
0.062742943371	2.50576873057	0
0.0627435706624	2.50579374314	0
0.0627441979539	2.50581875571	0
0.0627448252453	2.50584376828	0
0.0627454525367	2.50586878085	0
0.0627460798281	2.50589379342	0
0.0627467071196	2.50591880599	0
0.062747334411	2.50594381855	0
0.0627479617024	2.50596883112	0
0.0627485889939	2.50599384368	0
0.0627492162853	2.50601885625	0
0.0627498435767	2.50604386881	0
0.0627504708681	2.50606888137	0
0.0627510981596	2.50609389393	0
0.062751725451	2.50611890649	0
0.0627523527424	2.50614391905	0
0.0627529800339	2.50616893161	0
0.0627536073253	2.50619394417	0
0.0627542346167	2.50621895673	0
0.0627548619082	2.50624396929	0
0.0627554891996	2.50626898184	0
0.062756116491	2.5062939944	0
0.0627567437824	2.50631900695	0
0.0627573710739	2.50634401951	0
0.0627579983653	2.50636903206	0
0.0627586256567	2.50639404461	0
0.0627592529482	2.50641905716	0
0.0627598802396	2.50644406971	0
0.062760507531	2.50646908226	0
0.0627611348225	2.50649409481	0
0.0627617621139	2.50651910736	0
0.0627623894053	2.50654411991	0
0.0627630166967	2.50656913245	0
0.0627636439882	2.506594145	0
0.0627642712796	2.50661915754	0
0.062764898571	2.50664417009	0
0.0627655258625	2.50666918263	0
0.0627661531539	2.50669419517	0
0.0627667804453	2.50671920771	0
0.0627674077367	2.50674422025	0
0.0627680350282	2.5067692328	0
0.0627686623196	2.50679424533	0
0.062769289611	2.50681925787	0
0.0627699169025	2.50684427041	0
0.0627705441939	2.50686928295	0
0.0627711714853	2.50689429548	0
0.0627717987768	2.50691930802	0
0.0627724260682	2.50694432055	0
0.0627730533596	2.50696933309	0
0.062773680651	2.50699434562	0
0.0627743079425	2.50701935815	0
0.0627749352339	2.50704437068	0
0.0627755625253	2.50706938321	0
0.0627761898168	2.50709439574	0
0.0627768171082	2.50711940827	0
0.0627774443996	2.5071444208	0
0.0627780716911	2.50716943333	0
0.0627786989825	2.50719444585	0
0.0627793262739	2.50721945838	0
0.0627799535653	2.50724447091	0
0.0627805808568	2.50726948343	0
0.0627812081482	2.50729449595	0
0.0627818354396	2.50731950848	0
0.0627824627311	2.507344521	0
0.0627830900225	2.50736953352	0
0.0627837173139	2.50739454604	0
0.0627843446053	2.50741955856	0
0.0627849718968	2.50744457108	0
0.0627855991882	2.50746958359	0
0.0627862264796	2.50749459611	0
0.0627868537711	2.50751960863	0
0.0627874810625	2.50754462114	0
0.0627881083539	2.50756963366	0
0.0627887356454	2.50759464617	0
0.0627893629368	2.50761965868	0
0.0627899902282	2.5076446712	0
0.0627906175196	2.50766968371	0
0.0627912448111	2.50769469622	0
0.0627918721025	2.50771970873	0
0.0627924993939	2.50774472124	0
0.0627931266854	2.50776973375	0
0.0627937539768	2.50779474625	0
0.0627943812682	2.50781975876	0
0.0627950085597	2.50784477127	0
0.0627956358511	2.50786978377	0
0.0627962631425	2.50789479628	0
0.0627968904339	2.50791980878	0
0.0627975177254	2.50794482128	0
0.0627981450168	2.50796983378	0
0.0627987723082	2.50799484629	0
0.0627993995997	2.50801985879	0
0.0628000268911	2.50804487129	0
0.0628006541825	2.50806988378	0
0.0628012814739	2.50809489628	0
0.0628019087654	2.50811990878	0
0.0628025360568	2.50814492128	0
0.0628031633482	2.50816993377	0
0.0628037906397	2.50819494627	0
0.0628044179311	2.50821995876	0
0.0628050452225	2.50824497125	0
0.062805672514	2.50826998375	0
0.0628062998054	2.50829499624	0
0.0628069270968	2.50832000873	0
0.0628075543882	2.50834502122	0
0.0628081816797	2.50837003371	0
0.0628088089711	2.5083950462	0
0.0628094362625	2.50842005868	0
0.062810063554	2.50844507117	0
0.0628106908454	2.50847008366	0
0.0628113181368	2.50849509614	0
0.0628119454282	2.50852010863	0
0.0628125727197	2.50854512111	0
0.0628132000111	2.50857013359	0
0.0628138273025	2.50859514607	0
0.062814454594	2.50862015856	0
0.0628150818854	2.50864517104	0
0.0628157091768	2.50867018352	0
0.0628163364683	2.508695196	0
0.0628169637597	2.50872020847	0
0.0628175910511	2.50874522095	0
0.0628182183425	2.50877023343	0
0.062818845634	2.5087952459	0
0.0628194729254	2.50882025838	0
0.0628201002168	2.50884527085	0
0.0628207275083	2.50887028333	0
0.0628213547997	2.5088952958	0
0.0628219820911	2.50892030827	0
0.0628226093826	2.50894532074	0
0.062823236674	2.50897033321	0
0.0628238639654	2.50899534568	0
0.0628244912568	2.50902035815	0
0.0628251185483	2.50904537062	0
0.0628257458397	2.50907038308	0
0.0628263731311	2.50909539555	0
0.0628270004226	2.50912040801	0
0.062827627714	2.50914542048	0
0.0628282550054	2.50917043294	0
0.0628288822968	2.50919544541	0
0.0628295095883	2.50922045787	0
0.0628301368797	2.50924547033	0
0.0628307641711	2.50927048279	0
0.0628313914626	2.50929549525	0
0.062832018754	2.50932050771	0
0.0628326460454	2.50934552017	0
0.0628332733369	2.50937053263	0
0.0628339006283	2.50939554508	0
0.0628345279197	2.50942055754	0
0.0628351552111	2.50944556999	0
0.0628357825026	2.50947058245	0
0.062836409794	2.5094955949	0
0.0628370370854	2.50952060735	0
0.0628376643769	2.50954561981	0
0.0628382916683	2.50957063226	0
0.0628389189597	2.50959564471	0
0.0628395462512	2.50962065716	0
0.0628401735426	2.5096456696	0
0.062840800834	2.50967068205	0
0.0628414281254	2.5096956945	0
0.0628420554169	2.50972070695	0
0.0628426827083	2.50974571939	0
0.0628433099997	2.50977073184	0
0.0628439372912	2.50979574428	0
0.0628445645826	2.50982075672	0
0.062845191874	2.50984576917	0
0.0628458191654	2.50987078161	0
0.0628464464569	2.50989579405	0
0.0628470737483	2.50992080649	0
0.0628477010397	2.50994581893	0
0.0628483283312	2.50997083137	0
0.0628489556226	2.5099958438	0
0.062849582914	2.51002085624	0
0.0628502102055	2.51004586868	0
0.0628508374969	2.51007088111	0
0.0628514647883	2.51009589355	0
0.0628520920797	2.51012090598	0
0.0628527193712	2.51014591841	0
0.0628533466626	2.51017093084	0
0.062853973954	2.51019594328	0
0.0628546012455	2.51022095571	0
0.0628552285369	2.51024596814	0
0.0628558558283	2.51027098056	0
0.0628564831198	2.51029599299	0
0.0628571104112	2.51032100542	0
0.0628577377026	2.51034601785	0
0.062858364994	2.51037103027	0
0.0628589922855	2.5103960427	0
0.0628596195769	2.51042105512	0
0.0628602468683	2.51044606754	0
0.0628608741598	2.51047107997	0
0.0628615014512	2.51049609239	0
0.0628621287426	2.51052110481	0
0.062862756034	2.51054611723	0
0.0628633833255	2.51057112965	0
0.0628640106169	2.51059614207	0
0.0628646379083	2.51062115449	0
0.0628652651998	2.5106461669	0
0.0628658924912	2.51067117932	0
0.0628665197826	2.51069619173	0
0.0628671470741	2.51072120415	0
0.0628677743655	2.51074621656	0
0.0628684016569	2.51077122898	0
0.0628690289483	2.51079624139	0
0.0628696562398	2.5108212538	0
0.0628702835312	2.51084626621	0
0.0628709108226	2.51087127862	0
0.0628715381141	2.51089629103	0
0.0628721654055	2.51092130344	0
0.0628727926969	2.51094631584	0
0.0628734199884	2.51097132825	0
0.0628740472798	2.51099634066	0
0.0628746745712	2.51102135306	0
0.0628753018626	2.51104636547	0
0.0628759291541	2.51107137787	0
0.0628765564455	2.51109639027	0
0.0628771837369	2.51112140267	0
0.0628778110284	2.51114641507	0
0.0628784383198	2.51117142747	0
0.0628790656112	2.51119643987	0
0.0628796929026	2.51122145227	0
0.0628803201941	2.51124646467	0
0.0628809474855	2.51127147707	0
0.0628815747769	2.51129648946	0
0.0628822020684	2.51132150186	0
0.0628828293598	2.51134651425	0
0.0628834566512	2.51137152665	0
0.0628840839427	2.51139653904	0
0.0628847112341	2.51142155143	0
0.0628853385255	2.51144656383	0
0.0628859658169	2.51147157622	0
0.0628865931084	2.51149658861	0
0.0628872203998	2.51152160099	0
0.0628878476912	2.51154661338	0
0.0628884749827	2.51157162577	0
0.0628891022741	2.51159663816	0
0.0628897295655	2.51162165054	0
0.0628903568569	2.51164666293	0
0.0628909841484	2.51167167531	0
0.0628916114398	2.5116966877	0
0.0628922387312	2.51172170008	0
0.0628928660227	2.51174671246	0
0.0628934933141	2.51177172484	0
0.0628941206055	2.51179673722	0
0.062894747897	2.5118217496	0
0.0628953751884	2.51184676198	0
0.0628960024798	2.51187177436	0
0.0628966297712	2.51189678674	0
0.0628972570627	2.51192179911	0
0.0628978843541	2.51194681149	0
0.0628985116455	2.51197182386	0
0.062899138937	2.51199683624	0
0.0628997662284	2.51202184861	0
0.0629003935198	2.51204686098	0
0.0629010208113	2.51207187335	0
0.0629016481027	2.51209688573	0
0.0629022753941	2.5121218981	0
0.0629029026855	2.51214691047	0
0.062903529977	2.51217192283	0
0.0629041572684	2.5121969352	0
0.0629047845598	2.51222194757	0
0.0629054118513	2.51224695993	0
0.0629060391427	2.5122719723	0
0.0629066664341	2.51229698466	0
0.0629072937255	2.51232199703	0
0.062907921017	2.51234700939	0
0.0629085483084	2.51237202175	0
0.0629091755998	2.51239703411	0
0.0629098028913	2.51242204647	0
0.0629104301827	2.51244705883	0
0.0629110574741	2.51247207119	0
0.0629116847656	2.51249708355	0
0.062912312057	2.51252209591	0
0.0629129393484	2.51254710827	0
0.0629135666398	2.51257212062	0
0.0629141939313	2.51259713298	0
0.0629148212227	2.51262214533	0
0.0629154485141	2.51264715768	0
0.0629160758056	2.51267217004	0
0.062916703097	2.51269718239	0
0.0629173303884	2.51272219474	0
0.0629179576799	2.51274720709	0
0.0629185849713	2.51277221944	0
0.0629192122627	2.51279723179	0
0.0629198395541	2.51282224414	0
0.0629204668456	2.51284725648	0
0.062921094137	2.51287226883	0
0.0629217214284	2.51289728117	0
0.0629223487199	2.51292229352	0
0.0629229760113	2.51294730586	0
0.0629236033027	2.51297231821	0
0.0629242305941	2.51299733055	0
0.0629248578856	2.51302234289	0
0.062925485177	2.51304735523	0
0.0629261124684	2.51307236757	0
0.0629267397599	2.51309737991	0
0.0629273670513	2.51312239225	0
0.0629279943427	2.51314740459	0
0.0629286216342	2.51317241692	0
0.0629292489256	2.51319742926	0
0.062929876217	2.51322244159	0
0.0629305035084	2.51324745393	0
0.0629311307999	2.51327246626	0
0.0629317580913	2.51329747859	0
0.0629323853827	2.51332249093	0
0.0629330126742	2.51334750326	0
0.0629336399656	2.51337251559	0
0.062934267257	2.51339752792	0
0.0629348945485	2.51342254025	0
0.0629355218399	2.51344755257	0
0.0629361491313	2.5134725649	0
0.0629367764227	2.51349757723	0
0.0629374037142	2.51352258955	0
0.0629380310056	2.51354760188	0
0.062938658297	2.5135726142	0
0.0629392855885	2.51359762652	0
0.0629399128799	2.51362263885	0
0.0629405401713	2.51364765117	0
0.0629411674627	2.51367266349	0
0.0629417947542	2.51369767581	0
0.0629424220456	2.51372268813	0
0.062943049337	2.51374770045	0
0.0629436766285	2.51377271276	0
0.0629443039199	2.51379772508	0
0.0629449312113	2.5138227374	0
0.0629455585028	2.51384774971	0
0.0629461857942	2.51387276203	0
0.0629468130856	2.51389777434	0
0.062947440377	2.51392278665	0
0.0629480676685	2.51394779897	0
0.0629486949599	2.51397281128	0
0.0629493222513	2.51399782359	0
0.0629499495428	2.5140228359	0
0.0629505768342	2.51404784821	0
0.0629512041256	2.51407286051	0
0.062951831417	2.51409787282	0
0.0629524587085	2.51412288513	0
0.0629530859999	2.51414789743	0
0.0629537132913	2.51417290974	0
0.0629543405828	2.51419792204	0
0.0629549678742	2.51422293435	0
0.0629555951656	2.51424794665	0
0.0629562224571	2.51427295895	0
0.0629568497485	2.51429797125	0
0.0629574770399	2.51432298355	0
0.0629581043313	2.51434799585	0
0.0629587316228	2.51437300815	0
0.0629593589142	2.51439802045	0
0.0629599862056	2.51442303274	0
0.0629606134971	2.51444804504	0
0.0629612407885	2.51447305734	0
0.0629618680799	2.51449806963	0
0.0629624953714	2.51452308192	0
0.0629631226628	2.51454809422	0
0.0629637499542	2.51457310651	0
0.0629643772456	2.5145981188	0
0.0629650045371	2.51462313109	0
0.0629656318285	2.51464814338	0
0.0629662591199	2.51467315567	0
0.0629668864114	2.51469816796	0
0.0629675137028	2.51472318025	0
0.0629681409942	2.51474819253	0
0.0629687682856	2.51477320482	0
0.0629693955771	2.5147982171	0
0.0629700228685	2.51482322939	0
0.0629706501599	2.51484824167	0
0.0629712774514	2.51487325395	0
0.0629719047428	2.51489826624	0
0.0629725320342	2.51492327852	0
0.0629731593257	2.5149482908	0
0.0629737866171	2.51497330308	0
0.0629744139085	2.51499831536	0
0.0629750411999	2.51502332763	0
0.0629756684914	2.51504833991	0
0.0629762957828	2.51507335219	0
0.0629769230742	2.51509836446	0
0.0629775503657	2.51512337674	0
0.0629781776571	2.51514838901	0
0.0629788049485	2.51517340128	0
0.06297943224	2.51519841356	0
0.0629800595314	2.51522342583	0
0.0629806868228	2.5152484381	0
0.0629813141142	2.51527345037	0
0.0629819414057	2.51529846264	0
0.0629825686971	2.51532347491	0
0.0629831959885	2.51534848717	0
0.06298382328	2.51537349944	0
0.0629844505714	2.51539851171	0
0.0629850778628	2.51542352397	0
0.0629857051542	2.51544853624	0
0.0629863324457	2.5154735485	0
0.0629869597371	2.51549856076	0
0.0629875870285	2.51552357303	0
0.06298821432	2.51554858529	0
0.0629888416114	2.51557359755	0
0.0629894689028	2.51559860981	0
0.0629900961943	2.51562362207	0
0.0629907234857	2.51564863432	0
0.0629913507771	2.51567364658	0
0.0629919780685	2.51569865884	0
0.06299260536	2.51572367109	0
0.0629932326514	2.51574868335	0
0.0629938599428	2.5157736956	0
0.0629944872343	2.51579870786	0
0.0629951145257	2.51582372011	0
0.0629957418171	2.51584873236	0
0.0629963691086	2.51587374461	0
0.0629969964	2.51589875686	0
0.0629976236914	2.51592376911	0
0.0629982509828	2.51594878136	0
0.0629988782743	2.51597379361	0
0.0629995055657	2.51599880585	0
0.0630001328571	2.5160238181	0
0.0630007601486	2.51604883034	0
0.06300138744	2.51607384259	0
0.0630020147314	2.51609885483	0
0.0630026420228	2.51612386708	0
0.0630032693143	2.51614887932	0
0.0630038966057	2.51617389156	0
0.0630045238971	2.5161989038	0
0.0630051511886	2.51622391604	0
0.06300577848	2.51624892828	0
0.0630064057714	2.51627394052	0
0.0630070330629	2.51629895275	0
0.0630076603543	2.51632396499	0
0.0630082876457	2.51634897723	0
0.0630089149371	2.51637398946	0
0.0630095422286	2.5163990017	0
0.06301016952	2.51642401393	0
0.0630107968114	2.51644902616	0
0.0630114241029	2.51647403839	0
0.0630120513943	2.51649905063	0
0.0630126786857	2.51652406286	0
0.0630133059771	2.51654907509	0
0.0630139332686	2.51657408731	0
0.06301456056	2.51659909954	0
0.0630151878514	2.51662411177	0
0.0630158151429	2.516649124	0
0.0630164424343	2.51667413622	0
0.0630170697257	2.51669914845	0
0.0630176970172	2.51672416067	0
0.0630183243086	2.51674917289	0
0.0630189516	2.51677418511	0
0.0630195788914	2.51679919734	0
0.0630202061829	2.51682420956	0
0.0630208334743	2.51684922178	0
0.0630214607657	2.516874234	0
0.0630220880572	2.51689924621	0
0.0630227153486	2.51692425843	0
0.06302334264	2.51694927065	0
0.0630239699315	2.51697428286	0
0.0630245972229	2.51699929508	0
0.0630252245143	2.51702430729	0
0.0630258518057	2.51704931951	0
0.0630264790972	2.51707433172	0
0.0630271063886	2.51709934393	0
0.06302773368	2.51712435614	0
0.0630283609715	2.51714936835	0
0.0630289882629	2.51717438056	0
0.0630296155543	2.51719939277	0
0.0630302428457	2.51722440498	0
0.0630308701372	2.51724941719	0
0.0630314974286	2.51727442939	0
0.06303212472	2.5172994416	0
0.0630327520115	2.5173244538	0
0.0630333793029	2.51734946601	0
0.0630340065943	2.51737447821	0
0.0630346338858	2.51739949041	0
0.0630352611772	2.51742450262	0
0.0630358884686	2.51744951482	0
0.06303651576	2.51747452702	0
0.0630371430515	2.51749953922	0
0.0630377703429	2.51752455141	0
0.0630383976343	2.51754956361	0
0.0630390249258	2.51757457581	0
0.0630396522172	2.51759958801	0
0.0630402795086	2.5176246002	0
0.0630409068001	2.5176496124	0
0.0630415340915	2.51767462459	0
0.0630421613829	2.51769963678	0
0.0630427886743	2.51772464897	0
0.0630434159658	2.51774966117	0
0.0630440432572	2.51777467336	0
0.0630446705486	2.51779968555	0
0.0630452978401	2.51782469773	0
0.0630459251315	2.51784970992	0
0.0630465524229	2.51787472211	0
0.0630471797143	2.5178997343	0
0.0630478070058	2.51792474648	0
0.0630484342972	2.51794975867	0
0.0630490615886	2.51797477085	0
0.0630496888801	2.51799978304	0
0.0630503161715	2.51802479522	0
0.0630509434629	2.5180498074	0
0.0630515707544	2.51807481958	0
0.0630521980458	2.51809983176	0
0.0630528253372	2.51812484394	0
0.0630534526286	2.51814985612	0
0.0630540799201	2.5181748683	0
0.0630547072115	2.51819988047	0
0.0630553345029	2.51822489265	0
0.0630559617944	2.51824990483	0
0.0630565890858	2.518274917	0
0.0630572163772	2.51829992917	0
0.0630578436687	2.51832494135	0
0.0630584709601	2.51834995352	0
0.0630590982515	2.51837496569	0
0.0630597255429	2.51839997786	0
0.0630603528344	2.51842499003	0
0.0630609801258	2.5184500022	0
0.0630616074172	2.51847501437	0
0.0630622347087	2.51850002654	0
0.0630628620001	2.5185250387	0
0.0630634892915	2.51855005087	0
0.0630641165829	2.51857506303	0
0.0630647438744	2.5186000752	0
0.0630653711658	2.51862508736	0
0.0630659984572	2.51865009952	0
0.0630666257487	2.51867511169	0
0.0630672530401	2.51870012385	0
0.0630678803315	2.51872513601	0
0.063068507623	2.51875014817	0
0.0630691349144	2.51877516033	0
0.0630697622058	2.51880017248	0
0.0630703894972	2.51882518464	0
0.0630710167887	2.5188501968	0
0.0630716440801	2.51887520895	0
0.0630722713715	2.51890022111	0
0.063072898663	2.51892523326	0
0.0630735259544	2.51895024542	0
0.0630741532458	2.51897525757	0
0.0630747805373	2.51900026972	0
0.0630754078287	2.51902528187	0
0.0630760351201	2.51905029402	0
0.0630766624115	2.51907530617	0
0.063077289703	2.51910031832	0
0.0630779169944	2.51912533047	0
0.0630785442858	2.51915034261	0
0.0630791715773	2.51917535476	0
0.0630797988687	2.5192003669	0
0.0630804261601	2.51922537905	0
0.0630810534515	2.51925039119	0
0.063081680743	2.51927540333	0
0.0630823080344	2.51930041548	0
0.0630829353258	2.51932542762	0
0.0630835626173	2.51935043976	0
0.0630841899087	2.5193754519	0
0.0630848172001	2.51940046404	0
0.0630854444916	2.51942547618	0
0.063086071783	2.51945048831	0
0.0630866990744	2.51947550045	0
0.0630873263658	2.51950051258	0
0.0630879536573	2.51952552472	0
0.0630885809487	2.51955053685	0
0.0630892082401	2.51957554899	0
0.0630898355316	2.51960056112	0
0.063090462823	2.51962557325	0
0.0630910901144	2.51965058538	0
0.0630917174058	2.51967559751	0
0.0630923446973	2.51970060964	0
0.0630929719887	2.51972562177	0
0.0630935992801	2.5197506339	0
0.0630942265716	2.51977564603	0
0.063094853863	2.51980065815	0
0.0630954811544	2.51982567028	0
0.0630961084459	2.5198506824	0
0.0630967357373	2.51987569453	0
0.0630973630287	2.51990070665	0
0.0630979903201	2.51992571877	0
0.0630986176116	2.51995073089	0
0.063099244903	2.51997574301	0
0.0630998721944	2.52000075513	0
0.0631004994859	2.52002576725	0
0.0631011267773	2.52005077937	0
0.0631017540687	2.52007579149	0
0.0631023813602	2.5201008036	0
0.0631030086516	2.52012581572	0
0.063103635943	2.52015082784	0
0.0631042632344	2.52017583995	0
0.0631048905259	2.52020085206	0
0.0631055178173	2.52022586418	0
0.0631061451087	2.52025087629	0
0.0631067724002	2.5202758884	0
0.0631073996916	2.52030090051	0
0.063108026983	2.52032591262	0
0.0631086542744	2.52035092473	0
0.0631092815659	2.52037593683	0
0.0631099088573	2.52040094894	0
0.0631105361487	2.52042596105	0
0.0631111634402	2.52045097315	0
0.0631117907316	2.52047598526	0
0.063112418023	2.52050099736	0
0.0631130453145	2.52052600947	0
0.0631136726059	2.52055102157	0
0.0631142998973	2.52057603367	0
0.0631149271887	2.52060104577	0
0.0631155544802	2.52062605787	0
0.0631161817716	2.52065106997	0
0.063116809063	2.52067608207	0
0.0631174363545	2.52070109417	0
0.0631180636459	2.52072610626	0
0.0631186909373	2.52075111836	0
0.0631193182288	2.52077613045	0
0.0631199455202	2.52080114255	0
0.0631205728116	2.52082615464	0
0.063121200103	2.52085116673	0
0.0631218273945	2.52087617883	0
0.0631224546859	2.52090119092	0
0.0631230819773	2.52092620301	0
0.0631237092688	2.5209512151	0
0.0631243365602	2.52097622719	0
0.0631249638516	2.52100123927	0
0.063125591143	2.52102625136	0
0.0631262184345	2.52105126345	0
0.0631268457259	2.52107627553	0
0.0631274730173	2.52110128762	0
0.0631281003088	2.5211262997	0
0.0631287276002	2.52115131179	0
0.0631293548916	2.52117632387	0
0.0631299821831	2.52120133595	0
0.0631306094745	2.52122634803	0
0.0631312367659	2.52125136011	0
0.0631318640573	2.52127637219	0
0.0631324913488	2.52130138427	0
0.0631331186402	2.52132639635	0
0.0631337459316	2.52135140842	0
0.0631343732231	2.5213764205	0
0.0631350005145	2.52140143258	0
0.0631356278059	2.52142644465	0
0.0631362550974	2.52145145672	0
0.0631368823888	2.5214764688	0
0.0631375096802	2.52150148087	0
0.0631381369716	2.52152649294	0
0.0631387642631	2.52155150501	0
0.0631393915545	2.52157651708	0
0.0631400188459	2.52160152915	0
0.0631406461374	2.52162654122	0
0.0631412734288	2.52165155329	0
0.0631419007202	2.52167656535	0
0.0631425280116	2.52170157742	0
0.0631431553031	2.52172658948	0
0.0631437825945	2.52175160155	0
0.0631444098859	2.52177661361	0
0.0631450371774	2.52180162567	0
0.0631456644688	2.52182663774	0
0.0631462917602	2.5218516498	0
0.0631469190517	2.52187666186	0
0.0631475463431	2.52190167392	0
0.0631481736345	2.52192668597	0
0.0631488009259	2.52195169803	0
0.0631494282174	2.52197671009	0
0.0631500555088	2.52200172215	0
0.0631506828002	2.5220267342	0
0.0631513100917	2.52205174626	0
0.0631519373831	2.52207675831	0
0.0631525646745	2.52210177036	0
0.0631531919659	2.52212678242	0
0.0631538192574	2.52215179447	0
0.0631544465488	2.52217680652	0
0.0631550738402	2.52220181857	0
0.0631557011317	2.52222683062	0
0.0631563284231	2.52225184267	0
0.0631569557145	2.52227685471	0
0.063157583006	2.52230186676	0
0.0631582102974	2.52232687881	0
0.0631588375888	2.52235189085	0
0.0631594648802	2.52237690289	0
0.0631600921717	2.52240191494	0
0.0631607194631	2.52242692698	0
0.0631613467545	2.52245193902	0
0.063161974046	2.52247695106	0
0.0631626013374	2.5225019631	0
0.0631632286288	2.52252697514	0
0.0631638559203	2.52255198718	0
0.0631644832117	2.52257699922	0
0.0631651105031	2.52260201126	0
0.0631657377945	2.52262702329	0
0.063166365086	2.52265203533	0
0.0631669923774	2.52267704737	0
0.0631676196688	2.5227020594	0
0.0631682469603	2.52272707143	0
0.0631688742517	2.52275208347	0
0.0631695015431	2.5227770955	0
0.0631701288345	2.52280210753	0
0.063170756126	2.52282711956	0
0.0631713834174	2.52285213159	0
0.0631720107088	2.52287714362	0
0.0631726380003	2.52290215564	0
0.0631732652917	2.52292716767	0
0.0631738925831	2.5229521797	0
0.0631745198746	2.52297719172	0
0.063175147166	2.52300220375	0
0.0631757744574	2.52302721577	0
0.0631764017488	2.52305222779	0
0.0631770290403	2.52307723981	0
0.0631776563317	2.52310225184	0
0.0631782836231	2.52312726386	0
0.0631789109146	2.52315227588	0
0.063179538206	2.5231772879	0
0.0631801654974	2.52320229991	0
0.0631807927889	2.52322731193	0
0.0631814200803	2.52325232395	0
0.0631820473717	2.52327733596	0
0.0631826746631	2.52330234798	0
0.0631833019546	2.52332735999	0
0.063183929246	2.52335237201	0
0.0631845565374	2.52337738402	0
0.0631851838289	2.52340239603	0
0.0631858111203	2.52342740804	0
0.0631864384117	2.52345242005	0
0.0631870657031	2.52347743206	0
0.0631876929946	2.52350244407	0
0.063188320286	2.52352745608	0
0.0631889475774	2.52355246808	0
0.0631895748689	2.52357748009	0
0.0631902021603	2.5236024921	0
0.0631908294517	2.5236275041	0
0.0631914567432	2.5236525161	0
0.0631920840346	2.52367752811	0
0.063192711326	2.52370254011	0
0.0631933386174	2.52372755211	0
0.0631939659089	2.52375256411	0
0.0631945932003	2.52377757611	0
0.0631952204917	2.52380258811	0
0.0631958477832	2.52382760011	0
0.0631964750746	2.52385261211	0
0.063197102366	2.5238776241	0
0.0631977296575	2.5239026361	0
0.0631983569489	2.52392764809	0
0.0631989842403	2.52395266009	0
0.0631996115317	2.52397767208	0
0.0632002388232	2.52400268407	0
0.0632008661146	2.52402769607	0
0.063201493406	2.52405270806	0
0.0632021206975	2.52407772005	0
0.0632027479889	2.52410273204	0
0.0632033752803	2.52412774403	0
0.0632040025717	2.52415275601	0
0.0632046298632	2.524177768	0
0.0632052571546	2.52420277999	0
0.063205884446	2.52422779197	0
0.0632065117375	2.52425280396	0
0.0632071390289	2.52427781594	0
0.0632077663203	2.52430282793	0
0.0632083936118	2.52432783991	0
0.0632090209032	2.52435285189	0
0.0632096481946	2.52437786387	0
0.063210275486	2.52440287585	0
0.0632109027775	2.52442788783	0
0.0632115300689	2.52445289981	0
0.0632121573603	2.52447791179	0
0.0632127846518	2.52450292376	0
0.0632134119432	2.52452793574	0
0.0632140392346	2.52455294771	0
0.063214666526	2.52457795969	0
0.0632152938175	2.52460297166	0
0.0632159211089	2.52462798364	0
0.0632165484003	2.52465299561	0
0.0632171756918	2.52467800758	0
0.0632178029832	2.52470301955	0
0.0632184302746	2.52472803152	0
0.0632190575661	2.52475304349	0
0.0632196848575	2.52477805546	0
0.0632203121489	2.52480306742	0
0.0632209394403	2.52482807939	0
0.0632215667318	2.52485309136	0
0.0632221940232	2.52487810332	0
0.0632228213146	2.52490311528	0
0.0632234486061	2.52492812725	0
0.0632240758975	2.52495313921	0
0.0632247031889	2.52497815117	0
0.0632253304804	2.52500316313	0
0.0632259577718	2.52502817509	0
0.0632265850632	2.52505318705	0
0.0632272123546	2.52507819901	0
0.0632278396461	2.52510321097	0
0.0632284669375	2.52512822293	0
0.0632290942289	2.52515323488	0
0.0632297215204	2.52517824684	0
0.0632303488118	2.52520325879	0
0.0632309761032	2.52522827075	0
0.0632316033946	2.5252532827	0
0.0632322306861	2.52527829465	0
0.0632328579775	2.5253033066	0
0.0632334852689	2.52532831855	0
0.0632341125604	2.5253533305	0
0.0632347398518	2.52537834245	0
0.0632353671432	2.5254033544	0
0.0632359944347	2.52542836635	0
0.0632366217261	2.52545337829	0
0.0632372490175	2.52547839024	0
0.0632378763089	2.52550340219	0
0.0632385036004	2.52552841413	0
0.0632391308918	2.52555342607	0
0.0632397581832	2.52557843802	0
0.0632403854747	2.52560344996	0
0.0632410127661	2.5256284619	0
0.0632416400575	2.52565347384	0
0.063242267349	2.52567848578	0
0.0632428946404	2.52570349772	0
0.0632435219318	2.52572850966	0
0.0632441492232	2.52575352159	0
0.0632447765147	2.52577853353	0
0.0632454038061	2.52580354546	0
0.0632460310975	2.5258285574	0
0.063246658389	2.52585356933	0
0.0632472856804	2.52587858127	0
0.0632479129718	2.5259035932	0
0.0632485402632	2.52592860513	0
0.0632491675547	2.52595361706	0
0.0632497948461	2.52597862899	0
0.0632504221375	2.52600364092	0
0.063251049429	2.52602865285	0
0.0632516767204	2.52605366478	0
0.0632523040118	2.5260786767	0
0.0632529313033	2.52610368863	0
0.0632535585947	2.52612870055	0
0.0632541858861	2.52615371248	0
0.0632548131775	2.5261787244	0
0.063255440469	2.52620373632	0
0.0632560677604	2.52622874825	0
0.0632566950518	2.52625376017	0
0.0632573223433	2.52627877209	0
0.0632579496347	2.52630378401	0
0.0632585769261	2.52632879593	0
0.0632592042176	2.52635380784	0
0.063259831509	2.52637881976	0
0.0632604588004	2.52640383168	0
0.0632610860918	2.52642884359	0
0.0632617133833	2.52645385551	0
0.0632623406747	2.52647886742	0
0.0632629679661	2.52650387934	0
0.0632635952576	2.52652889125	0
0.063264222549	2.52655390316	0
0.0632648498404	2.52657891507	0
0.0632654771318	2.52660392698	0
0.0632661044233	2.52662893889	0
0.0632667317147	2.5266539508	0
0.0632673590061	2.52667896271	0
0.0632679862976	2.52670397461	0
0.063268613589	2.52672898652	0
0.0632692408804	2.52675399843	0
0.0632698681719	2.52677901033	0
0.0632704954633	2.52680402223	0
0.0632711227547	2.52682903414	0
0.0632717500461	2.52685404604	0
0.0632723773376	2.52687905794	0
0.063273004629	2.52690406984	0
0.0632736319204	2.52692908174	0
0.0632742592119	2.52695409364	0
0.0632748865033	2.52697910554	0
0.0632755137947	2.52700411744	0
0.0632761410862	2.52702912933	0
0.0632767683776	2.52705414123	0
0.063277395669	2.52707915312	0
0.0632780229604	2.52710416502	0
0.0632786502519	2.52712917691	0
0.0632792775433	2.5271541888	0
0.0632799048347	2.5271792007	0
0.0632805321262	2.52720421259	0
0.0632811594176	2.52722922448	0
0.063281786709	2.52725423637	0
0.0632824140004	2.52727924825	0
0.0632830412919	2.52730426014	0
0.0632836685833	2.52732927203	0
0.0632842958747	2.52735428392	0
0.0632849231662	2.5273792958	0
0.0632855504576	2.52740430769	0
0.063286177749	2.52742931957	0
0.0632868050405	2.52745433145	0
0.0632874323319	2.52747934334	0
0.0632880596233	2.52750435522	0
0.0632886869147	2.5275293671	0
0.0632893142062	2.52755437898	0
0.0632899414976	2.52757939086	0
0.063290568789	2.52760440273	0
0.0632911960805	2.52762941461	0
0.0632918233719	2.52765442649	0
0.0632924506633	2.52767943836	0
0.0632930779547	2.52770445024	0
0.0632937052462	2.52772946211	0
0.0632943325376	2.52775447399	0
0.063294959829	2.52777948586	0
0.0632955871205	2.52780449773	0
0.0632962144119	2.5278295096	0
0.0632968417033	2.52785452147	0
0.0632974689948	2.52787953334	0
0.0632980962862	2.52790454521	0
0.0632987235776	2.52792955708	0
0.063299350869	2.52795456895	0
0.0632999781605	2.52797958081	0
0.0633006054519	2.52800459268	0
0.0633012327433	2.52802960454	0
0.0633018600348	2.52805461641	0
0.0633024873262	2.52807962827	0
0.0633031146176	2.52810464013	0
0.0633037419091	2.528129652	0
0.0633043692005	2.52815466386	0
0.0633049964919	2.52817967572	0
0.0633056237833	2.52820468758	0
0.0633062510748	2.52822969943	0
0.0633068783662	2.52825471129	0
0.0633075056576	2.52827972315	0
0.0633081329491	2.52830473501	0
0.0633087602405	2.52832974686	0
0.0633093875319	2.52835475872	0
0.0633100148233	2.52837977057	0
0.0633106421148	2.52840478242	0
0.0633112694062	2.52842979427	0
0.0633118966976	2.52845480613	0
0.0633125239891	2.52847981798	0
0.0633131512805	2.52850482983	0
0.0633137785719	2.52852984167	0
0.0633144058634	2.52855485352	0
0.0633150331548	2.52857986537	0
0.0633156604462	2.52860487722	0
0.0633162877376	2.52862988906	0
0.0633169150291	2.52865490091	0
0.0633175423205	2.52867991275	0
0.0633181696119	2.5287049246	0
0.0633187969034	2.52872993644	0
0.0633194241948	2.52875494828	0
0.0633200514862	2.52877996012	0
0.0633206787777	2.52880497196	0
0.0633213060691	2.5288299838	0
0.0633219333605	2.52885499564	0
0.0633225606519	2.52888000748	0
0.0633231879434	2.52890501931	0
0.0633238152348	2.52893003115	0
0.0633244425262	2.52895504299	0
0.0633250698177	2.52898005482	0
0.0633256971091	2.52900506665	0
0.0633263244005	2.52903007849	0
0.0633269516919	2.52905509032	0
0.0633275789834	2.52908010215	0
0.0633282062748	2.52910511398	0
0.0633288335662	2.52913012581	0
0.0633294608577	2.52915513764	0
0.0633300881491	2.52918014947	0
0.0633307154405	2.5292051613	0
0.063331342732	2.52923017312	0
0.0633319700234	2.52925518495	0
0.0633325973148	2.52928019677	0
0.0633332246062	2.5293052086	0
0.0633338518977	2.52933022042	0
0.0633344791891	2.52935523224	0
0.0633351064805	2.52938024407	0
0.063335733772	2.52940525589	0
0.0633363610634	2.52943026771	0
0.0633369883548	2.52945527953	0
0.0633376156463	2.52948029135	0
0.0633382429377	2.52950530316	0
0.0633388702291	2.52953031498	0
0.0633394975205	2.5295553268	0
0.063340124812	2.52958033861	0
0.0633407521034	2.52960535043	0
0.0633413793948	2.52963036224	0
0.0633420066863	2.52965537405	0
0.0633426339777	2.52968038587	0
0.0633432612691	2.52970539768	0
0.0633438885605	2.52973040949	0
0.063344515852	2.5297554213	0
0.0633451431434	2.52978043311	0
0.0633457704348	2.52980544492	0
0.0633463977263	2.52983045672	0
0.0633470250177	2.52985546853	0
0.0633476523091	2.52988048034	0
0.0633482796006	2.52990549214	0
0.063348906892	2.52993050395	0
0.0633495341834	2.52995551575	0
0.0633501614748	2.52998052755	0
0.0633507887663	2.53000553936	0
0.0633514160577	2.53003055116	0
0.0633520433491	2.53005556296	0
0.0633526706406	2.53008057476	0
0.063353297932	2.53010558656	0
0.0633539252234	2.53013059835	0
0.0633545525148	2.53015561015	0
0.0633551798063	2.53018062195	0
0.0633558070977	2.53020563374	0
0.0633564343891	2.53023064554	0
0.0633570616806	2.53025565733	0
0.063357688972	2.53028066913	0
0.0633583162634	2.53030568092	0
0.0633589435549	2.53033069271	0
0.0633595708463	2.5303557045	0
0.0633601981377	2.53038071629	0
0.0633608254291	2.53040572808	0
0.0633614527206	2.53043073987	0
0.063362080012	2.53045575166	0
0.0633627073034	2.53048076344	0
0.0633633345949	2.53050577523	0
0.0633639618863	2.53053078702	0
0.0633645891777	2.5305557988	0
0.0633652164692	2.53058081058	0
0.0633658437606	2.53060582237	0
0.063366471052	2.53063083415	0
0.0633670983434	2.53065584593	0
0.0633677256349	2.53068085771	0
0.0633683529263	2.53070586949	0
0.0633689802177	2.53073088127	0
0.0633696075092	2.53075589305	0
0.0633702348006	2.53078090483	0
0.063370862092	2.5308059166	0
0.0633714893834	2.53083092838	0
0.0633721166749	2.53085594015	0
0.0633727439663	2.53088095193	0
0.0633733712577	2.5309059637	0
0.0633739985492	2.53093097547	0
0.0633746258406	2.53095598725	0
0.063375253132	2.53098099902	0
0.0633758804235	2.53100601079	0
0.0633765077149	2.53103102256	0
0.0633771350063	2.53105603433	0
0.0633777622977	2.53108104609	0
0.0633783895892	2.53110605786	0
0.0633790168806	2.53113106963	0
0.063379644172	2.53115608139	0
0.0633802714635	2.53118109316	0
0.0633808987549	2.53120610492	0
0.0633815260463	2.53123111668	0
0.0633821533378	2.53125612845	0
0.0633827806292	2.53128114021	0
0.0633834079206	2.53130615197	0
0.063384035212	2.53133116373	0
0.0633846625035	2.53135617549	0
0.0633852897949	2.53138118725	0
0.0633859170863	2.531406199	0
0.0633865443778	2.53143121076	0
0.0633871716692	2.53145622252	0
0.0633877989606	2.53148123427	0
0.063388426252	2.53150624603	0
0.0633890535435	2.53153125778	0
0.0633896808349	2.53155626953	0
0.0633903081263	2.53158128128	0
0.0633909354178	2.53160629304	0
0.0633915627092	2.53163130479	0
0.0633921900006	2.53165631654	0
0.0633928172921	2.53168132829	0
0.0633934445835	2.53170634003	0
0.0633940718749	2.53173135178	0
0.0633946991663	2.53175636353	0
0.0633953264578	2.53178137527	0
0.0633959537492	2.53180638702	0
0.0633965810406	2.53183139876	0
0.0633972083321	2.5318564105	0
0.0633978356235	2.53188142225	0
0.0633984629149	2.53190643399	0
0.0633990902064	2.53193144573	0
0.0633997174978	2.53195645747	0
0.0634003447892	2.53198146921	0
0.0634009720806	2.53200648095	0
0.0634015993721	2.53203149269	0
0.0634022266635	2.53205650442	0
0.0634028539549	2.53208151616	0
0.0634034812464	2.53210652789	0
0.0634041085378	2.53213153963	0
0.0634047358292	2.53215655136	0
0.0634053631206	2.5321815631	0
0.0634059904121	2.53220657483	0
0.0634066177035	2.53223158656	0
0.0634072449949	2.53225659829	0
0.0634078722864	2.53228161002	0
0.0634084995778	2.53230662175	0
0.0634091268692	2.53233163348	0
0.0634097541607	2.5323566452	0
0.0634103814521	2.53238165693	0
0.0634110087435	2.53240666866	0
0.0634116360349	2.53243168038	0
0.0634122633264	2.53245669211	0
0.0634128906178	2.53248170383	0
0.0634135179092	2.53250671555	0
0.0634141452007	2.53253172727	0
0.0634147724921	2.53255673899	0
0.0634153997835	2.53258175071	0
0.063416027075	2.53260676243	0
0.0634166543664	2.53263177415	0
0.0634172816578	2.53265678587	0
0.0634179089492	2.53268179759	0
0.0634185362407	2.5327068093	0
0.0634191635321	2.53273182102	0
0.0634197908235	2.53275683273	0
0.063420418115	2.53278184445	0
0.0634210454064	2.53280685616	0
0.0634216726978	2.53283186787	0
0.0634222999892	2.53285687958	0
0.0634229272807	2.5328818913	0
0.0634235545721	2.53290690301	0
0.0634241818635	2.53293191471	0
0.063424809155	2.53295692642	0
0.0634254364464	2.53298193813	0
0.0634260637378	2.53300694984	0
0.0634266910293	2.53303196154	0
0.0634273183207	2.53305697325	0
0.0634279456121	2.53308198495	0
0.0634285729035	2.53310699666	0
0.063429200195	2.53313200836	0
0.0634298274864	2.53315702006	0
0.0634304547778	2.53318203176	0
0.0634310820693	2.53320704346	0
0.0634317093607	2.53323205516	0
0.0634323366521	2.53325706686	0
0.0634329639435	2.53328207856	0
0.063433591235	2.53330709026	0
0.0634342185264	2.53333210195	0
0.0634348458178	2.53335711365	0
0.0634354731093	2.53338212534	0
0.0634361004007	2.53340713704	0
0.0634367276921	2.53343214873	0
0.0634373549836	2.53345716042	0
0.063437982275	2.53348217211	0
0.0634386095664	2.5335071838	0
0.0634392368578	2.53353219549	0
0.0634398641493	2.53355720718	0
0.0634404914407	2.53358221887	0
0.0634411187321	2.53360723056	0
0.0634417460236	2.53363224225	0
0.063442373315	2.53365725393	0
0.0634430006064	2.53368226562	0
0.0634436278979	2.5337072773	0
0.0634442551893	2.53373228899	0
0.0634448824807	2.53375730067	0
0.0634455097721	2.53378231235	0
0.0634461370636	2.53380732403	0
0.063446764355	2.53383233571	0
0.0634473916464	2.53385734739	0
0.0634480189379	2.53388235907	0
0.0634486462293	2.53390737075	0
0.0634492735207	2.53393238243	0
0.0634499008121	2.5339573941	0
0.0634505281036	2.53398240578	0
0.063451155395	2.53400741745	0
0.0634517826864	2.53403242913	0
0.0634524099779	2.5340574408	0
0.0634530372693	2.53408245247	0
0.0634536645607	2.53410746415	0
0.0634542918522	2.53413247582	0
0.0634549191436	2.53415748749	0
0.063455546435	2.53418249916	0
0.0634561737264	2.53420751083	0
0.0634568010179	2.53423252249	0
0.0634574283093	2.53425753416	0
0.0634580556007	2.53428254583	0
0.0634586828922	2.53430755749	0
0.0634593101836	2.53433256916	0
0.063459937475	2.53435758082	0
0.0634605647665	2.53438259248	0
0.0634611920579	2.53440760415	0
0.0634618193493	2.53443261581	0
0.0634624466407	2.53445762747	0
0.0634630739322	2.53448263913	0
0.0634637012236	2.53450765079	0
0.063464328515	2.53453266245	0
0.0634649558065	2.5345576741	0
0.0634655830979	2.53458268576	0
0.0634662103893	2.53460769742	0
0.0634668376807	2.53463270907	0
0.0634674649722	2.53465772072	0
0.0634680922636	2.53468273238	0
0.063468719555	2.53470774403	0
0.0634693468465	2.53473275568	0
0.0634699741379	2.53475776733	0
0.0634706014293	2.53478277898	0
0.0634712287208	2.53480779063	0
0.0634718560122	2.53483280228	0
0.0634724833036	2.53485781393	0
0.063473110595	2.53488282558	0
0.0634737378865	2.53490783722	0
0.0634743651779	2.53493284887	0
0.0634749924693	2.53495786051	0
0.0634756197608	2.53498287216	0
0.0634762470522	2.5350078838	0
0.0634768743436	2.53503289544	0
0.0634775016351	2.53505790709	0
0.0634781289265	2.53508291873	0
0.0634787562179	2.53510793037	0
0.0634793835093	2.53513294201	0
0.0634800108008	2.53515795364	0
0.0634806380922	2.53518296528	0
0.0634812653836	2.53520797692	0
0.0634818926751	2.53523298855	0
0.0634825199665	2.53525800019	0
0.0634831472579	2.53528301182	0
0.0634837745493	2.53530802346	0
0.0634844018408	2.53533303509	0
0.0634850291322	2.53535804672	0
0.0634856564236	2.53538305835	0
0.0634862837151	2.53540806998	0
0.0634869110065	2.53543308161	0
0.0634875382979	2.53545809324	0
0.0634881655894	2.53548310487	0
0.0634887928808	2.5355081165	0
0.0634894201722	2.53553312812	0
0.0634900474636	2.53555813975	0
0.0634906747551	2.53558315138	0
0.0634913020465	2.535608163	0
0.0634919293379	2.53563317462	0
0.0634925566294	2.53565818625	0
0.0634931839208	2.53568319787	0
0.0634938112122	2.53570820949	0
0.0634944385036	2.53573322111	0
0.0634950657951	2.53575823273	0
0.0634956930865	2.53578324435	0
0.0634963203779	2.53580825596	0
0.0634969476694	2.53583326758	0
0.0634975749608	2.5358582792	0
0.0634982022522	2.53588329081	0
0.0634988295437	2.53590830243	0
0.0634994568351	2.53593331404	0
0.0635000841265	2.53595832565	0
0.0635007114179	2.53598333727	0
0.0635013387094	2.53600834888	0
0.0635019660008	2.53603336049	0
0.0635025932922	2.5360583721	0
0.0635032205837	2.53608338371	0
0.0635038478751	2.53610839532	0
0.0635044751665	2.53613340692	0
0.063505102458	2.53615841853	0
0.0635057297494	2.53618343014	0
0.0635063570408	2.53620844174	0
0.0635069843322	2.53623345334	0
0.0635076116237	2.53625846495	0
0.0635082389151	2.53628347655	0
0.0635088662065	2.53630848815	0
0.063509493498	2.53633349975	0
0.0635101207894	2.53635851135	0
0.0635107480808	2.53638352295	0
0.0635113753722	2.53640853455	0
0.0635120026637	2.53643354615	0
0.0635126299551	2.53645855775	0
0.0635132572465	2.53648356934	0
0.063513884538	2.53650858094	0
0.0635145118294	2.53653359253	0
0.0635151391208	2.53655860413	0
0.0635157664123	2.53658361572	0
0.0635163937037	2.53660862731	0
0.0635170209951	2.5366336389	0
0.0635176482865	2.5366586505	0
0.063518275578	2.53668366209	0
0.0635189028694	2.53670867367	0
0.0635195301608	2.53673368526	0
0.0635201574523	2.53675869685	0
0.0635207847437	2.53678370844	0
0.0635214120351	2.53680872002	0
0.0635220393266	2.53683373161	0
0.063522666618	2.53685874319	0
0.0635232939094	2.53688375478	0
0.0635239212008	2.53690876636	0
0.0635245484923	2.53693377794	0
0.0635251757837	2.53695878952	0
0.0635258030751	2.5369838011	0
0.0635264303666	2.53700881268	0
0.063527057658	2.53703382426	0
0.0635276849494	2.53705883584	0
0.0635283122408	2.53708384742	0
0.0635289395323	2.53710885899	0
0.0635295668237	2.53713387057	0
0.0635301941151	2.53715888214	0
0.0635308214066	2.53718389372	0
0.063531448698	2.53720890529	0
0.0635320759894	2.53723391686	0
0.0635327032809	2.53725892843	0
0.0635333305723	2.53728394001	0
0.0635339578637	2.53730895158	0
0.0635345851551	2.53733396314	0
0.0635352124466	2.53735897471	0
0.063535839738	2.53738398628	0
0.0635364670294	2.53740899785	0
0.0635370943209	2.53743400941	0
0.0635377216123	2.53745902098	0
0.0635383489037	2.53748403254	0
0.0635389761952	2.53750904411	0
0.0635396034866	2.53753405567	0
0.063540230778	2.53755906723	0
0.0635408580694	2.53758407879	0
0.0635414853609	2.53760909035	0
0.0635421126523	2.53763410191	0
0.0635427399437	2.53765911347	0
0.0635433672352	2.53768412503	0
0.0635439945266	2.53770913659	0
0.063544621818	2.53773414815	0
0.0635452491094	2.5377591597	0
0.0635458764009	2.53778417126	0
0.0635465036923	2.53780918281	0
0.0635471309837	2.53783419436	0
0.0635477582752	2.53785920592	0
0.0635483855666	2.53788421747	0
0.063549012858	2.53790922902	0
0.0635496401495	2.53793424057	0
0.0635502674409	2.53795925212	0
0.0635508947323	2.53798426367	0
0.0635515220237	2.53800927522	0
0.0635521493152	2.53803428676	0
0.0635527766066	2.53805929831	0
0.063553403898	2.53808430985	0
0.0635540311895	2.5381093214	0
0.0635546584809	2.53813433294	0
0.0635552857723	2.53815934449	0
0.0635559130637	2.53818435603	0
0.0635565403552	2.53820936757	0
0.0635571676466	2.53823437911	0
0.063557794938	2.53825939065	0
0.0635584222295	2.53828440219	0
0.0635590495209	2.53830941373	0
0.0635596768123	2.53833442527	0
0.0635603041038	2.5383594368	0
0.0635609313952	2.53838444834	0
0.0635615586866	2.53840945987	0
0.063562185978	2.53843447141	0
0.0635628132695	2.53845948294	0
0.0635634405609	2.53848449447	0
0.0635640678523	2.53850950601	0
0.0635646951438	2.53853451754	0
0.0635653224352	2.53855952907	0
0.0635659497266	2.5385845406	0
0.0635665770181	2.53860955213	0
0.0635672043095	2.53863456365	0
0.0635678316009	2.53865957518	0
0.0635684588923	2.53868458671	0
0.0635690861838	2.53870959823	0
0.0635697134752	2.53873460976	0
0.0635703407666	2.53875962128	0
0.0635709680581	2.5387846328	0
0.0635715953495	2.53880964433	0
0.0635722226409	2.53883465585	0
0.0635728499323	2.53885966737	0
0.0635734772238	2.53888467889	0
0.0635741045152	2.53890969041	0
0.0635747318066	2.53893470193	0
0.0635753590981	2.53895971345	0
0.0635759863895	2.53898472496	0
0.0635766136809	2.53900973648	0
0.0635772409724	2.53903474799	0
0.0635778682638	2.53905975951	0
0.0635784955552	2.53908477102	0
0.0635791228466	2.53910978253	0
0.0635797501381	2.53913479405	0
0.0635803774295	2.53915980556	0
0.0635810047209	2.53918481707	0
0.0635816320124	2.53920982858	0
0.0635822593038	2.53923484009	0
0.0635828865952	2.53925985159	0
0.0635835138867	2.5392848631	0
0.0635841411781	2.53930987461	0
0.0635847684695	2.53933488611	0
0.0635853957609	2.53935989762	0
0.0635860230524	2.53938490912	0
0.0635866503438	2.53940992063	0
0.0635872776352	2.53943493213	0
0.0635879049267	2.53945994363	0
0.0635885322181	2.53948495513	0
0.0635891595095	2.53950996663	0
0.0635897868009	2.53953497813	0
0.0635904140924	2.53955998963	0
0.0635910413838	2.53958500113	0
0.0635916686752	2.53961001263	0
0.0635922959667	2.53963502412	0
0.0635929232581	2.53966003562	0
0.0635935505495	2.53968504711	0
0.063594177841	2.53971005861	0
0.0635948051324	2.5397350701	0
0.0635954324238	2.53976008159	0
0.0635960597152	2.53978509308	0
0.0635966870067	2.53981010457	0
0.0635973142981	2.53983511606	0
0.0635979415895	2.53986012755	0
0.063598568881	2.53988513904	0
0.0635991961724	2.53991015053	0
0.0635998234638	2.53993516201	0
0.0636004507553	2.5399601735	0
0.0636010780467	2.53998518498	0
0.0636017053381	2.54001019647	0
0.0636023326295	2.54003520795	0
0.063602959921	2.54006021944	0
0.0636035872124	2.54008523092	0
0.0636042145038	2.5401102424	0
0.0636048417953	2.54013525388	0
0.0636054690867	2.54016026536	0
0.0636060963781	2.54018527684	0
0.0636067236695	2.54021028831	0
0.063607350961	2.54023529979	0
0.0636079782524	2.54026031127	0
0.0636086055438	2.54028532274	0
0.0636092328353	2.54031033422	0
0.0636098601267	2.54033534569	0
0.0636104874181	2.54036035717	0
0.0636111147096	2.54038536864	0
0.063611742001	2.54041038011	0
0.0636123692924	2.54043539158	0
0.0636129965838	2.54046040305	0
0.0636136238753	2.54048541452	0
0.0636142511667	2.54051042599	0
0.0636148784581	2.54053543746	0
0.0636155057496	2.54056044892	0
0.063616133041	2.54058546039	0
0.0636167603324	2.54061047185	0
0.0636173876239	2.54063548332	0
0.0636180149153	2.54066049478	0
0.0636186422067	2.54068550624	0
0.0636192694981	2.54071051771	0
0.0636198967896	2.54073552917	0
0.063620524081	2.54076054063	0
0.0636211513724	2.54078555209	0
0.0636217786639	2.54081056355	0
0.0636224059553	2.540835575	0
0.0636230332467	2.54086058646	0
0.0636236605381	2.54088559792	0
0.0636242878296	2.54091060937	0
0.063624915121	2.54093562083	0
0.0636255424124	2.54096063228	0
0.0636261697039	2.54098564374	0
0.0636267969953	2.54101065519	0
0.0636274242867	2.54103566664	0
0.0636280515782	2.54106067809	0
0.0636286788696	2.54108568954	0
0.063629306161	2.54111070099	0
0.0636299334524	2.54113571244	0
0.0636305607439	2.54116072389	0
0.0636311880353	2.54118573533	0
0.0636318153267	2.54121074678	0
0.0636324426182	2.54123575823	0
0.0636330699096	2.54126076967	0
0.063633697201	2.54128578111	0
0.0636343244924	2.54131079256	0
0.0636349517839	2.541335804	0
0.0636355790753	2.54136081544	0
0.0636362063667	2.54138582688	0
0.0636368336582	2.54141083832	0
0.0636374609496	2.54143584976	0
0.063638088241	2.5414608612	0
0.0636387155325	2.54148587264	0
0.0636393428239	2.54151088407	0
0.0636399701153	2.54153589551	0
0.0636405974067	2.54156090694	0
0.0636412246982	2.54158591838	0
0.0636418519896	2.54161092981	0
0.063642479281	2.54163594124	0
0.0636431065725	2.54166095268	0
0.0636437338639	2.54168596411	0
0.0636443611553	2.54171097554	0
0.0636449884468	2.54173598697	0
0.0636456157382	2.5417609984	0
0.0636462430296	2.54178600982	0
0.063646870321	2.54181102125	0
0.0636474976125	2.54183603268	0
0.0636481249039	2.5418610441	0
0.0636487521953	2.54188605553	0
0.0636493794868	2.54191106695	0
0.0636500067782	2.54193607837	0
0.0636506340696	2.5419610898	0
0.063651261361	2.54198610122	0
0.0636518886525	2.54201111264	0
0.0636525159439	2.54203612406	0
0.0636531432353	2.54206113548	0
0.0636537705268	2.5420861469	0
0.0636543978182	2.54211115831	0
0.0636550251096	2.54213616973	0
0.0636556524011	2.54216118115	0
0.0636562796925	2.54218619256	0
0.0636569069839	2.54221120398	0
0.0636575342753	2.54223621539	0
0.0636581615668	2.5422612268	0
0.0636587888582	2.54228623821	0
0.0636594161496	2.54231124962	0
0.0636600434411	2.54233626104	0
0.0636606707325	2.54236127244	0
0.0636612980239	2.54238628385	0
0.0636619253154	2.54241129526	0
0.0636625526068	2.54243630667	0
0.0636631798982	2.54246131808	0
0.0636638071896	2.54248632948	0
0.0636644344811	2.54251134089	0
0.0636650617725	2.54253635229	0
0.0636656890639	2.54256136369	0
0.0636663163554	2.5425863751	0
0.0636669436468	2.5426113865	0
0.0636675709382	2.5426363979	0
0.0636681982296	2.5426614093	0
0.0636688255211	2.5426864207	0
0.0636694528125	2.5427114321	0
0.0636700801039	2.54273644349	0
0.0636707073954	2.54276145489	0
0.0636713346868	2.54278646629	0
0.0636719619782	2.54281147768	0
0.0636725892697	2.54283648908	0
0.0636732165611	2.54286150047	0
0.0636738438525	2.54288651186	0
0.0636744711439	2.54291152326	0
0.0636750984354	2.54293653465	0
0.0636757257268	2.54296154604	0
0.0636763530182	2.54298655743	0
0.0636769803097	2.54301156882	0
0.0636776076011	2.5430365802	0
0.0636782348925	2.54306159159	0
0.063678862184	2.54308660298	0
0.0636794894754	2.54311161436	0
0.0636801167668	2.54313662575	0
0.0636807440582	2.54316163713	0
0.0636813713497	2.54318664852	0
0.0636819986411	2.5432116599	0
0.0636826259325	2.54323667128	0
0.063683253224	2.54326168266	0
0.0636838805154	2.54328669404	0
0.0636845078068	2.54331170542	0
0.0636851350982	2.5433367168	0
0.0636857623897	2.54336172818	0
0.0636863896811	2.54338673955	0
0.0636870169725	2.54341175093	0
0.063687644264	2.54343676231	0
0.0636882715554	2.54346177368	0
0.0636888988468	2.54348678505	0
0.0636895261383	2.54351179643	0
0.0636901534297	2.5435368078	0
0.0636907807211	2.54356181917	0
0.0636914080125	2.54358683054	0
0.063692035304	2.54361184191	0
0.0636926625954	2.54363685328	0
0.0636932898868	2.54366186465	0
0.0636939171783	2.54368687602	0
0.0636945444697	2.54371188738	0
0.0636951717611	2.54373689875	0
0.0636957990525	2.54376191011	0
0.063696426344	2.54378692148	0
0.0636970536354	2.54381193284	0
0.0636976809268	2.54383694421	0
0.0636983082183	2.54386195557	0
0.0636989355097	2.54388696693	0
0.0636995628011	2.54391197829	0
0.0637001900926	2.54393698965	0
0.063700817384	2.54396200101	0
0.0637014446754	2.54398701237	0
0.0637020719668	2.54401202372	0
0.0637026992583	2.54403703508	0
0.0637033265497	2.54406204643	0
0.0637039538411	2.54408705779	0
0.0637045811326	2.54411206914	0
0.063705208424	2.5441370805	0
0.0637058357154	2.54416209185	0
0.0637064630069	2.5441871032	0
0.0637070902983	2.54421211455	0
0.0637077175897	2.5442371259	0
0.0637083448811	2.54426213725	0
0.0637089721726	2.5442871486	0
0.063709599464	2.54431215995	0
0.0637102267554	2.54433717129	0
0.0637108540469	2.54436218264	0
0.0637114813383	2.54438719398	0
0.0637121086297	2.54441220533	0
0.0637127359211	2.54443721667	0
0.0637133632126	2.54446222802	0
0.063713990504	2.54448723936	0
0.0637146177954	2.5445122507	0
0.0637152450869	2.54453726204	0
0.0637158723783	2.54456227338	0
0.0637164996697	2.54458728472	0
0.0637171269612	2.54461229606	0
0.0637177542526	2.54463730739	0
0.063718381544	2.54466231873	0
0.0637190088354	2.54468733007	0
0.0637196361269	2.5447123414	0
0.0637202634183	2.54473735273	0
0.0637208907097	2.54476236407	0
0.0637215180012	2.5447873754	0
0.0637221452926	2.54481238673	0
0.063722772584	2.54483739806	0
0.0637233998755	2.54486240939	0
0.0637240271669	2.54488742072	0
0.0637246544583	2.54491243205	0
0.0637252817497	2.54493744338	0
0.0637259090412	2.54496245471	0
0.0637265363326	2.54498746603	0
0.063727163624	2.54501247736	0
0.0637277909155	2.54503748868	0
0.0637284182069	2.54506250001	0
0.0637290454983	2.54508751133	0
0.0637296727897	2.54511252265	0
0.0637303000812	2.54513753397	0
0.0637309273726	2.54516254529	0
0.063731554664	2.54518755661	0
0.0637321819555	2.54521256793	0
0.0637328092469	2.54523757925	0
0.0637334365383	2.54526259057	0
0.0637340638298	2.54528760188	0
0.0637346911212	2.5453126132	0
0.0637353184126	2.54533762452	0
0.063735945704	2.54536263583	0
0.0637365729955	2.54538764714	0
0.0637372002869	2.54541265846	0
0.0637378275783	2.54543766977	0
0.0637384548698	2.54546268108	0
0.0637390821612	2.54548769239	0
0.0637397094526	2.5455127037	0
0.0637403367441	2.54553771501	0
0.0637409640355	2.54556272632	0
0.0637415913269	2.54558773762	0
0.0637422186183	2.54561274893	0
0.0637428459098	2.54563776023	0
0.0637434732012	2.54566277154	0
0.0637441004926	2.54568778284	0
0.0637447277841	2.54571279415	0
0.0637453550755	2.54573780545	0
0.0637459823669	2.54576281675	0
0.0637466096583	2.54578782805	0
0.0637472369498	2.54581283935	0
0.0637478642412	2.54583785065	0
0.0637484915326	2.54586286195	0
0.0637491188241	2.54588787325	0
0.0637497461155	2.54591288454	0
0.0637503734069	2.54593789584	0
0.0637510006984	2.54596290713	0
0.0637516279898	2.54598791843	0
0.0637522552812	2.54601292972	0
0.0637528825726	2.54603794101	0
0.0637535098641	2.54606295231	0
0.0637541371555	2.5460879636	0
0.0637547644469	2.54611297489	0
0.0637553917384	2.54613798618	0
0.0637560190298	2.54616299747	0
0.0637566463212	2.54618800876	0
0.0637572736127	2.54621302004	0
0.0637579009041	2.54623803133	0
0.0637585281955	2.54626304261	0
0.0637591554869	2.5462880539	0
0.0637597827784	2.54631306518	0
0.0637604100698	2.54633807647	0
0.0637610373612	2.54636308775	0
0.0637616646527	2.54638809903	0
0.0637622919441	2.54641311031	0
0.0637629192355	2.54643812159	0
0.0637635465269	2.54646313287	0
0.0637641738184	2.54648814415	0
0.0637648011098	2.54651315543	0
0.0637654284012	2.5465381667	0
0.0637660556927	2.54656317798	0
0.0637666829841	2.54658818926	0
0.0637673102755	2.54661320053	0
0.063767937567	2.5466382118	0
0.0637685648584	2.54666322308	0
0.0637691921498	2.54668823435	0
0.0637698194412	2.54671324562	0
0.0637704467327	2.54673825689	0
0.0637710740241	2.54676326816	0
0.0637717013155	2.54678827943	0
0.063772328607	2.5468132907	0
0.0637729558984	2.54683830197	0
0.0637735831898	2.54686331323	0
0.0637742104812	2.5468883245	0
0.0637748377727	2.54691333576	0
0.0637754650641	2.54693834703	0
0.0637760923555	2.54696335829	0
0.063776719647	2.54698836955	0
0.0637773469384	2.54701338082	0
0.0637779742298	2.54703839208	0
0.0637786015213	2.54706340334	0
0.0637792288127	2.5470884146	0
0.0637798561041	2.54711342585	0
0.0637804833955	2.54713843711	0
0.063781110687	2.54716344837	0
0.0637817379784	2.54718845963	0
0.0637823652698	2.54721347088	0
0.0637829925613	2.54723848214	0
0.0637836198527	2.54726349339	0
0.0637842471441	2.54728850464	0
0.0637848744356	2.5473135159	0
0.063785501727	2.54733852715	0
0.0637861290184	2.5473635384	0
0.0637867563098	2.54738854965	0
0.0637873836013	2.5474135609	0
0.0637880108927	2.54743857214	0
0.0637886381841	2.54746358339	0
0.0637892654756	2.54748859464	0
0.063789892767	2.54751360588	0
0.0637905200584	2.54753861713	0
0.0637911473498	2.54756362837	0
0.0637917746413	2.54758863962	0
0.0637924019327	2.54761365086	0
0.0637930292241	2.5476386621	0
0.0637936565156	2.54766367334	0
0.063794283807	2.54768868458	0
0.0637949110984	2.54771369582	0
0.0637955383899	2.54773870706	0
0.0637961656813	2.5477637183	0
0.0637967929727	2.54778872954	0
0.0637974202641	2.54781374077	0
0.0637980475556	2.54783875201	0
0.063798674847	2.54786376324	0
0.0637993021384	2.54788877448	0
0.0637999294299	2.54791378571	0
0.0638005567213	2.54793879694	0
0.0638011840127	2.54796380818	0
0.0638018113042	2.54798881941	0
0.0638024385956	2.54801383064	0
0.063803065887	2.54803884187	0
0.0638036931784	2.54806385309	0
0.0638043204699	2.54808886432	0
0.0638049477613	2.54811387555	0
0.0638055750527	2.54813888678	0
0.0638062023442	2.548163898	0
0.0638068296356	2.54818890923	0
0.063807456927	2.54821392045	0
0.0638080842184	2.54823893167	0
0.0638087115099	2.54826394289	0
0.0638093388013	2.54828895412	0
0.0638099660927	2.54831396534	0
0.0638105933842	2.54833897656	0
0.0638112206756	2.54836398777	0
0.063811847967	2.54838899899	0
0.0638124752585	2.54841401021	0
0.0638131025499	2.54843902143	0
0.0638137298413	2.54846403264	0
0.0638143571327	2.54848904386	0
0.0638149844242	2.54851405507	0
0.0638156117156	2.54853906628	0
0.063816239007	2.5485640775	0
0.0638168662985	2.54858908871	0
0.0638174935899	2.54861409992	0
0.0638181208813	2.54863911113	0
0.0638187481728	2.54866412234	0
0.0638193754642	2.54868913355	0
0.0638200027556	2.54871414476	0
0.063820630047	2.54873915596	0
0.0638212573385	2.54876416717	0
0.0638218846299	2.54878917837	0
0.0638225119213	2.54881418958	0
0.0638231392128	2.54883920078	0
0.0638237665042	2.54886421199	0
0.0638243937956	2.54888922319	0
0.063825021087	2.54891423439	0
0.0638256483785	2.54893924559	0
0.0638262756699	2.54896425679	0
0.0638269029613	2.54898926799	0
0.0638275302528	2.54901427919	0
0.0638281575442	2.54903929039	0
0.0638287848356	2.54906430158	0
0.0638294121271	2.54908931278	0
0.0638300394185	2.54911432397	0
0.0638306667099	2.54913933517	0
0.0638312940013	2.54916434636	0
0.0638319212928	2.54918935755	0
0.0638325485842	2.54921436875	0
0.0638331758756	2.54923937994	0
0.0638338031671	2.54926439113	0
0.0638344304585	2.54928940232	0
0.0638350577499	2.5493144135	0
0.0638356850413	2.54933942469	0
0.0638363123328	2.54936443588	0
0.0638369396242	2.54938944707	0
0.0638375669156	2.54941445825	0
0.0638381942071	2.54943946944	0
0.0638388214985	2.54946448062	0
0.0638394487899	2.5494894918	0
0.0638400760814	2.54951450299	0
0.0638407033728	2.54953951417	0
0.0638413306642	2.54956452535	0
0.0638419579556	2.54958953653	0
0.0638425852471	2.54961454771	0
0.0638432125385	2.54963955889	0
0.0638438398299	2.54966457006	0
0.0638444671214	2.54968958124	0
0.0638450944128	2.54971459242	0
0.0638457217042	2.54973960359	0
0.0638463489957	2.54976461477	0
0.0638469762871	2.54978962594	0
0.0638476035785	2.54981463711	0
0.0638482308699	2.54983964828	0
0.0638488581614	2.54986465946	0
0.0638494854528	2.54988967063	0
0.0638501127442	2.5499146818	0
0.0638507400357	2.54993969297	0
0.0638513673271	2.54996470413	0
0.0638519946185	2.5499897153	0
0.0638526219099	2.55001472647	0
0.0638532492014	2.55003973763	0
0.0638538764928	2.5500647488	0
0.0638545037842	2.55008975996	0
0.0638551310757	2.55011477113	0
0.0638557583671	2.55013978229	0
0.0638563856585	2.55016479345	0
0.06385701295	2.55018980461	0
0.0638576402414	2.55021481577	0
0.0638582675328	2.55023982693	0
0.0638588948242	2.55026483809	0
0.0638595221157	2.55028984925	0
0.0638601494071	2.5503148604	0
0.0638607766985	2.55033987156	0
0.06386140399	2.55036488271	0
0.0638620312814	2.55038989387	0
0.0638626585728	2.55041490502	0
0.0638632858643	2.55043991618	0
0.0638639131557	2.55046492733	0
0.0638645404471	2.55048993848	0
0.0638651677385	2.55051494963	0
0.06386579503	2.55053996078	0
0.0638664223214	2.55056497193	0
0.0638670496128	2.55058998308	0
0.0638676769043	2.55061499422	0
0.0638683041957	2.55064000537	0
0.0638689314871	2.55066501652	0
0.0638695587785	2.55069002766	0
0.06387018607	2.55071503881	0
0.0638708133614	2.55074004995	0
0.0638714406528	2.55076506109	0
0.0638720679443	2.55079007223	0
0.0638726952357	2.55081508338	0
0.0638733225271	2.55084009452	0
0.0638739498186	2.55086510566	0
0.06387457711	2.55089011679	0
0.0638752044014	2.55091512793	0
0.0638758316928	2.55094013907	0
0.0638764589843	2.55096515021	0
0.0638770862757	2.55099016134	0
0.0638777135671	2.55101517248	0
0.0638783408586	2.55104018361	0
0.06387896815	2.55106519474	0
0.0638795954414	2.55109020587	0
0.0638802227329	2.55111521701	0
0.0638808500243	2.55114022814	0
0.0638814773157	2.55116523927	0
0.0638821046071	2.5511902504	0
0.0638827318986	2.55121526152	0
0.06388335919	2.55124027265	0
0.0638839864814	2.55126528378	0
0.0638846137729	2.5512902949	0
0.0638852410643	2.55131530603	0
0.0638858683557	2.55134031715	0
0.0638864956471	2.55136532828	0
0.0638871229386	2.5513903394	0
0.06388775023	2.55141535052	0
0.0638883775214	2.55144036164	0
0.0638890048129	2.55146537276	0
0.0638896321043	2.55149038388	0
0.0638902593957	2.551515395	0
0.0638908866872	2.55154040612	0
0.0638915139786	2.55156541724	0
0.06389214127	2.55159042835	0
0.0638927685614	2.55161543947	0
0.0638933958529	2.55164045059	0
0.0638940231443	2.5516654617	0
0.0638946504357	2.55169047281	0
0.0638952777272	2.55171548392	0
0.0638959050186	2.55174049504	0
0.06389653231	2.55176550615	0
0.0638971596014	2.55179051726	0
0.0638977868929	2.55181552837	0
0.0638984141843	2.55184053948	0
0.0638990414757	2.55186555058	0
0.0638996687672	2.55189056169	0
0.0639002960586	2.5519155728	0
0.06390092335	2.5519405839	0
0.0639015506415	2.55196559501	0
0.0639021779329	2.55199060611	0
0.0639028052243	2.55201561721	0
0.0639034325157	2.55204062831	0
0.0639040598072	2.55206563942	0
0.0639046870986	2.55209065052	0
0.06390531439	2.55211566162	0
0.0639059416815	2.55214067272	0
0.0639065689729	2.55216568381	0
0.0639071962643	2.55219069491	0
0.0639078235558	2.55221570601	0
0.0639084508472	2.5522407171	0
0.0639090781386	2.5522657282	0
0.06390970543	2.55229073929	0
0.0639103327215	2.55231575039	0
0.0639109600129	2.55234076148	0
0.0639115873043	2.55236577257	0
0.0639122145958	2.55239078366	0
0.0639128418872	2.55241579475	0
0.0639134691786	2.55244080584	0
0.06391409647	2.55246581693	0
0.0639147237615	2.55249082802	0
0.0639153510529	2.5525158391	0
0.0639159783443	2.55254085019	0
0.0639166056358	2.55256586128	0
0.0639172329272	2.55259087236	0
0.0639178602186	2.55261588344	0
0.0639184875101	2.55264089453	0
0.0639191148015	2.55266590561	0
0.0639197420929	2.55269091669	0
0.0639203693843	2.55271592777	0
0.0639209966758	2.55274093885	0
0.0639216239672	2.55276594993	0
0.0639222512586	2.55279096101	0
0.0639228785501	2.55281597209	0
0.0639235058415	2.55284098316	0
0.0639241331329	2.55286599424	0
0.0639247604244	2.55289100531	0
0.0639253877158	2.55291601639	0
0.0639260150072	2.55294102746	0
0.0639266422986	2.55296603854	0
0.0639272695901	2.55299104961	0
0.0639278968815	2.55301606068	0
0.0639285241729	2.55304107175	0
0.0639291514644	2.55306608282	0
0.0639297787558	2.55309109389	0
0.0639304060472	2.55311610496	0
0.0639310333386	2.55314111602	0
0.0639316606301	2.55316612709	0
0.0639322879215	2.55319113815	0
0.0639329152129	2.55321614922	0
0.0639335425044	2.55324116028	0
0.0639341697958	2.55326617135	0
0.0639347970872	2.55329118241	0
0.0639354243787	2.55331619347	0
0.0639360516701	2.55334120453	0
0.0639366789615	2.55336621559	0
0.0639373062529	2.55339122665	0
0.0639379335444	2.55341623771	0
0.0639385608358	2.55344124877	0
0.0639391881272	2.55346625982	0
0.0639398154187	2.55349127088	0
0.0639404427101	2.55351628193	0
0.0639410700015	2.55354129299	0
0.063941697293	2.55356630404	0
0.0639423245844	2.5535913151	0
0.0639429518758	2.55361632615	0
0.0639435791672	2.5536413372	0
0.0639442064587	2.55366634825	0
0.0639448337501	2.5536913593	0
0.0639454610415	2.55371637035	0
0.063946088333	2.5537413814	0
0.0639467156244	2.55376639244	0
0.0639473429158	2.55379140349	0
0.0639479702072	2.55381641454	0
0.0639485974987	2.55384142558	0
0.0639492247901	2.55386643662	0
0.0639498520815	2.55389144767	0
0.063950479373	2.55391645871	0
0.0639511066644	2.55394146975	0
0.0639517339558	2.55396648079	0
