\relax 
\citation{andrea2010}
\citation{Meyer}
\@writefile{toc}{\contentsline {chapter}{\numberline {2}Battery Management System Architectures}{10}{chapter.2}}
\@writefile{lof}{\addvspace {10\p@ }}
\@writefile{lot}{\addvspace {10\p@ }}
\acronymused{BMS}
\acronymused{EV}
\acronymused{BMS}
\acronymused{DBMS}
\acronymused{DBMS}
\acronymused{ESIC}
\acronymused{BMS}
\acronymused{DBMS}
\@writefile{toc}{\contentsline {section}{\numberline {2.1}Existing BMS Architectures}{10}{section.2.1}}
\newlabel{BMSstateofart}{{2.1}{10}{Existing BMS Architectures\relax }{section.2.1}{}}
\acronymused{BMS}
\acronymused{EV}
\citation{andrea2010}
\citation{andrea2010}
\citation{Brandl}
\@writefile{lof}{\contentsline {figure}{\numberline {2.1}{\ignorespaces Centralised Battery Management System architecture}}{11}{figure.caption.26}}
\newlabel{CBMS}{{2.1}{11}{Centralised Battery Management System architecture\relax }{figure.caption.26}{}}
\undonewlabel{acro:MMU}
\newlabel{acro:MMU}{{2.1}{11}{Existing BMS Architectures\relax }{section*.27}{}}
\acronymused{MMU}
\acronymused{MMU}
\acronymused{MMU}
\acronymused{MMU}
\acronymused{MMU}
\citation{Brandl}
\citation{Brandl}
\acronymused{MMU}
\undonewlabel{acro:PMU}
\newlabel{acro:PMU}{{2.1}{12}{Existing BMS Architectures\relax }{section*.28}{}}
\acronymused{PMU}
\undonewlabel{acro:CAN}
\newlabel{acro:CAN}{{2.1}{12}{Existing BMS Architectures\relax }{section*.29}{}}
\acronymused{CAN}
\acronymused{PMU}
\acronymused{MMU}
\acronymused{SOC}
\acronymused{SOH}
\acronymused{RUL}
\acronymused{PMU}
\acronymused{PMU}
\acronymused{VMS}
\acronymused{MMU}
\acronymused{MMU}
\acronymused{PMU}
\acronymused{MMU}
\acronymused{MMU}
\@writefile{lof}{\contentsline {figure}{\numberline {2.2}{\ignorespaces Modular Battery Management System architecture}}{12}{figure.caption.30}}
\newlabel{MBMS}{{2.2}{12}{Modular Battery Management System architecture\relax }{figure.caption.30}{}}
\acronymused{MMU}
\acronymused{MMU}
\acronymused{MMU}
\@writefile{toc}{\contentsline {section}{\numberline {2.2}Novel Distributed Battery Management System}{13}{section.2.2}}
\newlabel{DistributedBMS}{{2.2}{13}{Novel Distributed Battery Management System\relax }{section.2.2}{}}
\acronymused{BMS}
\acronymused{DBMS}
\acronymused{ESIC}
\acronymused{ESIC}
\@writefile{lof}{\contentsline {figure}{\numberline {2.3}{\ignorespaces Distributed Battery Management System architecture}}{13}{figure.caption.31}}
\newlabel{DBMS}{{2.3}{13}{Distributed Battery Management System architecture\relax }{figure.caption.31}{}}
\@writefile{toc}{\contentsline {subsection}{\numberline {2.2.1}Features of DBMS}{14}{subsection.2.2.1}}
\acronymused{DBMS}
\acronymused{DBMS}
\acronymused{ESIC}
\acronymused{ESIC}
\acronymused{SOC}
\acronymused{SOH}
\acronymused{RUL}
\acronymused{DBMS}
\acronymused{BMS}
\acronymused{ESIC}
\undonewlabel{acro:ASIC}
\newlabel{acro:ASIC}{{2.2.1}{14}{Features of DBMS\relax }{section*.32}{}}
\acronymused{ASIC}
\acronymused{ESIC}
\acronymused{ESIC}
\acronymused{ESIC}
\acronymused{ESIC}
\acronymused{BMS}
\acronymused{ESIC}
\acronymused{DBMS}
\acronymused{DBMS}
\acronymused{ESIC}
\acronymused{ESIC}
\undonewlabel{acro:PLC}
\newlabel{acro:PLC}{{2.2.1}{14}{Features of DBMS\relax }{section*.33}{}}
\acronymused{PLC}
\acronymused{DBMS}
\acronymused{DBMS}
\acronymused{DBMS}
\@writefile{toc}{\contentsline {section}{\numberline {2.3}Realization of Distributed Battery Management System}{15}{section.2.3}}
\newlabel{RealizationDBMS}{{2.3}{15}{Realization of Distributed Battery Management System\relax }{section.2.3}{}}
\acronymused{DBMS}
\acronymused{BMS}
\acronymused{ESIC}
\acronymused{DBMS}
\acronymused{ESIC}
\acronymused{ESIC}
\acronymused{ESIC}
\acronymused{DBMS}
\acronymused{ESIC}
\acronymused{ESIC}
\acronymused{DBMS}
\acronymused{DBMS}
\acronymused{SOC}
\acronymused{SOC}
\acronymused{VMS}
\undonewlabel{acro:POST}
\newlabel{acro:POST}{{2.3}{16}{Realization of Distributed Battery Management System\relax }{section*.34}{}}
\acronymused{POST}
\acronymused{POST}
\acronymused{ESIC}
\acronymused{DBMS}
\acronymused{ESIC}
\undonewlabel{acro:HVAC}
\newlabel{acro:HVAC}{{2.3}{16}{Realization of Distributed Battery Management System\relax }{section*.35}{}}
\acronymused{HVAC}
\@writefile{toc}{\contentsline {section}{\numberline {2.4}Block Diagram of ESIC}{16}{section.2.4}}
\newlabel{ESICblocks}{{2.4}{16}{Block Diagram of ESIC\relax }{section.2.4}{}}
\undonewlabel{acro:ADC}
\newlabel{acro:ADC}{{2.4}{16}{Block Diagram of ESIC\relax }{section*.37}{}}
\acronymused{ADC}
\@writefile{lof}{\contentsline {figure}{\numberline {2.4}{\ignorespaces Block diagram of ESIC.\relax }}{17}{figure.caption.36}}
\newlabel{smartcellesic}{{2.4}{17}{Block diagram of ESIC.\relax \relax }{figure.caption.36}{}}
\acronymused{ESIC}
\acronymused{ESIC}
\acronymused{SOC}
\acronymused{SOH}
\acronymused{RUL}
\acronymused{SOA}
\acronymused{ESIC}
\acronymused{ESIC}
\acronymused{ESIC}
\acronymused{DBMS}
\@writefile{toc}{\contentsline {section}{\numberline {2.5}Summary}{18}{section.2.5}}
\newlabel{Summary}{{2.5}{18}{Summary\relax }{section.2.5}{}}
\acronymused{DBMS}
\acronymused{BMS}
\acronymused{DBMS}
\@writefile{lot}{\contentsline {table}{\numberline {2.1}{\ignorespaces Comparision between different \ac {BMS} architectures.\relax }}{18}{table.caption.38}}
\acronymused{BMS}
\newlabel{tab:myfirsttable}{{2.1}{18}{Comparision between different \ac {BMS} architectures.\relax \relax }{table.caption.38}{}}
\@setckpt{content/BMSsystem}{
\setcounter{page}{19}
\setcounter{equation}{0}
\setcounter{enumi}{0}
\setcounter{enumii}{0}
\setcounter{enumiii}{0}
\setcounter{enumiv}{0}
\setcounter{footnote}{0}
\setcounter{mpfootnote}{0}
\setcounter{part}{0}
\setcounter{chapter}{2}
\setcounter{section}{5}
\setcounter{subsection}{0}
\setcounter{subsubsection}{0}
\setcounter{paragraph}{0}
\setcounter{subparagraph}{0}
\setcounter{figure}{4}
\setcounter{table}{1}
\setcounter{ContinuedFloat}{0}
\setcounter{float@type}{16}
\setcounter{algorithm}{0}
\setcounter{parentequation}{0}
\setcounter{ALG@line}{0}
\setcounter{ALG@rem}{0}
\setcounter{ALG@nested}{0}
\setcounter{ALG@Lnr}{2}
\setcounter{ALG@blocknr}{10}
\setcounter{ALG@storecount}{0}
\setcounter{ALG@tmpcounter}{0}
\setcounter{lstnumber}{1}
\setcounter{LT@tables}{0}
\setcounter{LT@chunks}{0}
\setcounter{subfigure}{0}
\setcounter{lofdepth}{1}
\setcounter{subtable}{0}
\setcounter{lotdepth}{1}
\setcounter{Item}{0}
\setcounter{Hfootnote}{0}
\setcounter{bookmark@seq@number}{19}
\setcounter{pp@next@reset}{0}
\setcounter{lastBattery}{0}
\setcounter{lstlisting}{0}
\setcounter{section@level}{1}
}
