\relax 
\providecommand\hyper@newdestlabel[2]{}
\citation{Cao2008}
\citation{Cao2008}
\citation{Cao2008}
\@writefile{toc}{\contentsline {chapter}{\numberline {2}Related Work}{7}{chapter.2}}
\@writefile{lof}{\addvspace {10\p@ }}
\@writefile{lot}{\addvspace {10\p@ }}
\acronymused{BMS}
\@writefile{toc}{\contentsline {section}{\numberline {2.1}Cell Balancing and PWM}{7}{section.2.1}}
\@writefile{lof}{\contentsline {figure}{\numberline {2.1}{\ignorespaces PWM Controlled Shunting \cite  {Cao2008}\relax }}{7}{figure.caption.13}}
\newlabel{CBMS}{{2.1}{7}{PWM Controlled Shunting \cite {Cao2008}\relax }{figure.caption.13}{}}
\citation{Hsieh2002}
\citation{Hsieh2002}
\citation{Hsieh2002}
\citation{Brandl2012}
\citation{Brandl2012}
\citation{Brandl2012}
\@writefile{lof}{\contentsline {figure}{\numberline {2.2}{\ignorespaces Block diagram of PWM controller \cite  {Hsieh2002} \relax }}{8}{figure.caption.14}}
\newlabel{CBMS}{{2.2}{8}{Block diagram of PWM controller \cite {Hsieh2002} \relax }{figure.caption.14}{}}
\citation{ourpaper2013}
\@writefile{lof}{\contentsline {figure}{\numberline {2.3}{\ignorespaces Hierarchical architecture of the BMS \cite  {Brandl2012}.\relax }}{9}{figure.caption.15}}
\newlabel{CBMS}{{2.3}{9}{Hierarchical architecture of the BMS \cite {Brandl2012}.\relax }{figure.caption.15}{}}
\citation{ourpaper2013}
\citation{ourpaper2013}
\citation{Nishijima2000}
\citation{Nishijima2000}
\citation{Nishijima2000}
\citation{Steinhorst2014}
\@writefile{lof}{\contentsline {figure}{\numberline {2.4}{\ignorespaces Modular charge transfer circuit \cite  {ourpaper2013}.\relax }}{10}{figure.caption.16}}
\newlabel{CBMS}{{2.4}{10}{Modular charge transfer circuit \cite {ourpaper2013}.\relax }{figure.caption.16}{}}
\citation{Steinhorst2014}
\citation{Steinhorst2014}
\@writefile{lof}{\contentsline {figure}{\numberline {2.5}{\ignorespaces Principle of PWM controlled battery balancing system \cite  {Nishijima2000}.\relax }}{11}{figure.caption.17}}
\newlabel{CBMS}{{2.5}{11}{Principle of PWM controlled battery balancing system \cite {Nishijima2000}.\relax }{figure.caption.17}{}}
\@writefile{lof}{\contentsline {figure}{\numberline {2.6}{\ignorespaces Embedded Battery Management (EBM) Architecture \cite  {Steinhorst2014}\relax }}{11}{figure.caption.18}}
\newlabel{CBMS}{{2.6}{11}{Embedded Battery Management (EBM) Architecture \cite {Steinhorst2014}\relax }{figure.caption.18}{}}
\@setckpt{content/BMSsystem}{
\setcounter{page}{12}
\setcounter{equation}{0}
\setcounter{enumi}{0}
\setcounter{enumii}{0}
\setcounter{enumiii}{0}
\setcounter{enumiv}{0}
\setcounter{footnote}{0}
\setcounter{mpfootnote}{0}
\setcounter{part}{0}
\setcounter{chapter}{2}
\setcounter{section}{1}
\setcounter{subsection}{0}
\setcounter{subsubsection}{0}
\setcounter{paragraph}{0}
\setcounter{subparagraph}{0}
\setcounter{figure}{6}
\setcounter{table}{0}
\setcounter{ContinuedFloat}{0}
\setcounter{float@type}{16}
\setcounter{algorithm}{0}
\setcounter{parentequation}{0}
\setcounter{ALG@line}{0}
\setcounter{ALG@rem}{0}
\setcounter{ALG@nested}{0}
\setcounter{ALG@Lnr}{2}
\setcounter{ALG@blocknr}{10}
\setcounter{ALG@storecount}{0}
\setcounter{ALG@tmpcounter}{0}
\setcounter{lstnumber}{1}
\setcounter{subfigure}{0}
\setcounter{lofdepth}{1}
\setcounter{subtable}{0}
\setcounter{lotdepth}{1}
\setcounter{Item}{0}
\setcounter{Hfootnote}{0}
\setcounter{bookmark@seq@number}{21}
\setcounter{pp@next@reset}{0}
\setcounter{lastBattery}{0}
\setcounter{lstlisting}{0}
\setcounter{section@level}{1}
}
