\relax 
\citation{arduino}
\@writefile{toc}{\contentsline {chapter}{\numberline {4}Implementation}{57}{chapter.4}}
\@writefile{lof}{\addvspace {10\p@ }}
\@writefile{lot}{\addvspace {10\p@ }}
\newlabel{implementation}{{4}{57}{Implementation\relax }{chapter.4}{}}
\@writefile{toc}{\contentsline {section}{\numberline {4.1}Sensor Module}{57}{section.4.1}}
\newlabel{sensorimp}{{4.1}{57}{Sensor Module\relax }{section.4.1}{}}
\@writefile{toc}{\contentsline {subsection}{\numberline {4.1.1}Voltage Measurement}{57}{subsection.4.1.1}}
\newlabel{voltageimp}{{4.1.1}{57}{Voltage Measurement\relax }{subsection.4.1.1}{}}
\acronymused{ADC}
\acronymused{ADC}
\citation{AllegroDS}
\newlabel{cellout}{{4.3}{58}{Voltage Measurement\relax }{equation.4.1.3}{}}
\@writefile{lof}{\contentsline {figure}{\numberline {4.1}{\ignorespaces Connection diagram for voltage measurement module}}{58}{figure.caption.91}}
\newlabel{ardvol}{{4.1}{58}{Connection diagram for voltage measurement module\relax }{figure.caption.91}{}}
\citation{AllegroDS}
\citation{currentsensor}
\citation{currentsensor}
\citation{currentsensor}
\@writefile{toc}{\contentsline {subsection}{\numberline {4.1.2}Current Measurement}{59}{subsection.4.1.2}}
\newlabel{currentmeas}{{4.1.2}{59}{Current Measurement\relax }{subsection.4.1.2}{}}
\@writefile{lof}{\contentsline {figure}{\numberline {4.2}{\ignorespaces Breakout Board of ACS 758 Hall effect current sensor}}{59}{figure.caption.92}}
\newlabel{acs758}{{4.2}{59}{Breakout Board of ACS 758 Hall effect current sensor\relax }{figure.caption.92}{}}
\citation{therm}
\@writefile{lof}{\contentsline {figure}{\numberline {4.3}{\ignorespaces ACS758 current sensor measuring the battery pack current and connected to Arduino.\relax }}{60}{figure.caption.93}}
\newlabel{halltransfer}{{4.3}{60}{ACS758 current sensor measuring the battery pack current and connected to Arduino.\relax \relax }{figure.caption.93}{}}
\@writefile{toc}{\contentsline {subsection}{\numberline {4.1.3}Temperature Measurement}{61}{subsection.4.1.3}}
\newlabel{tempimp}{{4.1.3}{61}{Temperature Measurement\relax }{subsection.4.1.3}{}}
\newlabel{firstordertherm}{{4.6}{61}{Temperature Measurement\relax }{equation.4.1.6}{}}
\acronymused{PTC}
\undonewlabel{acro:NTC}
\newlabel{acro:NTC}{{4.1.3}{61}{Temperature Measurement\relax }{section*.94}{}}
\acronymused{NTC}
\@writefile{lof}{\contentsline {figure}{\numberline {4.4}{\ignorespaces Voltage divider network for measuring thermistor resistance.\relax }}{61}{figure.caption.95}}
\newlabel{voltagedivider}{{4.4}{61}{Voltage divider network for measuring thermistor resistance.\relax \relax }{figure.caption.95}{}}
\newlabel{therm}{{4.8}{61}{Temperature Measurement\relax }{equation.4.1.8}{}}
\citation{engelhardt2008ltspice}
\citation{guide1998mathworks}
\newlabel{SH}{{4.9}{62}{Temperature Measurement\relax }{equation.4.1.9}{}}
\acronymused{NTC}
\@writefile{toc}{\contentsline {section}{\numberline {4.2}Cell Balancing Module}{62}{section.4.2}}
\newlabel{cellbalimp}{{4.2}{62}{Cell Balancing Module\relax }{section.4.2}{}}
\undonewlabel{acro:DAC}
\newlabel{acro:DAC}{{4.2}{62}{Cell Balancing Module\relax }{section*.96}{}}
\acronymused{DAC}
\@writefile{lof}{\contentsline {figure}{\numberline {4.5}{\ignorespaces Schematic of the single cell module modelled in LTspice IV.\relax }}{63}{figure.caption.97}}
\newlabel{spiceckt}{{4.5}{63}{Schematic of the single cell module modelled in LTspice IV.\relax \relax }{figure.caption.97}{}}
\newlabel{indcal}{{4.15}{63}{Cell Balancing Module\relax }{equation.4.2.15}{}}
\citation{kutkut}
\citation{kutkut}
\citation{sybille2001simpower}
\citation{miller2008modeling}
\newlabel{lval}{{4.17}{64}{Cell Balancing Module\relax }{equation.4.2.17}{}}
\citation{ourpaper}
\@writefile{lof}{\contentsline {figure}{\numberline {4.6}{\ignorespaces LTspice simulation of battery pack}}{65}{figure.caption.98}}
\newlabel{serbatltspice}{{4.6}{65}{LTspice simulation of battery pack\relax }{figure.caption.98}{}}
\citation{A123}
\citation{mosfet}
\@writefile{lof}{\contentsline {figure}{\numberline {4.7}{\ignorespaces Model of single cell block in MATLAB}}{66}{figure.caption.99}}
\newlabel{cellmatlab}{{4.7}{66}{Model of single cell block in MATLAB\relax }{figure.caption.99}{}}
\citation{ncp1402}
\citation{ncp1402}
\citation{ncp1402}
\@writefile{toc}{\contentsline {section}{\numberline {4.3}Power supply Module}{67}{section.4.3}}
\undonewlabel{acro:PFM}
\newlabel{acro:PFM}{{4.3}{67}{Power supply Module\relax }{section*.101}{}}
\acronymused{PFM}
\acronymused{PFM}
\citation{break}
\citation{break}
\citation{zigbee}
\citation{ferrari2008non}
\citation{ez430}
\@writefile{lof}{\contentsline {figure}{\numberline {4.8}{\ignorespaces Block Diagram of NCP1402 Micropower Switching Regulator}}{68}{figure.caption.100}}
\newlabel{ncp}{{4.8}{68}{Block Diagram of NCP1402 Micropower Switching Regulator\relax }{figure.caption.100}{}}
\@writefile{lof}{\contentsline {figure}{\numberline {4.9}{\ignorespaces Breakout board for the 5V Step up converter}}{68}{figure.caption.102}}
\newlabel{breakoutboardpc}{{4.9}{68}{Breakout board for the 5V Step up converter\relax }{figure.caption.102}{}}
\citation{ez430}
\citation{ez430}
\@writefile{toc}{\contentsline {section}{\numberline {4.4}Communication Module}{69}{section.4.4}}
\acronymused{PLC}
\@writefile{lof}{\contentsline {figure}{\numberline {4.10}{\ignorespaces TI wireless development tool}}{69}{figure.caption.103}}
\newlabel{ez430rf2500}{{4.10}{69}{TI wireless development tool\relax }{figure.caption.103}{}}
\@writefile{toc}{\contentsline {section}{\numberline {4.5}Summary}{69}{section.4.5}}
\@writefile{lot}{\contentsline {table}{\numberline {4.1}{\ignorespaces Summary of Implementation methods for ESIC blocks\relax }}{70}{table.caption.104}}
\newlabel{imp}{{4.1}{70}{Summary of Implementation methods for ESIC blocks\relax \relax }{table.caption.104}{}}
\@setckpt{content/Implementation1}{
\setcounter{page}{71}
\setcounter{equation}{18}
\setcounter{enumi}{0}
\setcounter{enumii}{0}
\setcounter{enumiii}{0}
\setcounter{enumiv}{0}
\setcounter{footnote}{0}
\setcounter{mpfootnote}{0}
\setcounter{part}{0}
\setcounter{chapter}{4}
\setcounter{section}{5}
\setcounter{subsection}{0}
\setcounter{subsubsection}{0}
\setcounter{paragraph}{0}
\setcounter{subparagraph}{0}
\setcounter{figure}{10}
\setcounter{table}{1}
\setcounter{ContinuedFloat}{0}
\setcounter{float@type}{16}
\setcounter{algorithm}{0}
\setcounter{parentequation}{0}
\setcounter{ALG@line}{0}
\setcounter{ALG@rem}{0}
\setcounter{ALG@nested}{0}
\setcounter{ALG@Lnr}{2}
\setcounter{ALG@blocknr}{10}
\setcounter{ALG@storecount}{0}
\setcounter{ALG@tmpcounter}{0}
\setcounter{lstnumber}{1}
\setcounter{LT@tables}{0}
\setcounter{LT@chunks}{0}
\setcounter{subfigure}{0}
\setcounter{lofdepth}{1}
\setcounter{subtable}{0}
\setcounter{lotdepth}{1}
\setcounter{Item}{0}
\setcounter{Hfootnote}{0}
\setcounter{bookmark@seq@number}{56}
\setcounter{pp@next@reset}{0}
\setcounter{lastBattery}{0}
\setcounter{lstlisting}{0}
\setcounter{section@level}{1}
}
