\relax 
\providecommand\hyper@newdestlabel[2]{}
\@writefile{toc}{\contentsline {chapter}{\numberline {4}Design and Implementation}{18}{chapter.4}}
\@writefile{lof}{\addvspace {10\p@ }}
\@writefile{lot}{\addvspace {10\p@ }}
\newlabel{implementation}{{4}{18}{Design and Implementation}{chapter.4}{}}
\@writefile{toc}{\contentsline {section}{\numberline {4.1}Overall System Design}{18}{section.4.1}}
\citation{OlimexUserMan}
\citation{OlimexUserMan}
\citation{OlimexUserMan}
\@writefile{lof}{\contentsline {figure}{\numberline {4.1}{\ignorespaces Layer interaction in an overall system design\relax }}{19}{figure.caption.26}}
\newlabel{voltagemeasurement}{{4.1}{19}{Layer interaction in an overall system design\relax }{figure.caption.26}{}}
\@writefile{lot}{\contentsline {table}{\numberline {4.1}{\ignorespaces Summary of layered architecture design.\relax }}{19}{table.caption.27}}
\newlabel{imp}{{4.1}{19}{Summary of layered architecture design.\relax }{table.caption.27}{}}
\@writefile{toc}{\contentsline {section}{\numberline {4.2}Hardware}{19}{section.4.2}}
\@writefile{toc}{\contentsline {subsection}{\numberline {4.2.1}STM32E407 Olimex development board}{20}{subsection.4.2.1}}
\@writefile{lof}{\contentsline {figure}{\numberline {4.2}{\ignorespaces STM32-E407 \cite  {OlimexUserMan}\relax }}{20}{figure.caption.28}}
\newlabel{voltagemeasurement}{{4.2}{20}{STM32-E407 \cite {OlimexUserMan}\relax }{figure.caption.28}{}}
\@writefile{toc}{\contentsline {subsubsection}{Features}{20}{section*.29}}
\citation{DataSheet}
\@writefile{toc}{\contentsline {subsection}{\numberline {4.2.2}Microcontroller STM32F407ZGT6}{21}{subsection.4.2.2}}
\@writefile{toc}{\contentsline {section}{\numberline {4.3}Software}{21}{section.4.3}}
\citation{API}
\@writefile{toc}{\contentsline {subsection}{\numberline {4.3.1}Command Structure and PWM Channels}{22}{subsection.4.3.1}}
\@writefile{lot}{\contentsline {table}{\numberline {4.2}{\ignorespaces Command structure for the request related to PWM signal opeartion.\relax }}{22}{table.caption.30}}
\newlabel{imp}{{4.2}{22}{Command structure for the request related to PWM signal opeartion.\relax }{table.caption.30}{}}
\@writefile{lot}{\contentsline {table}{\numberline {4.3}{\ignorespaces Constant value for various PWM channels used in different APIs.\relax }}{22}{table.caption.31}}
\newlabel{imp}{{4.3}{22}{Constant value for various PWM channels used in different APIs.\relax }{table.caption.31}{}}
\@writefile{toc}{\contentsline {subsection}{\numberline {4.3.2}Application Layer}{22}{subsection.4.3.2}}
\@writefile{toc}{\contentsline {subsubsection}{Application Program Interfaces (APIs)}{23}{section*.32}}
\@writefile{lot}{\contentsline {table}{\numberline {4.4}{\ignorespaces API format for initializing all the PWM channels.\relax }}{23}{table.caption.33}}
\newlabel{imp}{{4.4}{23}{API format for initializing all the PWM channels.\relax }{table.caption.33}{}}
\@writefile{toc}{\contentsline {subsubsection}{Implementation}{23}{section*.34}}
\@writefile{lof}{\contentsline {figure}{\numberline {4.3}{\ignorespaces PWM\_Init\relax }}{24}{figure.caption.35}}
\newlabel{voltagemeasurement}{{4.3}{24}{PWM\_Init\relax }{figure.caption.35}{}}
\@writefile{lof}{\contentsline {figure}{\numberline {4.4}{\ignorespaces PWM initialization pattern\relax }}{24}{figure.caption.36}}
\newlabel{voltagemeasurement}{{4.4}{24}{PWM initialization pattern\relax }{figure.caption.36}{}}
\@writefile{lot}{\contentsline {table}{\numberline {4.5}{\ignorespaces API format for defining the pattern for all the PWM channels at a given time instance t \SI {}{\micro \second }.\relax }}{25}{table.caption.37}}
\newlabel{imp}{{4.5}{25}{API format for defining the pattern for all the PWM channels at a given time instance t \SI {}{\micro \second }.\relax }{table.caption.37}{}}
\@writefile{toc}{\contentsline {subsubsection}{Implementation}{25}{section*.38}}
\@writefile{lof}{\contentsline {figure}{\numberline {4.5}{\ignorespaces PWM pattern define format\relax }}{26}{figure.caption.39}}
\newlabel{voltagemeasurement}{{4.5}{26}{PWM pattern define format\relax }{figure.caption.39}{}}
\@writefile{lof}{\contentsline {figure}{\numberline {4.6}{\ignorespaces PWM pattern at \SI {100}{\micro \second }.\relax }}{26}{figure.caption.40}}
\newlabel{voltagemeasurement}{{4.6}{26}{PWM pattern at \SI {100}{\micro \second }.\relax }{figure.caption.40}{}}
\@writefile{lot}{\contentsline {table}{\numberline {4.6}{\ignorespaces API format to trigger the PWM signal generation.\relax }}{27}{table.caption.42}}
\newlabel{imp}{{4.6}{27}{API format to trigger the PWM signal generation.\relax }{table.caption.42}{}}
\@writefile{lof}{\contentsline {figure}{\numberline {4.7}{\ignorespaces PWM channel 1 and 2 pattern at various time instances.\relax }}{28}{figure.caption.41}}
\newlabel{voltagemeasurement}{{4.7}{28}{PWM channel 1 and 2 pattern at various time instances.\relax }{figure.caption.41}{}}
\@writefile{toc}{\contentsline {subsubsection}{Implementation}{28}{section*.43}}
\@writefile{lof}{\contentsline {figure}{\numberline {4.8}{\ignorespaces PWM\_Start\relax }}{29}{figure.caption.44}}
\newlabel{voltagemeasurement}{{4.8}{29}{PWM\_Start\relax }{figure.caption.44}{}}
\@writefile{lot}{\contentsline {table}{\numberline {4.7}{\ignorespaces API format to stop the PWM operation permanently.\relax }}{29}{table.caption.46}}
\newlabel{imp}{{4.7}{29}{API format to stop the PWM operation permanently.\relax }{table.caption.46}{}}
\@writefile{lof}{\contentsline {figure}{\numberline {4.9}{\ignorespaces PWM start and its pattern.\relax }}{30}{figure.caption.45}}
\newlabel{voltagemeasurement}{{4.9}{30}{PWM start and its pattern.\relax }{figure.caption.45}{}}
\@writefile{lof}{\contentsline {figure}{\numberline {4.10}{\ignorespaces PWM\_Stop\relax }}{30}{figure.caption.48}}
\newlabel{voltagemeasurement}{{4.10}{30}{PWM\_Stop\relax }{figure.caption.48}{}}
\@writefile{toc}{\contentsline {subsubsection}{Implementation}{30}{section*.47}}
\@writefile{toc}{\contentsline {subsection}{\numberline {4.3.3}Middleware Layer}{31}{subsection.4.3.3}}
\@writefile{toc}{\contentsline {subsubsection}{Encoding}{31}{section*.49}}
\@writefile{toc}{\contentsline {subsubsection}{Design}{31}{section*.50}}
\@writefile{lot}{\contentsline {table}{\numberline {4.8}{\ignorespaces Command format for encryption and decryption in the middleware layer.\relax }}{31}{table.caption.51}}
\newlabel{imp}{{4.8}{31}{Command format for encryption and decryption in the middleware layer.\relax }{table.caption.51}{}}
\@writefile{toc}{\contentsline {subsubsection}{Implementation}{32}{section*.52}}
\@writefile{toc}{\contentsline {subsubsection}{Decoding}{32}{section*.53}}
\@writefile{toc}{\contentsline {subsubsection}{Implementation}{32}{section*.54}}
\@writefile{toc}{\contentsline {subsubsection}{Storing the information}{32}{section*.55}}
\@writefile{toc}{\contentsline {subsubsection}{Design}{32}{section*.56}}
\@writefile{toc}{\contentsline {subsubsection}{Implementation}{32}{section*.58}}
\@writefile{lof}{\contentsline {figure}{\numberline {4.11}{\ignorespaces Middleware Layer\relax }}{33}{figure.caption.57}}
\newlabel{voltagemeasurement}{{4.11}{33}{Middleware Layer\relax }{figure.caption.57}{}}
\@writefile{lot}{\contentsline {table}{\numberline {4.9}{\ignorespaces Number of SPI frames required for each API.\relax }}{34}{table.caption.59}}
\newlabel{imp}{{4.9}{34}{Number of SPI frames required for each API.\relax }{table.caption.59}{}}
\@writefile{toc}{\contentsline {subsection}{\numberline {4.3.4}Driver Layer}{34}{subsection.4.3.4}}
\@writefile{toc}{\contentsline {subsubsection}{PWM Initialization}{34}{section*.60}}
\@writefile{toc}{\contentsline {subsubsection}{Design}{34}{section*.61}}
\@writefile{toc}{\contentsline {subsubsection}{Implementation}{34}{section*.62}}
\@writefile{toc}{\contentsline {subsubsection}{PWM Signals Generation}{35}{section*.63}}
\@writefile{toc}{\contentsline {subsubsection}{Design}{35}{section*.64}}
\@writefile{toc}{\contentsline {subsubsection}{Implementation}{35}{section*.65}}
\@writefile{lof}{\contentsline {figure}{\numberline {4.12}{\ignorespaces PWM generation process in the slave controller\relax }}{36}{figure.caption.66}}
\newlabel{voltagemeasurement}{{4.12}{36}{PWM generation process in the slave controller\relax }{figure.caption.66}{}}
\@writefile{toc}{\contentsline {subsection}{\numberline {4.3.5}Command Acceptance and Acknowledgement}{37}{subsection.4.3.5}}
\@writefile{toc}{\contentsline {subsubsection}{Design}{37}{section*.67}}
\@writefile{lof}{\contentsline {figure}{\numberline {4.13}{\ignorespaces Command sequence and acknowledgement\relax }}{37}{figure.caption.68}}
\newlabel{voltagemeasurement}{{4.13}{37}{Command sequence and acknowledgement\relax }{figure.caption.68}{}}
\@writefile{toc}{\contentsline {subsubsection}{Implementation}{37}{section*.69}}
\@writefile{toc}{\contentsline {subsection}{\numberline {4.3.6}Stop PWM}{38}{subsection.4.3.6}}
\@writefile{toc}{\contentsline {subsubsection}{Design}{38}{section*.70}}
\@writefile{lof}{\contentsline {figure}{\numberline {4.14}{\ignorespaces Flowchart of PWM stop operation\relax }}{38}{figure.caption.71}}
\newlabel{voltagemeasurement}{{4.14}{38}{Flowchart of PWM stop operation\relax }{figure.caption.71}{}}
\@writefile{toc}{\contentsline {subsubsection}{Implementation}{39}{section*.72}}
\@setckpt{content/Implementation1}{
\setcounter{page}{40}
\setcounter{equation}{0}
\setcounter{enumi}{4}
\setcounter{enumii}{0}
\setcounter{enumiii}{0}
\setcounter{enumiv}{0}
\setcounter{footnote}{0}
\setcounter{mpfootnote}{0}
\setcounter{part}{0}
\setcounter{chapter}{4}
\setcounter{section}{3}
\setcounter{subsection}{6}
\setcounter{subsubsection}{0}
\setcounter{paragraph}{0}
\setcounter{subparagraph}{0}
\setcounter{figure}{14}
\setcounter{table}{9}
\setcounter{ContinuedFloat}{0}
\setcounter{float@type}{16}
\setcounter{algorithm}{0}
\setcounter{parentequation}{0}
\setcounter{ALG@line}{0}
\setcounter{ALG@rem}{0}
\setcounter{ALG@nested}{0}
\setcounter{ALG@Lnr}{2}
\setcounter{ALG@blocknr}{10}
\setcounter{ALG@storecount}{0}
\setcounter{ALG@tmpcounter}{0}
\setcounter{lstnumber}{6}
\setcounter{subfigure}{0}
\setcounter{lofdepth}{1}
\setcounter{subtable}{0}
\setcounter{lotdepth}{1}
\setcounter{Item}{4}
\setcounter{Hfootnote}{0}
\setcounter{bookmark@seq@number}{45}
\setcounter{pp@next@reset}{0}
\setcounter{lastBattery}{0}
\setcounter{lstlisting}{0}
\setcounter{section@level}{3}
}
