\relax 
\providecommand\hyper@newdestlabel[2]{}
\citation{BatBal}
\citation{MicroChipCellBal}
\citation{BatManSys}
\citation{Stanislav2012}
\@writefile{toc}{\contentsline {chapter}{\numberline {1}Introduction}{1}{chapter.1}}
\@writefile{lof}{\addvspace {10\p@ }}
\@writefile{lot}{\addvspace {10\p@ }}
\newlabel{Introduction}{{1}{1}{Introduction}{chapter.1}{}}
\@writefile{toc}{\contentsline {section}{\numberline {1.1}Battery Management System (BMS)}{1}{section.1.1}}
\@writefile{toc}{\contentsline {subsection}{\numberline {1.1.1}Cell Balancing}{1}{subsection.1.1.1}}
\newlabel{cellbalancing}{{1.1.1}{1}{Cell Balancing}{subsection.1.1.1}{}}
\AC@undonewlabel{acro:SOC}
\newlabel{acro:SOC}{{1.1.1}{1}{Cell Balancing}{section*.8}{}}
\acronymused{SOC}
\citation{Daowd}
\citation{moore2001}
\citation{Waichung}
\citation{Phung}
\citation{JianCao}
\AC@undonewlabel{acro:BMS}
\newlabel{acro:BMS}{{1.1.1}{2}{Cell Balancing}{section*.9}{}}
\acronymused{BMS}
\acronymused{MOSFET}
\@writefile{lof}{\contentsline {figure}{\numberline {1.1}{\ignorespaces Passive cell balancing}}{2}{figure.caption.10}}
\providecommand*\caption@xref[2]{\@setref\relax\@undefined{#1}}
\newlabel{passive}{{1.1}{2}{Passive cell balancing}{figure.caption.10}{}}
\citation{Kobzev}
\citation{Baughman}
\citation{Pascual}
\citation{kutkut}
\citation{Sang}
\citation{NI}
\@writefile{lof}{\contentsline {figure}{\numberline {1.2}{\ignorespaces Active cell balancing}}{3}{figure.caption.11}}
\newlabel{indbal}{{1.2}{3}{Active cell balancing}{figure.caption.11}{}}
\citation{NI}
\@writefile{toc}{\contentsline {section}{\numberline {1.2}What is PWM and why is it used?}{4}{section.1.2}}
\@writefile{toc}{\contentsline {section}{\numberline {1.3}PWM Signals for cell balancing}{4}{section.1.3}}
\acronymused{MOSFET}
\@writefile{toc}{\contentsline {subsection}{\numberline {1.3.1}Why PWM is required and how is it useful?}{4}{subsection.1.3.1}}
\@writefile{toc}{\contentsline {section}{\numberline {1.4}Complexity in generating PWM}{4}{section.1.4}}
\AC@undonewlabel{acro:PWM}
\newlabel{acro:PWM}{{1.4}{4}{Complexity in generating PWM}{section*.12}{}}
\acronymused{PWM}
\citation{IntroPWM}
\@writefile{toc}{\contentsline {subsection}{\numberline {1.4.1}Complex Overlapping Signals}{5}{subsection.1.4.1}}
\@writefile{toc}{\contentsline {subsection}{\numberline {1.4.2}Computational effort}{5}{subsection.1.4.2}}
\acronymused{BMS}
\@writefile{toc}{\contentsline {subsection}{\numberline {1.4.3}Power Consumption}{5}{subsection.1.4.3}}
\@writefile{toc}{\contentsline {subsection}{\numberline {1.4.4}IO ports saturation}{5}{subsection.1.4.4}}
\@writefile{toc}{\contentsline {subsection}{\numberline {1.4.5}Extensibility}{5}{subsection.1.4.5}}
\@writefile{toc}{\contentsline {section}{\numberline {1.5}Contributions}{5}{section.1.5}}
\newlabel{contribution}{{1.5}{5}{Contributions}{section.1.5}{}}
\@writefile{toc}{\contentsline {section}{\numberline {1.6}Organization}{6}{section.1.6}}
\newlabel{sec:Outline}{{1.6}{6}{Organization}{section.1.6}{}}
\acronymused{BMS}
\@setckpt{content/Introduction}{
\setcounter{page}{7}
\setcounter{equation}{0}
\setcounter{enumi}{0}
\setcounter{enumii}{0}
\setcounter{enumiii}{0}
\setcounter{enumiv}{0}
\setcounter{footnote}{0}
\setcounter{mpfootnote}{0}
\setcounter{part}{0}
\setcounter{chapter}{1}
\setcounter{section}{6}
\setcounter{subsection}{0}
\setcounter{subsubsection}{0}
\setcounter{paragraph}{0}
\setcounter{subparagraph}{0}
\setcounter{figure}{2}
\setcounter{table}{0}
\setcounter{ContinuedFloat}{0}
\setcounter{float@type}{16}
\setcounter{algorithm}{0}
\setcounter{parentequation}{0}
\setcounter{ALG@line}{0}
\setcounter{ALG@rem}{0}
\setcounter{ALG@nested}{0}
\setcounter{ALG@Lnr}{2}
\setcounter{ALG@blocknr}{10}
\setcounter{ALG@storecount}{0}
\setcounter{ALG@tmpcounter}{0}
\setcounter{lstnumber}{1}
\setcounter{subfigure}{0}
\setcounter{lofdepth}{1}
\setcounter{subtable}{0}
\setcounter{lotdepth}{1}
\setcounter{Item}{0}
\setcounter{Hfootnote}{0}
\setcounter{bookmark@seq@number}{19}
\setcounter{pp@next@reset}{0}
\setcounter{lastBattery}{0}
\setcounter{lstlisting}{0}
\setcounter{section@level}{1}
}
