\relax 
\citation{licompare}
\citation{licompare}
\@writefile{toc}{\contentsline {chapter}{\numberline {1}Introduction}{1}{chapter.1}}
\@writefile{lof}{\addvspace {10\p@ }}
\@writefile{lot}{\addvspace {10\p@ }}
\newlabel{Introduction}{{1}{1}{Introduction\relax }{chapter.1}{}}
\acronymused{EV}
\acronymused{EV}
\@writefile{lof}{\contentsline {figure}{\numberline {1.1}{\ignorespaces Design considerations for batteries in \acfp {EV}}}{1}{figure.caption.14}}
\acronymused{EV}
\providecommand*\caption@xref[2]{\@setref\relax\@undefined{#1}}
\newlabel{desBat}{{1.1}{1}{Design considerations for batteries in \acfp {EV}\relax }{figure.caption.14}{}}
\citation{Brandl}
\citation{chartcell}
\citation{chartcell}
\citation{batuniv}
\citation{Brandl}
\undonewlabel{acro:Ni}
\newlabel{acro:Ni}{{1}{2}{Introduction\relax }{section*.15}{}}
\acronymused{Ni}
\undonewlabel{acro:Li}
\newlabel{acro:Li}{{1}{2}{Introduction\relax }{section*.16}{}}
\acronymused{Li}
\acronymused{Li}
\@writefile{lof}{\contentsline {figure}{\numberline {1.2}{\ignorespaces Chart comparing the specific energy of various cell chemistries}}{2}{figure.caption.17}}
\newlabel{liadv}{{1.2}{2}{Chart comparing the specific energy of various cell chemistries\relax }{figure.caption.17}{}}
\acronymused{Li}
\acronymused{Li}
\undonewlabel{acro:$NiCd$}
\newlabel{acro:$NiCd$}{{1}{2}{Introduction\relax }{section*.18}{}}
\acronymused{$NiCd$}
\acronymused{Ni}
\acronymused{Li}
\acronymused{EV}
\acronymused{Li}
\undonewlabel{acro:$LiFePO_4$}
\newlabel{acro:$LiFePO_4$}{{1}{2}{Introduction\relax }{section*.19}{}}
\acronymused{$LiFePO_4$}
\acronymused{EV}
\citation{EVburning}
\citation{EVburning}
\@writefile{toc}{\contentsline {section}{\numberline {1.1}Battery Complexity in Electric Vehicles}{3}{section.1.1}}
\newlabel{batterycomplexity}{{1.1}{3}{Battery Complexity in Electric Vehicles\relax }{section.1.1}{}}
\acronymused{Li-ion}
\acronymused{EV}
\acronymused{EV}
\acronymused{Li-ion}
\@writefile{lof}{\contentsline {figure}{\numberline {1.3}{\ignorespaces Battery pack of an \ac {EV}}}{3}{figure.caption.20}}
\acronymused{EV}
\newlabel{pack}{{1.3}{3}{Battery pack of an \ac {EV}\relax }{figure.caption.20}{}}
\acronymused{Li-ion}
\acronymused{Li-ion}
\undonewlabel{acro:SOA}
\newlabel{acro:SOA}{{1.1}{3}{Battery Complexity in Electric Vehicles\relax }{section*.21}{}}
\acronymused{SOA}
\acronymused{SOA}
\acronymused{Li-ion}
\citation{andrea2010}
\citation{mpoweruk}
\@writefile{lof}{\contentsline {figure}{\numberline {1.4}{\ignorespaces Remains of an \acf {EV} after explosion of the battery pack due to over charging.}}{4}{figure.caption.22}}
\newlabel{explosion}{{1.4}{4}{Remains of an \acf {EV} after explosion of the battery pack due to over charging}{figure.caption.22}{}}
\acronymused{Li-ion}
\acronymused{Li-ion}
\acronymused{Li-ion}
\citation{andrea2010}
\acronymused{SOC}
\acronymused{SOC}
\@writefile{lof}{\contentsline {figure}{\numberline {1.5}{\ignorespaces Variation of voltages across individual cells in a battery pack.}}{6}{figure.caption.23}}
\newlabel{cellbalance}{{1.5}{6}{Variation of voltages across individual cells in a battery pack}{figure.caption.23}{}}
\acronymused{SOC}
\@writefile{toc}{\contentsline {section}{\numberline {1.2}Battery Management System(BMS)}{7}{section.1.2}}
\newlabel{sec:BMS}{{1.2}{7}{Battery Management System(BMS)\relax }{section.1.2}{}}
\acronymused{BMS}
\acronymused{BMS}
\acronymused{BMS}
\acronymused{SOC}
\acronymused{SOH}
\acronymused{RUL}
\acronymused{BMS}
\acronymused{BMS}
\acronymused{BMS}
\@writefile{toc}{\contentsline {subsection}{\numberline {1.2.1}Functions of a BMS}{7}{subsection.1.2.1}}
\undonewlabel{acro:VMS}
\newlabel{acro:VMS}{{1.2.1}{7}{Functions of a BMS\relax }{section*.24}{}}
\acronymused{VMS}
\@writefile{toc}{\contentsline {subsection}{\numberline {1.2.2}Specification of BMS}{7}{subsection.1.2.2}}
\acronymused{BMS}
\acronymused{BMS}
\acronymused{BMS}
\acronymused{BMS}
\acronymused{SOC}
\acronymused{SOH}
\acronymused{RUL}
\acronymused{BMS}
\acronymused{BMS}
\acronymused{BMS}
\acronymused{BMS}
\acronymused{BMS}
\acronymused{BMS}
\acronymused{BMS}
\acronymused{BMS}
\acronymused{BMS}
\acronymused{BMS}
\acronymused{BMS}
\acronymused{BMS}
\acronymused{BMS}
\acronymused{BMS}
\acronymused{BMS}
\acronymused{BMS}
\acronymused{BMS}
\@writefile{toc}{\contentsline {section}{\numberline {1.3}Contribution}{9}{section.1.3}}
\newlabel{contribution}{{1.3}{9}{Contribution\relax }{section.1.3}{}}
\acronymused{BMS}
\undonewlabel{acro:ESIC}
\newlabel{acro:ESIC}{{1.3}{9}{Contribution\relax }{section*.25}{}}
\acronymused{ESIC}
\acronymused{ESIC}
\@writefile{toc}{\contentsline {section}{\numberline {1.4}Outline}{9}{section.1.4}}
\newlabel{sec:Outline}{{1.4}{9}{Outline\relax }{section.1.4}{}}
\acronymused{BMS}
\acronymused{DBMS}
\acronymused{ESIC}
\acronymused{ESIC}
\acronymused{ESIC}
\@setckpt{content/Introduction}{
\setcounter{page}{10}
\setcounter{equation}{0}
\setcounter{enumi}{0}
\setcounter{enumii}{0}
\setcounter{enumiii}{0}
\setcounter{enumiv}{0}
\setcounter{footnote}{0}
\setcounter{mpfootnote}{0}
\setcounter{part}{0}
\setcounter{chapter}{1}
\setcounter{section}{4}
\setcounter{subsection}{0}
\setcounter{subsubsection}{0}
\setcounter{paragraph}{0}
\setcounter{subparagraph}{0}
\setcounter{figure}{5}
\setcounter{table}{0}
\setcounter{ContinuedFloat}{0}
\setcounter{float@type}{16}
\setcounter{algorithm}{0}
\setcounter{parentequation}{0}
\setcounter{ALG@line}{0}
\setcounter{ALG@rem}{0}
\setcounter{ALG@nested}{0}
\setcounter{ALG@Lnr}{2}
\setcounter{ALG@blocknr}{10}
\setcounter{ALG@storecount}{0}
\setcounter{ALG@tmpcounter}{0}
\setcounter{lstnumber}{1}
\setcounter{LT@tables}{0}
\setcounter{LT@chunks}{0}
\setcounter{subfigure}{0}
\setcounter{lofdepth}{1}
\setcounter{subtable}{0}
\setcounter{lotdepth}{1}
\setcounter{Item}{0}
\setcounter{Hfootnote}{0}
\setcounter{bookmark@seq@number}{12}
\setcounter{pp@next@reset}{0}
\setcounter{lastBattery}{0}
\setcounter{lstlisting}{0}
\setcounter{section@level}{1}
}
