\relax 
\@writefile{toc}{\contentsline {chapter}{\numberline {3}Sensor Module Design of Embedded System IC}{12}{chapter.3}}
\@writefile{lof}{\addvspace {10\p@ }}
\@writefile{lot}{\addvspace {10\p@ }}
\newlabel{sec:ESICdesign}{{3}{12}{Sensor Module Design of Embedded System IC\relax }{chapter.3}{}}
\@writefile{toc}{\contentsline {section}{\numberline {3.1}Voltage Measurement Module}{12}{section.3.1}}
\newlabel{voltagemeasurementmodule}{{3.1}{12}{Voltage Measurement Module\relax }{section.3.1}{}}
\@writefile{lof}{\contentsline {figure}{\numberline {3.1}{\ignorespaces Battery pack of an electric vehicle containing Li-ion cells connected in series to get high voltages.}}{13}{figure.3.1}}
\newlabel{voltagemeasurement}{{3.1}{13}{Battery pack of an electric vehicle containing Li-ion cells connected in series to get high voltages}{figure.3.1}{}}
\@writefile{toc}{\contentsline {subsection}{\numberline {3.1.1}Individual A/D Cell Voltage Measurement}{13}{subsection.3.1.1}}
\@writefile{lof}{\contentsline {figure}{\numberline {3.2}{\ignorespaces Individual cell voltage measurement using Analogue to Digital converter within the ESIC.}}{13}{figure.3.2}}
\newlabel{ADconversion}{{3.2}{13}{Individual cell voltage measurement using Analogue to Digital converter within the ESIC}{figure.3.2}{}}
\citation{Malo2001}
\citation{andrea2010}
\newlabel{ADC}{{3.1}{14}{Individual A/D Cell Voltage Measurement\relax }{equation.3.1.1}{}}
\@writefile{lof}{\contentsline {figure}{\numberline {3.3}{\ignorespaces Transfer characteristic of a 3 bit A/D converter.}}{14}{figure.3.3}}
\newlabel{ADCchar}{{3.3}{14}{Transfer characteristic of a 3 bit A/D converter}{figure.3.3}{}}
\citation{johns1997analog}
\@writefile{lot}{\contentsline {table}{\numberline {3.1}{\ignorespaces Resolution and Accuracy requirements of ADC.}}{15}{table.3.1}}
\newlabel{Davidandrea}{{3.1}{15}{Resolution and Accuracy requirements of ADC}{table.3.1}{}}
\newlabel{VLSB}{{3.2}{15}{Individual A/D Cell Voltage Measurement\relax }{equation.3.1.2}{}}
\citation{CurrentTx}
\@writefile{lot}{\contentsline {table}{\numberline {3.2}{\ignorespaces Comparision of ADC architectures based on speed and accuracy.}}{16}{table.3.2}}
\newlabel{ADclassi}{{3.2}{16}{Comparision of ADC architectures based on speed and accuracy}{table.3.2}{}}
\@writefile{toc}{\contentsline {section}{\numberline {3.2}Current Measurement Module}{16}{section.3.2}}
\newlabel{currentmeasurement}{{3.2}{16}{Current Measurement Module\relax }{section.3.2}{}}
\@writefile{toc}{\contentsline {subsection}{\numberline {3.2.1}Resistive Shunt Current Measurement}{17}{subsection.3.2.1}}
\newlabel{Resistive}{{3.2.1}{17}{Resistive Shunt Current Measurement\relax }{subsection.3.2.1}{}}
\@writefile{lof}{\contentsline {figure}{\numberline {3.4}{\ignorespaces Shunt Resistor Current Measurement.}}{17}{figure.3.4}}
\newlabel{ResCM}{{3.4}{17}{Shunt Resistor Current Measurement}{figure.3.4}{}}
\@writefile{lot}{\contentsline {table}{\numberline {3.3}{\ignorespaces Comparision of high side and low side current sensing.}}{17}{table.3.3}}
\newlabel{Currentsensing}{{3.3}{17}{Comparision of high side and low side current sensing}{table.3.3}{}}
\newlabel{first}{{3.3}{18}{Resistive Shunt Current Measurement\relax }{equation.3.2.3}{}}
\newlabel{powerR}{{3.6}{18}{Resistive Shunt Current Measurement\relax }{equation.3.2.6}{}}
\newlabel{second}{{3.10}{18}{Resistive Shunt Current Measurement\relax }{equation.3.2.10}{}}
\newlabel{offset}{{3.12}{18}{Resistive Shunt Current Measurement\relax }{equation.3.2.12}{}}
\newlabel{Rtemp}{{3.13}{18}{Resistive Shunt Current Measurement\relax }{equation.3.2.13}{}}
\citation{CurrentTx}
\citation{AllegroDS}
\@writefile{toc}{\contentsline {subsection}{\numberline {3.2.2}Hall Effect Current Measurement}{19}{subsection.3.2.2}}
\newlabel{Hall}{{3.2.2}{19}{Hall Effect Current Measurement\relax }{subsection.3.2.2}{}}
\@writefile{lof}{\contentsline {figure}{\numberline {3.5}{\ignorespaces Hall Effect Current Measurement \cite  {AllegroDS}.}}{19}{figure.3.5}}
\newlabel{Hallsensor}{{3.5}{19}{Hall Effect Current Measurement \cite {AllegroDS}}{figure.3.5}{}}
\citation{AllegroDS}
\citation{AllegroDS}
\@writefile{lof}{\contentsline {figure}{\numberline {3.6}{\ignorespaces Transfer Characteristic of Hall Effect Current Measurement \cite  {AllegroDS}.}}{20}{figure.3.6}}
\newlabel{Hallchar}{{3.6}{20}{Transfer Characteristic of Hall Effect Current Measurement \cite {AllegroDS}}{figure.3.6}{}}
\newlabel{powerlossHall}{{3.16}{20}{Hall Effect Current Measurement\relax }{equation.3.2.16}{}}
\@writefile{lot}{\contentsline {table}{\numberline {3.4}{\ignorespaces Comparision of Resistance shunt and Hall effect Current Measurement.}}{21}{table.3.4}}
\newlabel{compresandhall}{{3.4}{21}{Comparision of Resistance shunt and Hall effect Current Measurement}{table.3.4}{}}
\citation{andrea2010}
\citation{battemp}
\@writefile{toc}{\contentsline {section}{\numberline {3.3}Temperature Measurement Module}{22}{section.3.3}}
\newlabel{temperaturemeasurementmodule}{{3.3}{22}{Temperature Measurement Module\relax }{section.3.3}{}}
\@writefile{lof}{\contentsline {figure}{\numberline {3.7}{\ignorespaces Discharge Characteristic of Li-ion cell at various temperatures. \cite  {battemp}.}}{22}{figure.3.7}}
\newlabel{tempchar}{{3.7}{22}{Discharge Characteristic of Li-ion cell at various temperatures. \cite {battemp}}{figure.3.7}{}}
\citation{RTDchar}
\citation{MicroRTD}
\@writefile{toc}{\contentsline {subsection}{\numberline {3.3.1}Resistance Temperature Detectors(RTD)}{23}{subsection.3.3.1}}
\newlabel{Rtemperature}{{3.17}{23}{Resistance Temperature Detectors(RTD)\relax }{equation.3.3.17}{}}
\@writefile{lof}{\contentsline {figure}{\numberline {3.8}{\ignorespaces Resistance of RTD with varying temperature. \cite  {RTDchar}.}}{23}{figure.3.8}}
\newlabel{RTDchar}{{3.8}{23}{Resistance of RTD with varying temperature. \cite {RTDchar}}{figure.3.8}{}}
\citation{MicroRTD}
\citation{MicroRTD}
\citation{MicroRTD}
\citation{Lorentz}
\@writefile{lof}{\contentsline {figure}{\numberline {3.9}{\ignorespaces Flexible Micro RTD \cite  {MicroRTD}.}}{24}{figure.3.9}}
\newlabel{micrortd}{{3.9}{24}{Flexible Micro RTD \cite {MicroRTD}}{figure.3.9}{}}
\@writefile{lof}{\contentsline {figure}{\numberline {3.10}{\ignorespaces Microscopic view of Micro RTD \cite  {MicroRTD}.}}{24}{figure.3.10}}
\newlabel{dimofmicrortd}{{3.10}{24}{Microscopic view of Micro RTD \cite {MicroRTD}}{figure.3.10}{}}
\citation{Lorentz}
\citation{Lorentz}
\citation{Lorentz}
\@writefile{toc}{\contentsline {subsection}{\numberline {3.3.2}Printed Resistive Temperature Sensor}{25}{subsection.3.3.2}}
\@writefile{lof}{\contentsline {figure}{\numberline {3.11}{\ignorespaces Realization of printed temperature sensor \cite  {Lorentz}.}}{25}{figure.3.11}}
\newlabel{printedsensor}{{3.11}{25}{Realization of printed temperature sensor \cite {Lorentz}}{figure.3.11}{}}
\@writefile{lof}{\contentsline {figure}{\numberline {3.12}{\ignorespaces Resistance Vs Temperature Characteristics of printed temperature sensor \cite  {Lorentz}.}}{26}{figure.3.12}}
\newlabel{printreschar}{{3.12}{26}{Resistance Vs Temperature Characteristics of printed temperature sensor \cite {Lorentz}}{figure.3.12}{}}
\@setckpt{content/RelatedWork}{
\setcounter{page}{27}
\setcounter{equation}{19}
\setcounter{enumi}{0}
\setcounter{enumii}{0}
\setcounter{enumiii}{0}
\setcounter{enumiv}{0}
\setcounter{footnote}{0}
\setcounter{mpfootnote}{0}
\setcounter{part}{0}
\setcounter{chapter}{3}
\setcounter{section}{3}
\setcounter{subsection}{2}
\setcounter{subsubsection}{0}
\setcounter{paragraph}{0}
\setcounter{subparagraph}{0}
\setcounter{figure}{12}
\setcounter{table}{4}
\setcounter{float@type}{16}
\setcounter{algorithm}{0}
\setcounter{parentequation}{0}
\setcounter{ALG@line}{0}
\setcounter{ALG@rem}{0}
\setcounter{ALG@nested}{0}
\setcounter{ALG@Lnr}{2}
\setcounter{ALG@blocknr}{10}
\setcounter{ALG@storecount}{0}
\setcounter{ALG@tmpcounter}{0}
\setcounter{lstnumber}{1}
\setcounter{LT@tables}{0}
\setcounter{LT@chunks}{0}
\setcounter{subfigure}{0}
\setcounter{lofdepth}{1}
\setcounter{subtable}{0}
\setcounter{lotdepth}{1}
\setcounter{Item}{0}
\setcounter{Hfootnote}{0}
\setcounter{bookmark@seq@number}{23}
\setcounter{lstlisting}{0}
\setcounter{section@level}{2}
}
