\relax 
\citation{A123}
\citation{Eload}
\@writefile{toc}{\contentsline {chapter}{\numberline {5}Validation and Analysis}{71}{chapter.5}}
\@writefile{lof}{\addvspace {10\p@ }}
\@writefile{lot}{\addvspace {10\p@ }}
\newlabel{results}{{5}{71}{Validation and Analysis\relax }{chapter.5}{}}
\@writefile{toc}{\contentsline {section}{\numberline {5.1}Block level}{71}{section.5.1}}
\newlabel{blocklevel}{{5.1}{71}{Block level\relax }{section.5.1}{}}
\@writefile{toc}{\contentsline {subsection}{\numberline {5.1.1}Voltage Measurement}{71}{subsection.5.1.1}}
\newlabel{volresult}{{5.1.1}{71}{Voltage Measurement\relax }{subsection.5.1.1}{}}
\acronymused{ADC}
\citation{Eload}
\@writefile{lof}{\contentsline {figure}{\numberline {5.1}{\ignorespaces \ac {Li-ion} cell connected to the internal ADC of the Arduino.\relax }}{72}{figure.caption.105}}
\acronymused{Li-ion}
\newlabel{volexpsetup}{{5.1}{72}{\ac {Li-ion} cell connected to the internal ADC of the Arduino.\relax \relax }{figure.caption.105}{}}
\citation{PS}
\@writefile{lof}{\contentsline {figure}{\numberline {5.2}{\ignorespaces Discharge characteristic of Li-ion cell}}{73}{figure.caption.106}}
\newlabel{volplot}{{5.2}{73}{Discharge characteristic of Li-ion cell\relax }{figure.caption.106}{}}
\acronymused{ADC}
\@writefile{toc}{\contentsline {subsection}{\numberline {5.1.2}Current Measurement}{73}{subsection.5.1.2}}
\citation{AllegroDS}
\@writefile{lof}{\contentsline {figure}{\numberline {5.3}{\ignorespaces ACS758 current sensor experimental setup}}{74}{figure.caption.107}}
\newlabel{curexpsetup}{{5.3}{74}{ACS758 current sensor experimental setup\relax }{figure.caption.107}{}}
\@writefile{toc}{\contentsline {subsection}{\numberline {5.1.3}Temperature Measurement}{74}{subsection.5.1.3}}
\citation{memmert}
\@writefile{lof}{\contentsline {figure}{\numberline {5.4}{\ignorespaces Transfer Characteristics of the Hall effect sensor.\relax }}{75}{figure.caption.108}}
\newlabel{halloutput}{{5.4}{75}{Transfer Characteristics of the Hall effect sensor.\relax \relax }{figure.caption.108}{}}
\acronymused{NTC}
\acronymused{NTC}
\@writefile{lof}{\contentsline {figure}{\numberline {5.5}{\ignorespaces Temperature chamber from memmert.\relax }}{76}{figure.caption.109}}
\newlabel{tempsetup}{{5.5}{76}{Temperature chamber from memmert.\relax \relax }{figure.caption.109}{}}
\acronymused{RTD}
\acronymused{PTC}
\@writefile{lof}{\contentsline {figure}{\numberline {5.6}{\ignorespaces Transfer characteristics of thermistor sensor.\relax }}{76}{figure.caption.110}}
\newlabel{tempres}{{5.6}{76}{Transfer characteristics of thermistor sensor.\relax \relax }{figure.caption.110}{}}
\@writefile{toc}{\contentsline {subsection}{\numberline {5.1.4}Cell Balancing}{76}{subsection.5.1.4}}
\newlabel{balresults}{{5.1.4}{76}{Cell Balancing\relax }{subsection.5.1.4}{}}
\@writefile{lof}{\contentsline {figure}{\numberline {5.7}{\ignorespaces Result of LTspice IV simulation of novel cell balancing circuit}}{77}{figure.caption.111}}
\newlabel{ltspiceres}{{5.7}{77}{Result of LTspice IV simulation of novel cell balancing circuit\relax }{figure.caption.111}{}}
\@writefile{lof}{\contentsline {figure}{\numberline {5.8}{\ignorespaces Hardware prototype of cell level block}}{78}{figure.caption.112}}
\newlabel{cellblock}{{5.8}{78}{Hardware prototype of cell level block\relax }{figure.caption.112}{}}
\@writefile{lof}{\contentsline {figure}{\numberline {5.9}{\ignorespaces Screen shot from Oscilloscope for a single PWM pulse during balancing.\relax }}{78}{figure.caption.113}}
\newlabel{osc}{{5.9}{78}{Screen shot from Oscilloscope for a single PWM pulse during balancing.\relax \relax }{figure.caption.113}{}}
\@writefile{lof}{\contentsline {figure}{\numberline {5.10}{\ignorespaces Output of the novel active cell balancing circuit}}{79}{figure.caption.114}}
\newlabel{hardwareres}{{5.10}{79}{Output of the novel active cell balancing circuit\relax }{figure.caption.114}{}}
\@writefile{toc}{\contentsline {section}{\numberline {5.2}System level}{79}{section.5.2}}
\newlabel{systemlevel}{{5.2}{79}{System level\relax }{section.5.2}{}}
\@writefile{lot}{\contentsline {table}{\numberline {5.1}{\ignorespaces Lookup table for the sum of the series resistances in the charge transfer path.\relax }}{80}{table.caption.115}}
\newlabel{tab:RLookup}{{5.1}{80}{Lookup table for the sum of the series resistances in the charge transfer path.\relax \relax }{table.caption.115}{}}
\@writefile{toc}{\contentsline {subsection}{\numberline {5.2.1}Non Linear Model}{80}{subsection.5.2.1}}
\newlabel{systemmodel}{{5.2.1}{80}{Non Linear Model\relax }{subsection.5.2.1}{}}
\newlabel{kon1}{{5.1}{80}{Non Linear Model\relax }{equation.5.2.1}{}}
\newlabel{kon2}{{5.2}{80}{Non Linear Model\relax }{equation.5.2.2}{}}
\newlabel{init1}{{5.3}{80}{Non Linear Model\relax }{equation.5.2.3}{}}
\citation{ogata2002modern}
\newlabel{init2}{{5.5}{81}{Non Linear Model\relax }{equation.5.2.5}{}}
\newlabel{koff1}{{5.6}{81}{Non Linear Model\relax }{equation.5.2.6}{}}
\newlabel{koff2}{{5.7}{81}{Non Linear Model\relax }{equation.5.2.7}{}}
\newlabel{initoff1}{{5.8}{81}{Non Linear Model\relax }{equation.5.2.8}{}}
\newlabel{initoff2}{{5.10}{81}{Non Linear Model\relax }{equation.5.2.10}{}}
\newlabel{secgen}{{5.11}{81}{Non Linear Model\relax }{equation.5.2.11}{}}
\newlabel{initconds}{{5.12}{81}{Non Linear Model\relax }{equation.5.2.12}{}}
\newlabel{geneq}{{5.14}{82}{Non Linear Model\relax }{equation.5.2.14}{}}
\newlabel{chareq}{{5.16}{82}{Non Linear Model\relax }{equation.5.2.16}{}}
\newlabel{charroot}{{5.17}{82}{Non Linear Model\relax }{equation.5.2.17}{}}
\newlabel{shortbigsol}{{5.19}{82}{Non Linear Model\relax }{equation.5.2.19}{}}
\newlabel{bigsolution}{{5.20}{82}{Non Linear Model\relax }{equation.5.2.20}{}}
\citation{ourpaper}
\citation{ourpaper}
\newlabel{underdampsol}{{5.22}{83}{Non Linear Model\relax }{equation.5.2.22}{}}
\newlabel{underdampToff}{{5.24}{83}{Non Linear Model\relax }{equation.5.2.24}{}}
\@writefile{lof}{\contentsline {figure}{\numberline {5.11}{\ignorespaces Current plots for the under-damped case}}{83}{figure.caption.116}}
\newlabel{currentunderdamped}{{5.11}{83}{Current plots for the under-damped case\relax }{figure.caption.116}{}}
\citation{ourpaper}
\citation{ourpaper}
\newlabel{Toffoverdamped}{{5.26}{84}{Non Linear Model\relax }{equation.5.2.26}{}}
\@writefile{lof}{\contentsline {figure}{\numberline {5.12}{\ignorespaces Current plots for the over-damped case}}{84}{figure.caption.117}}
\newlabel{currentoverdamped}{{5.12}{84}{Current plots for the over-damped case\relax }{figure.caption.117}{}}
\newlabel{criticalsol}{{5.27}{84}{Non Linear Model\relax }{equation.5.2.27}{}}
\citation{ourpaper}
\citation{ourpaper}
\@writefile{lof}{\contentsline {figure}{\numberline {5.13}{\ignorespaces Current plots for the critically-damped case}}{85}{figure.caption.118}}
\newlabel{currentcriticaldamped}{{5.13}{85}{Current plots for the critically-damped case\relax }{figure.caption.118}{}}
\@writefile{toc}{\contentsline {subsection}{\numberline {5.2.2}Linear Model}{85}{subsection.5.2.2}}
\newlabel{linearmodel}{{5.2.2}{85}{Linear Model\relax }{subsection.5.2.2}{}}
\citation{ourpaper}
\citation{ourpaper}
\citation{JianCao}
\citation{kutkut}
\newlabel{eq:LinI}{{5.30}{86}{Linear Model\relax }{equation.5.2.30}{}}
\@writefile{lot}{\contentsline {table}{\numberline {5.2}{\ignorespaces Comparison of the analytical model to the SPICE simulation}}{86}{table.caption.119}}
\newlabel{comparelinandspice}{{5.2}{86}{Comparison of the analytical model to the SPICE simulation\relax }{table.caption.119}{}}
\@writefile{toc}{\contentsline {subsection}{\numberline {5.2.3}System level case study}{86}{subsection.5.2.3}}
\newlabel{casestudy}{{5.2.3}{86}{System level case study\relax }{subsection.5.2.3}{}}
\citation{ourpaper}
\citation{ourpaper}
\citation{kutkut}
\@writefile{lof}{\contentsline {figure}{\numberline {5.14}{\ignorespaces System level Case Study}}{87}{figure.caption.120}}
\newlabel{algres}{{5.14}{87}{System level Case Study\relax }{figure.caption.120}{}}
\@writefile{toc}{\contentsline {section}{\numberline {5.3}Summary}{88}{section.5.3}}
\acronymused{DBMS}
\@setckpt{content/results}{
\setcounter{page}{89}
\setcounter{equation}{32}
\setcounter{enumi}{0}
\setcounter{enumii}{0}
\setcounter{enumiii}{0}
\setcounter{enumiv}{0}
\setcounter{footnote}{0}
\setcounter{mpfootnote}{0}
\setcounter{part}{0}
\setcounter{chapter}{5}
\setcounter{section}{3}
\setcounter{subsection}{0}
\setcounter{subsubsection}{0}
\setcounter{paragraph}{0}
\setcounter{subparagraph}{0}
\setcounter{figure}{14}
\setcounter{table}{2}
\setcounter{ContinuedFloat}{0}
\setcounter{float@type}{16}
\setcounter{algorithm}{0}
\setcounter{parentequation}{0}
\setcounter{ALG@line}{0}
\setcounter{ALG@rem}{0}
\setcounter{ALG@nested}{0}
\setcounter{ALG@Lnr}{2}
\setcounter{ALG@blocknr}{10}
\setcounter{ALG@storecount}{0}
\setcounter{ALG@tmpcounter}{0}
\setcounter{lstnumber}{1}
\setcounter{LT@tables}{0}
\setcounter{LT@chunks}{0}
\setcounter{subfigure}{0}
\setcounter{lofdepth}{1}
\setcounter{subtable}{0}
\setcounter{lotdepth}{1}
\setcounter{Item}{0}
\setcounter{Hfootnote}{0}
\setcounter{bookmark@seq@number}{67}
\setcounter{pp@next@reset}{0}
\setcounter{lastBattery}{0}
\setcounter{lstlisting}{0}
\setcounter{section@level}{1}
}
