\relax 
\providecommand\hyper@newdestlabel[2]{}
\@writefile{toc}{\contentsline {chapter}{\numberline {5}Results and Verifications}{40}{chapter.5}}
\@writefile{lof}{\addvspace {10\p@ }}
\@writefile{lot}{\addvspace {10\p@ }}
\newlabel{results}{{5}{40}{Results and Verifications}{chapter.5}{}}
\@writefile{toc}{\contentsline {section}{\numberline {5.1}Experimental Setup}{40}{section.5.1}}
\@writefile{lof}{\contentsline {figure}{\numberline {5.1}{\ignorespaces Experimental setup.\relax }}{41}{figure.caption.73}}
\newlabel{volexpsetup}{{5.1}{41}{Experimental setup.\relax }{figure.caption.73}{}}
\@writefile{toc}{\contentsline {subsection}{\numberline {5.1.1}Setting up the SPI}{41}{subsection.5.1.1}}
\@writefile{lot}{\contentsline {table}{\numberline {5.1}{\ignorespaces Pin mapping of SPI signals with UEXT of olimex board STM32-E407.\relax }}{41}{table.caption.74}}
\newlabel{imp}{{5.1}{41}{Pin mapping of SPI signals with UEXT of olimex board STM32-E407.\relax }{table.caption.74}{}}
\citation{Oscilloscope}
\@writefile{lot}{\contentsline {table}{\numberline {5.2}{\ignorespaces Emergency stop and command acknowledgement port mapping.\relax }}{42}{table.caption.75}}
\newlabel{imp}{{5.2}{42}{Emergency stop and command acknowledgement port mapping.\relax }{table.caption.75}{}}
\@writefile{toc}{\contentsline {section}{\numberline {5.2}Communication level}{42}{section.5.2}}
\@writefile{toc}{\contentsline {subsection}{\numberline {5.2.1}Sender}{42}{subsection.5.2.1}}
\@writefile{toc}{\contentsline {subsection}{\numberline {5.2.2}Receiver}{42}{subsection.5.2.2}}
\@writefile{toc}{\contentsline {subsection}{\numberline {5.2.3}Communication channel}{42}{subsection.5.2.3}}
\@writefile{toc}{\contentsline {subsection}{\numberline {5.2.4}Methods}{42}{subsection.5.2.4}}
\@writefile{lof}{\contentsline {figure}{\numberline {5.2}{\ignorespaces Testing of communication channel.\relax }}{43}{figure.caption.76}}
\newlabel{volexpsetup}{{5.2}{43}{Testing of communication channel.\relax }{figure.caption.76}{}}
\citation{Oscilloscope}
\@writefile{toc}{\contentsline {subsubsection}{Results and verifications}{44}{section*.77}}
\@writefile{toc}{\contentsline {section}{\numberline {5.3}System level}{44}{section.5.3}}
\@writefile{toc}{\contentsline {subsection}{\numberline {5.3.1}Methods}{44}{subsection.5.3.1}}
\@writefile{toc}{\contentsline {subsection}{\numberline {5.3.2}Results and verifications}{48}{subsection.5.3.2}}
\@writefile{toc}{\contentsline {section}{\numberline {5.4}Summary and limitation}{48}{section.5.4}}
\@writefile{lof}{\contentsline {figure}{\numberline {5.3}{\ignorespaces PWM output\relax }}{49}{figure.caption.78}}
\newlabel{volexpsetup}{{5.3}{49}{PWM output\relax }{figure.caption.78}{}}
\@writefile{lof}{\contentsline {figure}{\numberline {5.4}{\ignorespaces Emergency stop (intermittent stopped states).\relax }}{50}{figure.caption.79}}
\newlabel{volexpsetup}{{5.4}{50}{Emergency stop (intermittent stopped states).\relax }{figure.caption.79}{}}
\@writefile{lof}{\contentsline {figure}{\numberline {5.5}{\ignorespaces Normal stop (initialization pattern states).\relax }}{51}{figure.caption.80}}
\newlabel{volexpsetup}{{5.5}{51}{Normal stop (initialization pattern states).\relax }{figure.caption.80}{}}
\@setckpt{content/results}{
\setcounter{page}{52}
\setcounter{equation}{0}
\setcounter{enumi}{4}
\setcounter{enumii}{0}
\setcounter{enumiii}{0}
\setcounter{enumiv}{0}
\setcounter{footnote}{0}
\setcounter{mpfootnote}{0}
\setcounter{part}{0}
\setcounter{chapter}{5}
\setcounter{section}{4}
\setcounter{subsection}{0}
\setcounter{subsubsection}{0}
\setcounter{paragraph}{0}
\setcounter{subparagraph}{0}
\setcounter{figure}{5}
\setcounter{table}{2}
\setcounter{ContinuedFloat}{0}
\setcounter{float@type}{16}
\setcounter{algorithm}{0}
\setcounter{parentequation}{0}
\setcounter{ALG@line}{0}
\setcounter{ALG@rem}{0}
\setcounter{ALG@nested}{0}
\setcounter{ALG@Lnr}{2}
\setcounter{ALG@blocknr}{10}
\setcounter{ALG@storecount}{0}
\setcounter{ALG@tmpcounter}{0}
\setcounter{lstnumber}{2}
\setcounter{subfigure}{0}
\setcounter{lofdepth}{1}
\setcounter{subtable}{0}
\setcounter{lotdepth}{1}
\setcounter{Item}{4}
\setcounter{Hfootnote}{0}
\setcounter{bookmark@seq@number}{57}
\setcounter{pp@next@reset}{0}
\setcounter{lastBattery}{0}
\setcounter{lstlisting}{0}
\setcounter{section@level}{1}
}
