\relax 
\@writefile{toc}{\contentsline {chapter}{\numberline {3}Design of Embedded System IC}{13}{chapter.3}}
\@writefile{lof}{\addvspace {10\p@ }}
\@writefile{lot}{\addvspace {10\p@ }}
\newlabel{sec:ESICdesign}{{3}{13}{Design of Embedded System IC\relax }{chapter.3}{}}
\@writefile{toc}{\contentsline {section}{\numberline {3.1}Voltage Measurement Module}{13}{section.3.1}}
\newlabel{voltagemeasurementmodule}{{3.1}{13}{Voltage Measurement Module\relax }{section.3.1}{}}
\citation{DBG2000}
\citation{Baronti}
\citation{Hande2006}
\citation{DBG2000}
\citation{dobkin2011analog}
\citation{dobkin2011analog}
\citation{Wang2002253}
\citation{DBG2000}
\@writefile{lof}{\contentsline {figure}{\numberline {3.1}{\ignorespaces Battery pack of an electric vehicle containing Li-ion cells connected in series to get high voltages.}}{14}{figure.3.1}}
\newlabel{voltagemeasurement}{{3.1}{14}{Battery pack of an electric vehicle containing Li-ion cells connected in series to get high voltages}{figure.3.1}{}}
\@writefile{toc}{\contentsline {subsection}{\numberline {3.1.1}Related Work}{14}{subsection.3.1.1}}
\@writefile{toc}{\contentsline {subsection}{\numberline {3.1.2}Individual A/D Cell Voltage Measurement}{15}{subsection.3.1.2}}
\@writefile{lof}{\contentsline {figure}{\numberline {3.2}{\ignorespaces Individual cell voltage measurement using Analogue to Digital converter within the ESIC.}}{15}{figure.3.2}}
\newlabel{ADconversion}{{3.2}{15}{Individual cell voltage measurement using Analogue to Digital converter within the ESIC}{figure.3.2}{}}
\citation{Malo2001}
\citation{andrea2010}
\newlabel{ADC}{{3.1}{16}{Individual A/D Cell Voltage Measurement\relax }{equation.3.1.1}{}}
\@writefile{lof}{\contentsline {figure}{\numberline {3.3}{\ignorespaces Transfer characteristic of a 3 bit A/D converter.}}{16}{figure.3.3}}
\newlabel{ADCchar}{{3.3}{16}{Transfer characteristic of a 3 bit A/D converter}{figure.3.3}{}}
\citation{johns1997analog}
\@writefile{lot}{\contentsline {table}{\numberline {3.1}{\ignorespaces Resolution and Accuracy requirements of ADC.}}{17}{table.3.1}}
\newlabel{Davidandrea}{{3.1}{17}{Resolution and Accuracy requirements of ADC}{table.3.1}{}}
\newlabel{VLSB}{{3.2}{17}{Individual A/D Cell Voltage Measurement\relax }{equation.3.1.2}{}}
\citation{WangStuart}
\citation{currmeas}
\citation{PatelA}
\citation{Zetex}
\citation{Highside}
\citation{Dost}
\citation{Radun}
\citation{Laimer}
\citation{Magneto}
\citation{Infineon}
\@writefile{lot}{\contentsline {table}{\numberline {3.2}{\ignorespaces Comparision of ADC architectures based on speed and accuracy.}}{18}{table.3.2}}
\newlabel{ADclassi}{{3.2}{18}{Comparision of ADC architectures based on speed and accuracy}{table.3.2}{}}
\@writefile{toc}{\contentsline {section}{\numberline {3.2}Current Measurement Module}{18}{section.3.2}}
\newlabel{currentmeasurement}{{3.2}{18}{Current Measurement Module\relax }{section.3.2}{}}
\@writefile{toc}{\contentsline {subsection}{\numberline {3.2.1}Related Work}{18}{subsection.3.2.1}}
\@writefile{toc}{\contentsline {subsection}{\numberline {3.2.2}Resistive Shunt Current Measurement}{19}{subsection.3.2.2}}
\newlabel{Resistive}{{3.2.2}{19}{Resistive Shunt Current Measurement\relax }{subsection.3.2.2}{}}
\@writefile{lof}{\contentsline {figure}{\numberline {3.4}{\ignorespaces Shunt Resistor Current Measurement.}}{19}{figure.3.4}}
\newlabel{ResCM}{{3.4}{19}{Shunt Resistor Current Measurement}{figure.3.4}{}}
\@writefile{lot}{\contentsline {table}{\numberline {3.3}{\ignorespaces Comparision of high side and low side current sensing.}}{20}{table.3.3}}
\newlabel{Currentsensing}{{3.3}{20}{Comparision of high side and low side current sensing}{table.3.3}{}}
\newlabel{first}{{3.3}{20}{Resistive Shunt Current Measurement\relax }{equation.3.2.3}{}}
\newlabel{powerR}{{3.6}{20}{Resistive Shunt Current Measurement\relax }{equation.3.2.6}{}}
\newlabel{second}{{3.10}{20}{Resistive Shunt Current Measurement\relax }{equation.3.2.10}{}}
\newlabel{offset}{{3.12}{20}{Resistive Shunt Current Measurement\relax }{equation.3.2.12}{}}
\citation{CurrentTx}
\citation{AllegroDS}
\newlabel{Rtemp}{{3.13}{21}{Resistive Shunt Current Measurement\relax }{equation.3.2.13}{}}
\@writefile{toc}{\contentsline {subsection}{\numberline {3.2.3}Hall Effect Current Measurement}{21}{subsection.3.2.3}}
\newlabel{Hall}{{3.2.3}{21}{Hall Effect Current Measurement\relax }{subsection.3.2.3}{}}
\@writefile{lof}{\contentsline {figure}{\numberline {3.5}{\ignorespaces Hall Effect Current Measurement \cite  {AllegroDS}.}}{21}{figure.3.5}}
\newlabel{Hallsensor}{{3.5}{21}{Hall Effect Current Measurement \cite {AllegroDS}}{figure.3.5}{}}
\citation{AllegroDS}
\newlabel{powerlossHall}{{3.16}{22}{Hall Effect Current Measurement\relax }{equation.3.2.16}{}}
\@writefile{lot}{\contentsline {table}{\numberline {3.4}{\ignorespaces Comparision of Resistance shunt and Hall effect Current Measurement.}}{23}{table.3.4}}
\newlabel{compresandhall}{{3.4}{23}{Comparision of Resistance shunt and Hall effect Current Measurement}{table.3.4}{}}
\citation{andrea2010}
\citation{battemp}
\@writefile{toc}{\contentsline {section}{\numberline {3.3}Temperature Measurement Module}{24}{section.3.3}}
\newlabel{temperaturemeasurementmodule}{{3.3}{24}{Temperature Measurement Module\relax }{section.3.3}{}}
\@writefile{lof}{\contentsline {figure}{\numberline {3.6}{\ignorespaces Discharge Characteristic of Li-ion cell at various temperatures. \cite  {battemp}.}}{24}{figure.3.6}}
\newlabel{tempchar}{{3.6}{24}{Discharge Characteristic of Li-ion cell at various temperatures. \cite {battemp}}{figure.3.6}{}}
\citation{Batsafety}
\citation{Szente}
\citation{SOCtemp}
\citation{Thermimage}
\citation{Jia}
\citation{MicroRTD}
\citation{Lorentz}
\citation{fraden}
\citation{RTDchar}
\@writefile{toc}{\contentsline {subsection}{\numberline {3.3.1}Related Work}{25}{subsection.3.3.1}}
\@writefile{toc}{\contentsline {subsection}{\numberline {3.3.2}Resistance Temperature Detectors(RTD)}{25}{subsection.3.3.2}}
\newlabel{Rtemperature}{{3.17}{25}{Resistance Temperature Detectors(RTD)\relax }{equation.3.3.17}{}}
\citation{MicroRTD}
\citation{MicroRTD}
\citation{MicroRTD}
\citation{MicroRTD}
\@writefile{lof}{\contentsline {figure}{\numberline {3.7}{\ignorespaces Resistance of RTD with varying temperature. \cite  {RTDchar}.}}{26}{figure.3.7}}
\newlabel{RTDchar}{{3.7}{26}{Resistance of RTD with varying temperature. \cite {RTDchar}}{figure.3.7}{}}
\@writefile{lof}{\contentsline {figure}{\numberline {3.8}{\ignorespaces Flexible Micro RTD as shown in \cite  {MicroRTD}.}}{26}{figure.3.8}}
\newlabel{micrortd}{{3.8}{26}{Flexible Micro RTD as shown in \cite {MicroRTD}}{figure.3.8}{}}
\citation{Lorentz}
\citation{Lorentz}
\@writefile{lof}{\contentsline {figure}{\numberline {3.9}{\ignorespaces Microscopic view of Micro RTD as shown in\cite  {MicroRTD}.}}{27}{figure.3.9}}
\newlabel{dimofmicrortd}{{3.9}{27}{Microscopic view of Micro RTD as shown in\cite {MicroRTD}}{figure.3.9}{}}
\@writefile{toc}{\contentsline {subsection}{\numberline {3.3.3}Printed Resistive Temperature Sensor}{27}{subsection.3.3.3}}
\citation{Lorentz}
\citation{Lorentz}
\@writefile{lof}{\contentsline {figure}{\numberline {3.10}{\ignorespaces Realization of printed temperature sensor \cite  {Lorentz}.}}{28}{figure.3.10}}
\newlabel{printedsensor}{{3.10}{28}{Realization of printed temperature sensor \cite {Lorentz}}{figure.3.10}{}}
\@writefile{lof}{\contentsline {figure}{\numberline {3.11}{\ignorespaces Resistance Vs Temperature Characteristics of printed temperature sensor \cite  {Lorentz}.}}{28}{figure.3.11}}
\newlabel{printreschar}{{3.11}{28}{Resistance Vs Temperature Characteristics of printed temperature sensor \cite {Lorentz}}{figure.3.11}{}}
\citation{Speltino}
\citation{SOCcomparison}
\citation{SOCcomparison}
\citation{zhengBo}
\citation{zhang}
\citation{Willihnganz}
\citation{Kunihiro}
\citation{Huet199859}
\citation{Salkind1999293}
\citation{ehret1999state}
\@writefile{toc}{\contentsline {section}{\numberline {3.4}Computation and Controlling Module}{29}{section.3.4}}
\newlabel{Computation}{{3.4}{29}{Computation and Controlling Module\relax }{section.3.4}{}}
\@writefile{toc}{\contentsline {subsection}{\numberline {3.4.1}Related Work}{29}{subsection.3.4.1}}
\citation{Spagnol}
\citation{Kalman}
\citation{Codeca}
\citation{Plett1}
\citation{Plett2}
\citation{Plett3}
\citation{Plett1}
\citation{Plett2}
\citation{Plett3}
\citation{Qing}
\citation{pop2007}
\citation{coup}
\citation{Band}
\citation{Spectro}
\citation{Band}
\citation{Huet}
\citation{Bose}
\citation{Fuzzy}
\citation{Banaei}
\citation{model}
\citation{tse1999prediction}
\citation{de1991analysis}
\citation{liulithium}
\citation{rao1981theory}
\citation{Penna}
\citation{Patti}
\citation{Goebel}
\citation{uckun}
\citation{Penna}
\citation{Plett1}
\citation{Plett2}
\citation{Plett3}
\citation{cellmodel}
\citation{Spagnol}
\@writefile{toc}{\contentsline {subsection}{\numberline {3.4.2}State Of Charge}{32}{subsection.3.4.2}}
\newlabel{stateofcharge}{{3.4.2}{32}{State Of Charge\relax }{subsection.3.4.2}{}}
\@writefile{lof}{\contentsline {figure}{\numberline {3.12}{\ignorespaces Second order Randle's Lithium ion electrical cell model \cite  {cellmodel}.}}{32}{figure.3.12}}
\newlabel{2cellmodel}{{3.12}{32}{Second order Randle's Lithium ion electrical cell model \cite {cellmodel}}{figure.3.12}{}}
\@writefile{toc}{\contentsline {subsection}{\numberline {3.4.3}State of Health}{33}{subsection.3.4.3}}
\newlabel{stateofhealth}{{3.4.3}{33}{State of Health\relax }{subsection.3.4.3}{}}
\newlabel{chargeeq}{{3.20}{33}{State of Health\relax }{equation.3.4.20}{}}
\newlabel{dischargeeq}{{3.21}{33}{State of Health\relax }{equation.3.4.21}{}}
\newlabel{SOHeq}{{3.22}{33}{State of Health\relax }{equation.3.4.22}{}}
\citation{model}
\citation{Patti}
\citation{linden2001handbook}
\citation{Patti}
\@writefile{lof}{\contentsline {figure}{\numberline {3.13}{\ignorespaces Block diagram for SOH prediction of the cell \cite  {model}.}}{34}{figure.3.13}}
\newlabel{SOH}{{3.13}{34}{Block diagram for SOH prediction of the cell \cite {model}}{figure.3.13}{}}
\@writefile{toc}{\contentsline {subsection}{\numberline {3.4.4}Remaining Useful Life}{34}{subsection.3.4.4}}
\@writefile{lof}{\contentsline {figure}{\numberline {3.14}{\ignorespaces Block diagram for predicting RUL of the cell \cite  {Patti}.}}{35}{figure.3.14}}
\newlabel{RULestimation}{{3.14}{35}{Block diagram for predicting RUL of the cell \cite {Patti}}{figure.3.14}{}}
\@writefile{toc}{\contentsline {subsection}{\numberline {3.4.5}Controlling Module}{35}{subsection.3.4.5}}
\newlabel{controllingmodule}{{3.4.5}{35}{Controlling Module\relax }{subsection.3.4.5}{}}
\citation{Daowd}
\citation{moore2001}
\citation{Waichung}
\citation{Phung}
\citation{Kobzev}
\citation{Baughman}
\citation{Pascual}
\citation{kutkut}
\citation{Sang}
\citation{Jong}
\citation{JianCao}
\citation{Yuang}
\citation{WeiHong}
\citation{Xilu}
\citation{Daowd}
\@writefile{toc}{\contentsline {section}{\numberline {3.5}Cell Balancing Module}{36}{section.3.5}}
\newlabel{cellbalancing}{{3.5}{36}{Cell Balancing Module\relax }{section.3.5}{}}
\@writefile{toc}{\contentsline {subsection}{\numberline {3.5.1}Related Work}{36}{subsection.3.5.1}}
\newlabel{relatedwork}{{3.5.1}{36}{Related Work\relax }{subsection.3.5.1}{}}
\@writefile{toc}{\contentsline {subsection}{\numberline {3.5.2}Concurrent Active Cell Balancing}{37}{subsection.3.5.2}}
\newlabel{newcellbalancing}{{3.5.2}{37}{Concurrent Active Cell Balancing\relax }{subsection.3.5.2}{}}
\@writefile{lof}{\contentsline {figure}{\numberline {3.15}{\ignorespaces Smart Battery Pack showing bi-directional and non-adjacent charge transfer.}}{37}{figure.3.15}}
\newlabel{cellbalancingintro}{{3.15}{37}{Smart Battery Pack showing bi-directional and non-adjacent charge transfer}{figure.3.15}{}}
\acronymused{MOSFET}
\undonewlabel{acro:PWM}
\newlabel{acro:PWM}{{3.5.2}{39}{Concurrent Active Cell Balancing\relax }{section*.8}{}}
\acronymused{PWM}
\acronymused{MOSFET}
\newlabel{eq:sw:series}{{3.31}{39}{Concurrent Active Cell Balancing\relax }{equation.3.5.31}{}}
\newlabel{eq:sw:parallel}{{3.32}{39}{Concurrent Active Cell Balancing\relax }{equation.3.5.32}{}}
\newlabel{eq:sw:a}{{3.33}{39}{Concurrent Active Cell Balancing\relax }{equation.3.5.33}{}}
\newlabel{eq:sw:b}{{3.34}{39}{Concurrent Active Cell Balancing\relax }{equation.3.5.34}{}}
\newlabel{eq:sw:e}{{3.35}{39}{Concurrent Active Cell Balancing\relax }{equation.3.5.35}{}}
\newlabel{eq:sw:f}{{3.36}{39}{Concurrent Active Cell Balancing\relax }{equation.3.5.36}{}}
\acronymused{PWM}
\@writefile{lof}{\contentsline {figure}{\numberline {3.16}{\ignorespaces (a)Illustration of the battery with series connected cells (b) Variation in SOCs of individual cells.}}{40}{figure.3.16}}
\newlabel{fig:highlevel}{{3.16}{40}{(a)Illustration of the battery with series connected cells (b) Variation in SOCs of individual cells}{figure.3.16}{}}
\acronymused{MOSFET}
\acronymused{PWM}
\@writefile{toc}{\contentsline {section}{\numberline {3.6}Power Supply Module}{40}{section.3.6}}
\newlabel{powersupplymodule}{{3.6}{40}{Power Supply Module\relax }{section.3.6}{}}
\@writefile{lof}{\contentsline {figure}{\numberline {3.17}{\ignorespaces The basic building block of the modular charge transfer circuit attached to a cell ($\bm  {B^1}$), consisting of six \acp {MOSFET} and an inductor.}}{41}{figure.3.17}}
\acronymused{MOSFET}
\newlabel{fig:singlecell}{{3.17}{41}{The basic building block of the modular charge transfer circuit attached to a cell ($\bm {B^1}$), consisting of six \acp {MOSFET} and an inductor}{figure.3.17}{}}
\@setckpt{content/SensorESIC}{
\setcounter{page}{42}
\setcounter{equation}{36}
\setcounter{enumi}{4}
\setcounter{enumii}{0}
\setcounter{enumiii}{0}
\setcounter{enumiv}{0}
\setcounter{footnote}{0}
\setcounter{mpfootnote}{0}
\setcounter{part}{0}
\setcounter{chapter}{3}
\setcounter{section}{6}
\setcounter{subsection}{0}
\setcounter{subsubsection}{0}
\setcounter{paragraph}{0}
\setcounter{subparagraph}{0}
\setcounter{figure}{17}
\setcounter{table}{4}
\setcounter{float@type}{16}
\setcounter{algorithm}{0}
\setcounter{parentequation}{0}
\setcounter{ALG@line}{0}
\setcounter{ALG@rem}{0}
\setcounter{ALG@nested}{0}
\setcounter{ALG@Lnr}{2}
\setcounter{ALG@blocknr}{10}
\setcounter{ALG@storecount}{0}
\setcounter{ALG@tmpcounter}{0}
\setcounter{lstnumber}{1}
\setcounter{LT@tables}{0}
\setcounter{LT@chunks}{0}
\setcounter{subfigure}{0}
\setcounter{lofdepth}{1}
\setcounter{subtable}{0}
\setcounter{lotdepth}{1}
\setcounter{Item}{4}
\setcounter{Hfootnote}{0}
\setcounter{bookmark@seq@number}{36}
\setcounter{pp@next@reset}{0}
\setcounter{lastBattery}{1}
\setcounter{lstlisting}{0}
\setcounter{section@level}{1}
}
