This is BibTeX, Version 0.99dThe top-level auxiliary file: test.aux
The style file: IEEEtran.bst
I found no \citation commands---while reading file test.aux
I found no \bibdata command---while reading file test.aux
-- IEEEtran.bst version 1.13 (2008/09/30) by Michael Shell.
-- http://www.michaelshell.org/tex/ieeetran/bibtex/
-- See the "IEEEtran_bst_HOWTO.pdf" manual for usage information.

Done.
(There were 2 error messages)
