\relax 
\citation{DBG2000}
\citation{Baronti}
\citation{Hande2006}
\citation{DBG2000}
\citation{dobkin2011analog}
\citation{dobkin2011analog}
\citation{Wang2002253}
\citation{DBG2000}
\@writefile{toc}{\contentsline {chapter}{\numberline {3}Related Work}{13}{chapter.3}}
\@writefile{lof}{\addvspace {10\p@ }}
\@writefile{lot}{\addvspace {10\p@ }}
\newlabel{RelatedWork}{{3}{13}{Related Work\relax }{chapter.3}{}}
\@writefile{toc}{\contentsline {section}{\numberline {3.1}Measurement Sensors}{13}{section.3.1}}
\citation{WangStuart}
\citation{currmeas}
\citation{PatelA}
\citation{Zetex}
\citation{Highside}
\citation{Dost}
\citation{Radun}
\citation{Laimer}
\citation{Magneto}
\citation{Infineon}
\citation{Batsafety}
\citation{Szente}
\citation{SOCtemp}
\citation{Thermimage}
\citation{Jia}
\citation{MicroRTD}
\citation{Lorentz}
\citation{fraden}
\citation{Speltino}
\citation{SOCcomparison}
\citation{SOCcomparison}
\citation{zhengBo}
\citation{zhang}
\citation{Willihnganz}
\citation{Kunihiro}
\citation{Huet199859}
\citation{Salkind1999293}
\citation{ehret1999state}
\citation{Spagnol}
\citation{Kalman}
\citation{Codeca}
\citation{Plett1}
\citation{Plett2}
\citation{Plett3}
\citation{Plett1}
\citation{Plett2}
\citation{Plett3}
\citation{Daowd}
\citation{moore}
\citation{Waichung}
\citation{Phung}
\@writefile{toc}{\contentsline {section}{\numberline {3.2}Computation Module}{15}{section.3.2}}
\citation{Kobzev}
\citation{Baughman}
\citation{Pascual}
\citation{kutkut}
\citation{Sang}
\citation{Jong}
\citation{JianCao}
\citation{Yuang}
\citation{WeiHong}
\citation{Xilu}
\citation{Daowd}
\@writefile{toc}{\contentsline {section}{\numberline {3.3}Cell Balancing Module}{16}{section.3.3}}
\@writefile{toc}{\contentsline {section}{\numberline {3.4}Summary}{16}{section.3.4}}
\@writefile{lot}{\contentsline {table}{\numberline {3.1}{\ignorespaces Various Implementation methods for ESIC}}{16}{table.3.1}}
\newlabel{ModulesinESIC}{{3.1}{16}{Various Implementation methods for ESIC\relax }{table.3.1}{}}
\@setckpt{content/workrelated}{
\setcounter{page}{17}
\setcounter{equation}{0}
\setcounter{enumi}{0}
\setcounter{enumii}{0}
\setcounter{enumiii}{0}
\setcounter{enumiv}{0}
\setcounter{footnote}{0}
\setcounter{mpfootnote}{0}
\setcounter{part}{0}
\setcounter{chapter}{3}
\setcounter{section}{4}
\setcounter{subsection}{0}
\setcounter{subsubsection}{0}
\setcounter{paragraph}{0}
\setcounter{subparagraph}{0}
\setcounter{figure}{0}
\setcounter{table}{1}
\setcounter{float@type}{16}
\setcounter{algorithm}{0}
\setcounter{parentequation}{0}
\setcounter{ALG@line}{0}
\setcounter{ALG@rem}{0}
\setcounter{ALG@nested}{0}
\setcounter{ALG@Lnr}{2}
\setcounter{ALG@blocknr}{10}
\setcounter{ALG@storecount}{0}
\setcounter{ALG@tmpcounter}{0}
\setcounter{lstnumber}{1}
\setcounter{LT@tables}{0}
\setcounter{LT@chunks}{0}
\setcounter{subfigure}{0}
\setcounter{lofdepth}{1}
\setcounter{subtable}{0}
\setcounter{lotdepth}{1}
\setcounter{Item}{0}
\setcounter{Hfootnote}{0}
\setcounter{bookmark@seq@number}{19}
\setcounter{lstlisting}{0}
\setcounter{section@level}{1}
}
