Resistance Temperature
110	22.83
110	22.83
110	22.91
110	22.91
109	22.99
109	22.99
109	23.07
109	23.07
109	23.07
109	23.16
109	23.16
108	23.32
107	23.41
107	23.41
107	23.41
107	23.41
107	23.49
107	23.49
106	23.66
106	23.57
106	23.66
106	23.66
106	23.74
105	23.82
105	23.9
105	23.9
105	23.9
104	23.99
104	24.07
104	24.15
104	24.07
104	24.15
103	24.24
103	24.32
103	24.32
102	24.4
102	24.4
102	24.4
102	24.49
102	24.57
102	24.57
101	24.65
101	24.74
101	24.74
100	24.82
100	24.82
100	24.91
100	24.91
99	25.07
100	24.99
99	25.07
99	25.16
99	25.16
98	25.24
99	25.16
98	25.24
98	25.32
98	25.32
98	25.32
98	25.41
97	25.49
98	25.41
97	25.58
96	25.66
96	25.66
96	25.66
96	25.66
96	25.74
96	25.74
96	25.74
96	25.83
96	25.83
96	25.83
95	25.91
95	26
95	26
95	26
95	26
95	26.08
95	26.08
94	26.16
94	26.16
94	26.16
94	26.25
94	26.16
94	26.25
94	26.25
93	26.33
93	26.33
93	26.33
93	26.5
93	26.42
93	26.42
92	26.59
93	26.5
93	26.5
92	26.59
92	26.59
92	26.59
92	26.67
92	26.67
92	26.67
92	26.67
92	26.67
92	26.67
92	26.67
91	26.84
92	26.75
91	26.84
91	26.84
91	26.92
91	26.84
91	26.92
91	26.92
91	26.92
91	26.92
91	26.92
91	26.92
91	27.01
91	27.01
91	27.01
91	27.01
91	27.01
91	27.01
90	27.09
90	27.09
90	27.18
90	27.09
90	27.18
90	27.09
90	27.09
90	27.09
90	27.18
90	27.18
90	27.26
90	27.26
90	27.18
90	27.26
90	27.26
90	27.26
90	27.26
90	27.26
90	27.26
89	27.35
89	27.35
90	27.26
89	27.35
89	27.35
89	27.35
89	27.35
89	27.35
90	27.26
89	27.35
89	27.35
88	27.52
89	27.43
89	27.43
89	27.43
88	27.52
88	27.52
88	27.52
89	27.43
88	27.6
88	27.52
88	27.52
88	27.52
88	27.6
88	27.6
88	27.6
88	27.6
88	27.6
88	27.6
88	27.6
88	27.6
88	27.6
88	27.6
88	27.69
88	27.69
88	27.69
88	27.69
88	27.69
88	27.6
88	27.69
88	27.69
88	27.69
88	27.69
88	27.69
87	27.77
88	27.69
88	27.69
87	27.77
87	27.77
87	27.77
88	27.69
87	27.77
87	27.77
87	27.77
87	27.77
87	27.77
87	27.77
87	27.77
87	27.77
87	27.77
87	27.86
87	27.86
87	27.77
87	27.86
87	27.94
87	27.86
87	27.86
87	27.86
87	27.86
87	27.86
87	27.77
87	27.86
87	27.77
87	27.86
87	27.86
87	27.94
87	27.94
87	27.94
87	27.94
87	27.94
87	27.94
87	27.86
87	27.94
87	27.94
87	27.94
87	27.94
87	27.94
87	27.94
87	27.94
86	28.03
86	28.03
86	28.03
86	28.11
86	28.03
86	28.03
86	28.11
86	28.03
86	28.11
86	28.11
86	28.03
86	28.11
86	28.11
86	28.2
86	28.2
86	28.11
86	28.11
86	28.11
86	28.11
86	28.2
86	28.2
86	28.2
86	28.2
86	28.2
86	28.2
86	28.2
86	28.2
86	28.2
85	28.29
85	28.29
85	28.29
86	28.11
86	28.2
86	28.2
85	28.37
85	28.37
85	28.29
85	28.29
85	28.29
85	28.37
85	28.37
85	28.37
85	28.46
85	28.46
85	28.37
85	28.37
85	28.37
85	28.37
85	28.37
85	28.46
85	28.46
85	28.46
85	28.46
85	28.46
85	28.46
85	28.46
84	28.54
85	28.46
85	28.46
84	28.54
84	28.54
84	28.54
84	28.63
84	28.54
84	28.54
84	28.63
84	28.54
84	28.63
84	28.63
84	28.63
84	28.63
84	28.63
84	28.71
84	28.63
84	28.71
84	28.71
84	28.71
84	28.71
83	28.8
83	28.8
83	28.8
83	28.8
83	28.89
83	28.8
83	28.89
83	28.89
83	28.89
83	28.8
83	28.89
83	28.97
83	28.89
83	28.89
83	28.89
83	28.89
83	28.97
83	28.97
83	28.89
83	28.97
82	29.06
82	29.06
82	29.06
82	29.06
82	29.06
82	29.06
82	29.14
82	29.06
82	29.14
82	29.14
82	29.14
82	29.23
82	29.14
82	29.14
82	29.23
82	29.23
82	29.23
81	29.32
82	29.23
82	29.23
82	29.23
82	29.23
81	29.32
81	29.32
81	29.32
81	29.32
81	29.32
81	29.32
81	29.32
81	29.4
81	29.4
81	29.4
81	29.4
81	29.4
81	29.4
81	29.49
81	29.4
81	29.49
81	29.49
80	29.58
81	29.49
80	29.58
81	29.49
81	29.49
81	29.49
80	29.58
80	29.58
80	29.58
80	29.58
80	29.75
80	29.66
80	29.75
80	29.66
80	29.66
80	29.75
80	29.66
80	29.75
80	29.75
80	29.75
80	29.66
80	29.75
80	29.75
80	29.75
80	29.75
80	29.84
80	29.84
80	29.84
80	29.84
80	29.84
80	29.84
80	29.84
79	29.92
80	29.84
79	29.92
79	29.92
79	30.01
79	30.01
79	29.92
79	30.01
79	30.01
79	29.92
79	30.01
79	30.1
79	30.01
79	30.01
79	30.01
79	30.1
79	30.01
79	30.1
79	30.1
79	30.01
79	30.1
79	30.1
79	30.1
78	30.19
79	30.1
78	30.19
79	30.1
79	30.1
78	30.19
78	30.19
79	30.1
78	30.27
78	30.19
78	30.19
78	30.19
78	30.19
78	30.19
78	30.19
78	30.27
78	30.27
78	30.27
78	30.27
78	30.36
78	30.27
78	30.27
78	30.27
78	30.36
78	30.27
78	30.27
78	30.27
78	30.36
78	30.36
78	30.36
78	30.36
78	30.36
78	30.36
77	30.45
77	30.45
78	30.36
78	30.36
78	30.36
77	30.45
77	30.45
77	30.45
77	30.45
77	30.53
77	30.53
77	30.53
77	30.62
77	30.53
77	30.53
77	30.53
77	30.53
77	30.53
77	30.62
77	30.62
77	30.62
77	30.62
76	30.71
76	30.71
76	30.71
76	30.8
76	30.8
76	30.8
76	30.8
76	30.89
76	30.89
76	30.89
76	30.97
76	30.89
76	30.97
75	31.06
76	30.97
75	31.06
76	30.97
75	31.06
75	31.15
75	31.06
75	31.06
75	31.15
75	31.15
75	31.24
75	31.24
75	31.24
74	31.33
74	31.33
74	31.33
74	31.33
74	31.41
74	31.41
74	31.5
73	31.59
74	31.5
74	31.5
74	31.5
73	31.59
73	31.59
73	31.68
73	31.68
73	31.77
73	31.86
73	31.77
73	31.77
73	31.77
73	31.77
73	31.86
73	31.77
73	31.86
73	31.86
72	31.95
72	31.95
72	31.95
72	31.95
72	31.95
72	31.95
72	32.04
71	32.21
71	32.21
71	32.21
71	32.21
71	32.21
71	32.21
71	32.21
71	32.3
71	32.39
71	32.39
71	32.48
71	32.39
71	32.48
71	32.48
71	32.39
71	32.48
71	32.48
70	32.57
70	32.57
70	32.57
70	32.66
70	32.75
70	32.66
70	32.66
70	32.75
70	32.75
70	32.75
70	32.75
69	32.84
69	32.93
69	32.84
69	32.84
69	32.93
69	33.02
69	32.93
69	33.02
69	33.11
69	33.02
69	33.11
69	33.11
69	33.11
68	33.2
68	33.2
68	33.29
68	33.2
68	33.29
68	33.29
68	33.29
68	33.38
68	33.38
68	33.38
67	33.56
68	33.38
67	33.47
67	33.47
67	33.47
67	33.47
67	33.56
67	33.65
67	33.56
67	33.56
67	33.65
67	33.65
67	33.65
67	33.65
67	33.75
67	33.65
67	33.65
67	33.65
67	33.75
67	33.75
67	33.75
67	33.75
66	33.84
66	33.84
66	33.93
66	33.84
66	33.93
66	33.84
66	33.93
66	33.93
66	33.93
66	34.02
66	34.02
66	34.02
66	34.11
66	34.11
66	34.11
65	34.2
65	34.29
65	34.2
65	34.2
65	34.2
65	34.2
65	34.2
65	34.2
65	34.29
65	34.29
65	34.39
65	34.39
65	34.39
65	34.39
64	34.48
64	34.48
65	34.39
64	34.48
64	34.48
64	34.48
64	34.48
64	34.57
64	34.66
64	34.48
64	34.48
64	34.48
64	34.48
64	34.57
64	34.57
64	34.66
64	34.66
64	34.66
64	34.66
64	34.75
64	34.75
64	34.75
64	34.75
64	34.75
64	34.75
63	34.85
63	34.85
64	34.75
63	34.85
63	34.94
63	34.85
63	34.94
63	34.85
63	34.94
63	34.94
63	34.94
63	35.03
63	34.94
63	35.03
63	35.03
63	35.03
63	35.03
63	34.94
63	34.94
63	35.03
63	35.03
63	35.03
63	35.03
63	35.03
63	35.13
62	35.22
63	35.13
62	35.22
63	35.13
62	35.22
62	35.31
62	35.22
62	35.31
62	35.22
62	35.22
62	35.22
62	35.31
62	35.31
62	35.31
62	35.31
62	35.31
62	35.31
62	35.22
62	35.22
62	35.31
62	35.31
62	35.4
62	35.31
62	35.4
62	35.4
62	35.4
62	35.4
62	35.4
62	35.4
62	35.4
62	35.5
62	35.4
62	35.5
61	35.59
62	35.5
62	35.5
62	35.5
61	35.59
61	35.59
61	35.59
62	35.5
62	35.5
62	35.5
61	35.59
62	35.5
61	35.59
61	35.59
61	35.59
61	35.69
61	35.59
61	35.59
61	35.59
61	35.59
61	35.59
61	35.59
62	35.5
62	35.4
62	35.4
62	35.31
62	35.22
62	35.31
62	35.22
62	35.22
63	35.13
63	35.03
63	34.94
63	35.03
63	34.94
63	34.85
63	34.85
63	34.85
64	34.66
64	34.66
64	34.57
64	34.57
64	34.48
64	34.48
65	34.29
65	34.29
65	34.29
65	34.2
66	34.11
66	34.11
66	34.02
66	34.02
66	33.93
66	33.84
66	33.84
67	33.75
67	33.75
67	33.65
67	33.56
67	33.56
67	33.47
68	33.38
68	33.38
68	33.38
68	33.2
68	33.2
69	33.11
69	33.11
69	33.02
69	33.02
69	32.93
69	32.84
69	32.84
70	32.75
70	32.66
70	32.66
70	32.57
71	32.48
71	32.48
71	32.3
71	32.3
71	32.21
71	32.21
71	32.21
72	32.04
72	31.95
73	31.86
73	31.86
73	31.77
73	31.68
73	31.68
73	31.59
74	31.5
74	31.41
74	31.33
74	31.33
75	31.24
75	31.15
75	31.15
75	31.15
76	30.97
76	30.89
76	30.89
76	30.89
76	30.71
77	30.62
77	30.62
77	30.45
78	30.36
78	30.36
78	30.19
78	30.19
78	30.19
79	30.1
79	30.1
79	29.92
79	30.01
79	29.92
79	29.92
79	29.92
80	29.75
80	29.75
80	29.66
80	29.58
81	29.49
81	29.49
81	29.4
81	29.32
81	29.4
82	29.23
81	29.32
82	29.23
82	29.14
82	29.06
82	29.06
83	28.97
83	28.97
83	28.89
83	28.8
84	28.71
84	28.71
84	28.63
84	28.63
84	28.63
84	28.54
85	28.46
85	28.29
85	28.29
85	28.29
86	28.2
86	28.11
86	28.03
86	28.03
86	28.03
87	27.86
87	27.86
87	27.86
88	27.69
88	27.6
88	27.52
88	27.52
89	27.43
89	27.35
90	27.26
90	27.26
90	27.09
91	27.01
91	26.92
91	26.84
91	26.84
92	26.75
92	26.67
92	26.75
92	26.67
92	26.67
92	26.59
92	26.59
92	26.59
93	26.5
93	26.42
93	26.5
93	26.42
93	26.33
94	26.25
94	26.16
94	26.16
95	26.08
95	26.08
95	26.08
95	26
95	25.91
96	25.83
95	25.91
96	25.83
96	25.74
96	25.66
96	25.66
96	25.66
97	25.58
97	25.58
97	25.58
97	25.49
97	25.49
98	25.32
98	25.32
98	25.32
98	25.32
98	25.24
98	25.24
98	25.24
99	25.16
100	24.99
100	24.99
100	24.99
100	24.91
100	24.91
100	24.91
100	24.91
100	24.82
100	24.82
101	24.74
101	24.74
102	24.57
101	24.65
102	24.57
102	24.57
102	24.57
102	24.57
102	24.4
102	24.4
102	24.4
102	24.4
102	24.4
102	24.4
102	24.4
103	24.24
104	24.15
104	24.07
104	24.07
104	24.07
104	24.15
104	24.15
104	24.07
104	24.07
104	23.99
104	24.07
104	23.99
104	23.99
104	23.99
105	23.82
105	23.82
105	23.9
105	23.82
105	23.82
105	23.82
106	23.74
106	23.74
106	23.66
106	23.66
106	23.66
106	23.57
106	23.57
106	23.66
106	23.57
106	23.57
106	23.57
106	23.57
107	23.49
107	23.41
107	23.41
108	23.32
107	23.41
108	23.32
108	23.32
108	23.24
108	23.24
108	23.24
108	23.24
109	23.16
108	23.32
109	23.16
109	23.16
109	23.16
108	23.24
108	23.24
109	23.07
109	23.07
109	23.07
109	22.99
109	23.07
109	22.99
109	22.99
109	22.99
109	22.99
110	22.83
110	22.83
110	22.83
110	22.83
111	22.74
111	22.74
111	22.74
111	22.74
111	22.74
111	22.74
111	22.74
111	22.66
110	22.83
111	22.74
111	22.66
111	22.74
111	22.74
111	22.74
111	22.66
111	22.66
111	22.66
112	22.58
111	22.66
112	22.58
111	22.66
112	22.58
112	22.58
112	22.49
112	22.49
112	22.49
112	22.49
112	22.49
112	22.49
112	22.49
112	22.49
112	22.49
112	22.41
112	22.41
113	22.33
112	22.41
112	22.41
113	22.33
113	22.33
113	22.33
113	22.33
112	22.41
113	22.33
113	22.33
113	22.25
113	22.25
113	22.33
113	22.33
113	22.25
113	22.33
114	22.16
113	22.25
114	22.16
114	22.08
114	22.08
114	22.16
114	22.16
114	22.16
114	22.08
114	22.16
114	22.16
114	22.16
114	22.16
114	22.16
114	22.16
114	22.16
114	22.16
114	22.16
114	22.08
114	22.08
114	22.08
114	22.08
114	22.08
114	22.08
114	22.08
114	22.08
114	22.16
114	22.08
115	22
115	22
115	22
115	22
115	22
115	21.91
115	22
115	22
115	22
115	22
115	21.91
115	21.91
115	21.91
115	21.91
115	21.91
115	22
115	21.91
115	22
115	21.91
115	21.91
116	21.83
115	21.91
116	21.83
115	21.91
115	21.91
115	21.91
116	21.83
115	21.91
115	21.91
116	21.83
115	21.91
115	21.91
116	21.83
116	21.83
116	21.83
115	21.91
116	21.83
116	21.83
116	21.83
116	21.75
116	21.75
116	21.75
116	21.75
116	21.75
116	21.75
116	21.75
116	21.75
116	21.75
116	21.75
117	21.67
117	21.67
117	21.67
117	21.67
117	21.67
117	21.67
117	21.58
117	21.58
117	21.58
117	21.58
117	21.58
117	21.58
117	21.58
117	21.58
117	21.58
117	21.58
117	21.58
117	21.58
117	21.58
117	21.5
117	21.58
117	21.5
117	21.58
117	21.58
118	21.42
118	21.42
118	21.42
118	21.42
118	21.42
118	21.42
118	21.42
118	21.42
118	21.42
118	21.42
118	21.42
118	21.42
118	21.42
118	21.42
118	21.42
118	21.42
117	21.5
117	21.5
117	21.5
117	21.5
117	21.58
117	21.67
115	22
114	22.16
112	22.41
110	22.91
	
	
	
	
	
	
	
	
	
	
	
	
	
	
	
	
	
	
	
	
	
	
	
	
	
	
	
	
	
	
	
	
	
	
	
	
	
	
	
	
	
	
	
	
	
	
	
	
	
	
	
	
	
	
	
	
	
	
	
	
	
	
	
	
	
	
	
	
	
	
	
	
	
	
	
	
	
	
	
	
	
	
	
	
	
	
	
	
	
	
	
	
	
	
	
	
	
	
	
	
	
	
	
	
	
	
	
	
	
	
	
	
	
	
	
	
	
	
	
	
	
	
	
	
	
	
	
	
	
	
	
	
	
	
	
	
	
	
	
	
	
	
	
	
	
	
	
	
	
	
	
	
	
	
	
	
	
	
	
	
	
	
	
	
	
	
	
	
	
	
	
	
	
	
	
	
	
	
	
	
	
	
	
	
	
	
	
	
	
	
	
	
	
	
	
	
	
	
	
	
	
	
	
	
	
	
	
	
	
	
	
	
	
	
	
	
	
	
	
	
	
	
	
	
	
	
	
	
	
	
	
	
	
	
	
	
	
	
	
	
	
	
	
	
	
	
	
	
	
	
	
	
	
	
	
	
	
	
	
	
	
	
	
	
	
	
	
	
	
	
	
	
	
	
	
	
	
	
	
	
	
	
	
	
	
	
	
	
	
	
	
	
	
	
	
	
	
	
	
	
	
	
	
	
	
	
	
	
	
	
	
	
	
	
	
	
	
	
	
	
	
	
	
	
	
	
	
	
	
	
	
	
	
	
	
	
	
	
	
	
	
	
	
	
	
	
	
	
	
	
	
	
	
	
	
	
	
	
	
	
	
	
	
	
	
	
	
	
	
	
	
	
	
	
	
	
	
	
	
	
	
	
	
	
	
	
	
	
	
	
	
	
	
	
	
	
	
	
	
	
	
	
	
	
	
	
	
	
	
	
	
	
	
	
	
	
	
	
	
	
	
	
	
	
	
	
	
	
	
	
	
	
	
	
	
	
	
	
	
	
	
	
	
	
	
	
	
	
	
	
	
	
	
	
	
	
	
	
	
	
	
	
	
	
	
	
	
	
	
	
	
	
	
	
	
	
	
	
	
	
	
	
	
	
	
	
	
	
	
	
	
	
	
	
	
	
	
	
	
	
	
	
	
	
	
	
	
	
	
	
	
	
	
	
	
	
	
	
	
	
	
	
	
	
	
	
	
	
	
	
	
	
	
	
	
	
	
	
	
	
	
	
	
	
	
	
	
	
	
	
	
	
	
	
	
	
	
	
	
	
	
	
	
	
	
	
	
	
	
	
	
	
	
	
	
	
	
	
	
	
	
	
	
	
	
	
	
	
	
	
	
	
	
	
	
	
	
	
	
	
	
	
	
	
	
	
	
	
	
	
	
	
	
	
	
	
	
	
	
	
	
	
	
	
	
	
	
	
	
	
	
	
	
	
	
	
	
	
	
	
	
	
	
	
	
	
	
	
	
	
	
	
	
	
	
	
	
	
	
	
	
	
	
	
	
	
	
	
	
	
	
	
	
	
	
	
	
	
	
	
	
	
	
	
	
	
	
	
	
	
	
	
	
	
	
	
	
	
	
	
	
	
	
	
	
	
	
	
	
	
	
	
	
	
	
	
	
	
	
	
	
	
	
	
	
	
	
	
	
	
	
	
	
	
	
	
	
	
	
	
	
	
	
	
	
	
	
	
	
	
	
	
	
	
	
	
	
	
	
	
	
	
	
	
	
	
	
	
	
	
	
	
	
	
	
	
	
	
	
	
	
	
	
	
	
	
	
	
	
	
	
	
	
	
	
	
	
	
	
	
	
	
	
	
	
	
	
	
	
	
	
	
	
	
	
	
	
	
	
	
	
	
	
	
	
	
	
	
	
	
	
	
	
	
	
	
	
	
	
	
	
	
	
	
	
	
	
	
	
	
	
	
	
	
	
	
	
	
	
	
	
	
	
	
	
	
	
	
	
	
	
	
	
	
	
	
	
	
	
	
	
	
	
	
	
	
	
	
	
	
	
	
	
	
	
	
	
	
	
	
	
	
	
	
	
	
	
	
	
	
	
	
	
	
	
	
	
	
	
	
	
	
	
	
	
	
	
	
	
	
	
	
	
	
	
	
	
	
	
	
	
	
	
	
	
	
	
	
	
	
	
	
	
	
	
	
	
	
	
	
	
	
	
	
	
	
	
	
	
	
	
	
	
	
	
	
	
	
	
	
	
	
	
	
	
	
	
	
	
	
	
	
	
	
	
	
	
	
	
	
	
	
	
	
	
	
	
	
	
	
	
	
	
	
	
	
	
	
	
	
	
	
	
	
	
	
	
	
	
	
	
	
	
	
	
	
	
	
	
	
	
	
	
	
	
	
	
	
	
	
	
	
	
	
	
	
	
	
	
	
	
	
	
	
	
	
	
	
	
	
	
	
	
	
	
	
	
	
	
	
	
	
	
	
	
	
	
	
	
	
	
	
	
	
	
	
	
	
	
	
	
	
	
	
	
	
	
	
	
	
	
	
	
	
	
	
	
	
	
	
	
	
	
	
	
	
	
	
	
	
	
	
	
	
	
	
	
	
	
	
	
	
	
	
	
	
	
	
	
	
	
	
	
	
	
	
	
	
	
	
	
	
	
	
	
	
	
	
	
	
	
	
	
	
	
	
	
	
	
	
	
	
	
	
	
	
	
	
	
	
	
	
	
	
	
	
	
	
	
	
	
	
	
	
	
	
	
	
	
	
	
	
	
	
	
	
	
	
	
	
	
	
	
	
	
	
	
	
	
	
	
	
	
	
	
	
	
	
	
	
	
	
	
	
	
	
	
	
	
	
	
	
	
	
	
	
	
	
	
	
	
	
	
	
	
	
	
	
	
	
	
	
	
	
	
	
	
	
	
	
	
	
	
	
	
	
	
	
	
	
	
	
	
	
	
	
	
	
	
	
	
	
	
	
	
	
	
	
	
	
	
	
	
	
	
	
	
	
	
	
	
	
	
	
	
	
	
	
	
	
	
	
	
	
	
	
	
	
	
	
	
	
	
	
	
	
	
	
	
	
	
	
	
	
	
	
	
	
	
	
	
	
	
	
	
	
	
	
	
	
	
	
	
	
	
	
	
	
	
	
	
	
	
	
	
	
	
	
	
	
	
	
	
	
	
	
	
	
	
	
	
	
	
	
	
	
	
	
	
	
	
	
	
	
	
	
	
	
	
	
	
	
	
	
	
	
	
	
	
	
	
	
	
	
	
	
	
	
	
	
	
	
	
	
	
	
	
	
	
	
	
	
	
	
	
	
	
	
	
	
	
	
	
	
	
	
	
	
	
	
	
	
	
	
	
	
	
	
	
	
	
	
	
	
	
	
	
	
	
	
	
	
	
	
	
	
	
	
	
	
	
	
	
	
	
	
	
	
	
	
	
	
	
	
	
	
	
	
	
	
	
	
	
	
	
	
	
	
	
	
	
	
	
	
	
	
	
	
	
	
	
	
	
	
	
	
	
	
	
	
	
	
	
	
	
	
	
	
	
	
	
	
	
	
	
	
	
	
	
	
	
	
	
	
	
	
	
	
	
	
	
	
	
	
	
	
	
	
	
	
	
	
	
	
	
	
	
	
	
	
	
	
	
	
	
	
	
	
	
	
	
	
	
	
	
	
	
	
	
	
	
	
	
	
	
	
	
	
	
	
	
	
	
	
	
	
	
	
	
	
	
	
	
	
	
	
	
	
	
	
	
	
	
	
	
	
	
	
	
	
	
	
	
	
	
	
	
	
	
	
	
	
	
	
	
	
	
	
	
	
	
	
	
	
	
	
	
	
	
	
	
	
	
	
	
	
	
	
	
	
	
	
	
	
	
	
	
	
	
	
	
	
	
	
	
	
	
	
	
	
	
	
	
	
	
	
	
	
	
	
	
	
	
	
	
	
	
	
	
	
	
	
	
	
	
	
	
	
	
	
	
	
	
	
	
	
	
	
	
	
	
	
	
	
	
	
	
	
	
	
	
	
	
	
	
	
	
	
	
	
	
	
	
	
	
	
	
	
	
	
	
	
	
	
	
	
	
	
	
	
	
	
	
	
	
	
	
	
	
	
	
	
	
	
	
	
	
	
	
	
	
	
	
	
	
	
	
	
	
	
	
	
	
	
	
	
	
	
	
	
	
	
	
	
	
	
	
	
	
	
	
	
	
	
	
	
	
	
	
	
	
	
	
	
	
	
	
	
	
	
	
	
	
	
	
	
	
	
	
	
	
	
	
	
	
	
	
	
	
	
	
	
	
	
	
	
	
	
	
	
	
	
	
	
	
	
	
	
	
	
	
	
	
	
	
	
	
	
	
	
	
	
	
	
	
	
	
	
	
	
	
	
	
	
	
	
	
	
	
	
	
	
	
	
	
	
	
	
	
	
	
	
	
	
	
	
	
	
	
	
	
	
	
	
	
	
	
	
	
	
	
	
	
	
	
	
	
	
	
	
	
	
	
	
	
	
	
	
	
	
	
	
	
	
	
	
	
	
	
	
	
	
	
	
	
	
	
	
	
	
	
	
	
	
	
	
	
	
	
	
	
	
	
	
	
	
	
	
	
	
	
	
	
	
	
	
	
	
	
	
	
	
	
	
	
	
	
	
	
	
	
	
	
	
	
	
	
	
	
	
	
	
	
	
	
	
	
	
	
	
	
	
	
	
	
	
	
	
	
	
	
	
	
	
	
	
	
	
	
	
	
	
	
	
	
	
	
	
	
	
	
	
	
	
	
	
	
	
	
	
	
	
	
	
	
	
	
	
	
	
	
	
	
	
	
	
	
	
	
	
	
	
	
	
	
	
	
	
	
	
	
	
	
	
	
	
	
	
	
	
	
	
	
	
	
	
	
	
	
	
	
	
	
	
	
	
	
	
	
	
	
	
	
	
	
	
	
	
	
	
	
	
	
	
	
	
	
	
	
	
	
	
	
	
	
	
	
	
	
	
	
	
	
	
	
	
	
	
	
	
	
	
	
	
	
	
	
	
	
	
	
	
	
	
	
	
	
	
	
	
	
	
	
	
	
	
	
	
	
	
	
	
	
	
	
	
	
	
	
	
	
	
	
	
	
	
	
	
	
	
	
	
	
	
	
	
	
	
	
	
	
	
	
	
	
	
	
	
	
	
	
	
	
	
	
	
	
	
	
	
	
	
	
	
	
	
	
	
	
	
	
	
	
	
	
	
	
	
	
	
	
	
	
	
	
	
	
	
	
	
	
	
	
	
	
	
	
	
	
	
	
	
	
	
	
	
	
	
	
	
	
	
	
	
	
	
	
	
	
	
	
	
	
	
	
	
	
	
	
	
	
	
	
	
	
	
	
	
	
	
	
	
	
	
	
	
	
	
	
	
	
	
	
	
	
	
	
	
	
	
	
	
	
	
	
	
	
	
	
	
	
	
	
	
	
