This is pdfTeX, Version 3.1415926-2.4-1.40.13 (MiKTeX 2.9) (preloaded format=pdflatex 2012.12.2)  15 DEC 2012 12:48
entering extended mode
**\def\tikzexternalrealjob{DBMS_Chl_externalize}\input{DBMS_Chl_externalize}
(D:\Dropbox\Work_2012_07+\DBMS_Chl\Latex\DBMS_Chl_externalize.tex (D:\Dropbox\W
ork_2012_07+\DBMS_Chl\Latex\sig-alternate.cls ("C:\Program Files (x86)\MiKTeX 2
.9\tex\latex\graphics\epsfig.sty"
Package: epsfig 1999/02/16 v1.7a (e)psfig emulation (SPQR)
("C:\Program Files (x86)\MiKTeX 2.9\tex\latex\graphics\graphicx.sty"
Package: graphicx 1999/02/16 v1.0f Enhanced LaTeX Graphics (DPC,SPQR)
("C:\Program Files (x86)\MiKTeX 2.9\tex\latex\graphics\keyval.sty"
Package: keyval 1999/03/16 v1.13 key=value parser (DPC)
\KV@toks@=\toks14
) ("C:\Program Files (x86)\MiKTeX 2.9\tex\latex\graphics\graphics.sty"
Package: graphics 2009/02/05 v1.0o Standard LaTeX Graphics (DPC,SPQR)
("C:\Program Files (x86)\MiKTeX 2.9\tex\latex\graphics\trig.sty"
Package: trig 1999/03/16 v1.09 sin cos tan (DPC)
) ("C:\Program Files (x86)\MiKTeX 2.9\tex\latex\00miktex\graphics.cfg"
File: graphics.cfg 2007/01/18 v1.5 graphics configuration of teTeX/TeXLive
)
Package graphics Info: Driver file: pdftex.def on input line 91.
("C:\Program Files (x86)\MiKTeX 2.9\tex\latex\pdftex-def\pdftex.def"
File: pdftex.def 2011/05/27 v0.06d Graphics/color for pdfTeX
("C:\Program Files (x86)\MiKTeX 2.9\tex\generic\oberdiek\infwarerr.sty"
Package: infwarerr 2010/04/08 v1.3 Providing info/warning/error messages (HO)
) ("C:\Program Files (x86)\MiKTeX 2.9\tex\generic\oberdiek\ltxcmds.sty"
Package: ltxcmds 2011/11/09 v1.22 LaTeX kernel commands for general use (HO)
)
\Gread@gobject=\count79
))
\Gin@req@height=\dimen102
\Gin@req@width=\dimen103
)
\epsfxsize=\dimen104
\epsfysize=\dimen105
) ("C:\Program Files (x86)\MiKTeX 2.9\tex\latex\amsfonts\amssymb.sty"
Package: amssymb 2009/06/22 v3.00
("C:\Program Files (x86)\MiKTeX 2.9\tex\latex\amsfonts\amsfonts.sty"
Package: amsfonts 2009/06/22 v3.00 Basic AMSFonts support
\@emptytoks=\toks15
\symAMSa=\mathgroup4
\symAMSb=\mathgroup5
LaTeX Font Info:    Overwriting math alphabet `\mathfrak' in version `bold'
(Font)                  U/euf/m/n --> U/euf/b/n on input line 96.
)) ("C:\Program Files (x86)\MiKTeX 2.9\tex\latex\ams\math\amsmath.sty"
Package: amsmath 2000/07/18 v2.13 AMS math features
\@mathmargin=\skip41
For additional information on amsmath, use the `?' option.
("C:\Program Files (x86)\MiKTeX 2.9\tex\latex\ams\math\amstext.sty"
Package: amstext 2000/06/29 v2.01
("C:\Program Files (x86)\MiKTeX 2.9\tex\latex\ams\math\amsgen.sty"
File: amsgen.sty 1999/11/30 v2.0
\@emptytoks=\toks16
\ex@=\dimen106
)) ("C:\Program Files (x86)\MiKTeX 2.9\tex\latex\ams\math\amsbsy.sty"
Package: amsbsy 1999/11/29 v1.2d
\pmbraise@=\dimen107
) ("C:\Program Files (x86)\MiKTeX 2.9\tex\latex\ams\math\amsopn.sty"
Package: amsopn 1999/12/14 v2.01 operator names
)
\inf@bad=\count80
LaTeX Info: Redefining \frac on input line 211.
\uproot@=\count81
\leftroot@=\count82
LaTeX Info: Redefining \overline on input line 307.
\classnum@=\count83
\DOTSCASE@=\count84
LaTeX Info: Redefining \ldots on input line 379.
LaTeX Info: Redefining \dots on input line 382.
LaTeX Info: Redefining \cdots on input line 467.
\Mathstrutbox@=\box26
\strutbox@=\box27
\big@size=\dimen108
LaTeX Font Info:    Redeclaring font encoding OML on input line 567.
LaTeX Font Info:    Redeclaring font encoding OMS on input line 568.
\macc@depth=\count85
\c@MaxMatrixCols=\count86
\dotsspace@=\muskip10
\c@parentequation=\count87
\dspbrk@lvl=\count88
\tag@help=\toks17
\row@=\count89
\column@=\count90
\maxfields@=\count91
\andhelp@=\toks18
\eqnshift@=\dimen109
\alignsep@=\dimen110
\tagshift@=\dimen111
\tagwidth@=\dimen112
\totwidth@=\dimen113
\lineht@=\dimen114
\@envbody=\toks19
\multlinegap=\skip42
\multlinetaggap=\skip43
\mathdisplay@stack=\toks20
LaTeX Info: Redefining \[ on input line 2666.
LaTeX Info: Redefining \] on input line 2667.
)
Document Class 'sig-alternate' <23rd. May '12>. Modified by G.K.M. Tobin/Gerry 
Murray
Based in part upon document Style `acmconf' <22 May 89>. Hacked 4/91 by
shivers@cs.cmu.edu, 4/93 by theobald@cs.mcgill.ca
Excerpts were taken from (Journal Style) 'esub2acm.cls'.
****** Bugs/comments/suggestions/technicalities to Gerry Murray -- murray@hq.ac
m.org ******
Questions on the style, SIGS policies, etc. to Adrienne Griscti griscti@acm.org

\footheight=\dimen115
\@maxsep=\dimen116
\@dblmaxsep=\dimen117
\aucount=\count92
\originalaucount=\count93
\auwidth=\dimen118
\auskip=\dimen119
\auskipcount=\count94
\auskip=\dimen120
\allauboxes=\dimen121
\addauthors=\toks21
\addauflag=\count95
\subtitletext=\toks22
\savesection=\count96
\sectioncntr=\count97
\c@figure=\count98
\c@table=\count99
\titleboxnotes=\toks23
\titleboxnoteflag=\count100
Document Class: sig-alternate 2012/05/23 - V2.5 - based on acmproc.cls V1.3 <No
v. 30 '99>
("C:\Program Files (x86)\MiKTeX 2.9\tex\latex\base\latexsym.sty"
Package: latexsym 1998/08/17 v2.2e Standard LaTeX package (lasy symbols)
\symlasy=\mathgroup6
LaTeX Font Info:    Overwriting symbol font `lasy' in version `bold'
(Font)                  U/lasy/m/n --> U/lasy/b/n on input line 47.
)
\@acmtitlebox=\box28
\titlenotecount=\count101
\tntoks=\toks24
\tntokstwo=\toks25
\tntoksthree=\toks26
\tntoksfour=\toks27
\tntoksfive=\toks28
\catcount=\count102
\copyrightnotice=\toks29
\conf=\toks30
\confinfo=\toks31
\c@part=\count103
\c@section=\count104
\c@subsection=\count105
\c@subsubsection=\count106
\c@paragraph=\count107
Using 'Abbrev' bibliography style
LaTeX Info: Redefining \cite on input line 1215.
\bibindent=\dimen122
\colcntr=\count108
\saveb@x=\box29
\copyrtyr=\toks32
\acmcopyr=\toks33
\boilerplate=\toks34
\copyrightetc=\toks35
("C:\Program Files (x86)\MiKTeX 2.9\tex\latex\base\fontenc.sty"
Package: fontenc 2005/09/27 v1.99g Standard LaTeX package
("C:\Program Files (x86)\MiKTeX 2.9\tex\latex\base\t1enc.def"
File: t1enc.def 2005/09/27 v1.99g Standard LaTeX file
LaTeX Font Info:    Redeclaring font encoding T1 on input line 43.
)
LaTeX Font Info:    Try loading font information for T1+aer on input line 100.
("C:\Program Files (x86)\MiKTeX 2.9\tex\latex\ae\t1aer.fd"
File: t1aer.fd 1997/11/16 Font definitions for T1/aer.
)))
(C:\Users\matthias.kauer\AppData\Roaming\MiKTeX\2.9\tex\latex\setspace\setspace
.sty
Package: setspace 2011/12/19 v6.7a set line spacing
)
(C:\Users\matthias.kauer\AppData\Roaming\MiKTeX\2.9\tex\latex\nomencl\nomencl.s
ty
Package: nomencl 2005/09/22 v4.2 Nomenclature package (LN)
\nomlabelwidth=\dimen123
\nom@tempdim=\dimen124
\nomitemsep=\skip44
) ("C:\Program Files (x86)\MiKTeX 2.9\tex\latex\base\exscale.sty"
Package: exscale 2007/10/29 v2.1h Standard LaTeX package exscale
LaTeX Font Info:    Redeclaring symbol font `largesymbols' on input line 52.
LaTeX Font Info:    Overwriting symbol font `largesymbols' in version `normal'
(Font)                  OMX/cmex/m/n --> OMX/cmex/m/n on input line 52.
LaTeX Font Info:    Overwriting symbol font `largesymbols' in version `bold'
(Font)                  OMX/cmex/m/n --> OMX/cmex/m/n on input line 52.
\big@size=\dimen125
) ("C:\Program Files (x86)\MiKTeX 2.9\tex\latex\ltxmisc\url.sty"
\Urlmuskip=\muskip11
Package: url 2006/04/12  ver 3.3  Verb mode for urls, etc.
) ("C:\Program Files (x86)\MiKTeX 2.9\tex\latex\multirow\multirow.sty"
\bigstrutjot=\dimen126
) ("C:\Program Files (x86)\MiKTeX 2.9\tex\latex\base\textcomp.sty"
Package: textcomp 2005/09/27 v1.99g Standard LaTeX package
Package textcomp Info: Sub-encoding information:
(textcomp)               5 = only ISO-Adobe without \textcurrency
(textcomp)               4 = 5 + \texteuro
(textcomp)               3 = 4 + \textohm
(textcomp)               2 = 3 + \textestimated + \textcurrency
(textcomp)               1 = TS1 - \textcircled - \t
(textcomp)               0 = TS1 (full)
(textcomp)             Font families with sub-encoding setting implement
(textcomp)             only a restricted character set as indicated.
(textcomp)             Family '?' is the default used for unknown fonts.
(textcomp)             See the documentation for details.
Package textcomp Info: Setting ? sub-encoding to TS1/1 on input line 71.
("C:\Program Files (x86)\MiKTeX 2.9\tex\latex\base\ts1enc.def"
File: ts1enc.def 2001/06/05 v3.0e (jk/car/fm) Standard LaTeX file
)
LaTeX Info: Redefining \oldstylenums on input line 266.
Package textcomp Info: Setting cmr sub-encoding to TS1/0 on input line 281.
Package textcomp Info: Setting cmss sub-encoding to TS1/0 on input line 282.
Package textcomp Info: Setting cmtt sub-encoding to TS1/0 on input line 283.
Package textcomp Info: Setting cmvtt sub-encoding to TS1/0 on input line 284.
Package textcomp Info: Setting cmbr sub-encoding to TS1/0 on input line 285.
Package textcomp Info: Setting cmtl sub-encoding to TS1/0 on input line 286.
Package textcomp Info: Setting ccr sub-encoding to TS1/0 on input line 287.
Package textcomp Info: Setting ptm sub-encoding to TS1/4 on input line 288.
Package textcomp Info: Setting pcr sub-encoding to TS1/4 on input line 289.
Package textcomp Info: Setting phv sub-encoding to TS1/4 on input line 290.
Package textcomp Info: Setting ppl sub-encoding to TS1/3 on input line 291.
Package textcomp Info: Setting pag sub-encoding to TS1/4 on input line 292.
Package textcomp Info: Setting pbk sub-encoding to TS1/4 on input line 293.
Package textcomp Info: Setting pnc sub-encoding to TS1/4 on input line 294.
Package textcomp Info: Setting pzc sub-encoding to TS1/4 on input line 295.
Package textcomp Info: Setting bch sub-encoding to TS1/4 on input line 296.
Package textcomp Info: Setting put sub-encoding to TS1/5 on input line 297.
Package textcomp Info: Setting uag sub-encoding to TS1/5 on input line 298.
Package textcomp Info: Setting ugq sub-encoding to TS1/5 on input line 299.
Package textcomp Info: Setting ul8 sub-encoding to TS1/4 on input line 300.
Package textcomp Info: Setting ul9 sub-encoding to TS1/4 on input line 301.
Package textcomp Info: Setting augie sub-encoding to TS1/5 on input line 302.
Package textcomp Info: Setting dayrom sub-encoding to TS1/3 on input line 303.
Package textcomp Info: Setting dayroms sub-encoding to TS1/3 on input line 304.

Package textcomp Info: Setting pxr sub-encoding to TS1/0 on input line 305.
Package textcomp Info: Setting pxss sub-encoding to TS1/0 on input line 306.
Package textcomp Info: Setting pxtt sub-encoding to TS1/0 on input line 307.
Package textcomp Info: Setting txr sub-encoding to TS1/0 on input line 308.
Package textcomp Info: Setting txss sub-encoding to TS1/0 on input line 309.
Package textcomp Info: Setting txtt sub-encoding to TS1/0 on input line 310.
Package textcomp Info: Setting lmr sub-encoding to TS1/0 on input line 311.
Package textcomp Info: Setting lmdh sub-encoding to TS1/0 on input line 312.
Package textcomp Info: Setting lmss sub-encoding to TS1/0 on input line 313.
Package textcomp Info: Setting lmssq sub-encoding to TS1/0 on input line 314.
Package textcomp Info: Setting lmvtt sub-encoding to TS1/0 on input line 315.
Package textcomp Info: Setting qhv sub-encoding to TS1/0 on input line 316.
Package textcomp Info: Setting qag sub-encoding to TS1/0 on input line 317.
Package textcomp Info: Setting qbk sub-encoding to TS1/0 on input line 318.
Package textcomp Info: Setting qcr sub-encoding to TS1/0 on input line 319.
Package textcomp Info: Setting qcs sub-encoding to TS1/0 on input line 320.
Package textcomp Info: Setting qpl sub-encoding to TS1/0 on input line 321.
Package textcomp Info: Setting qtm sub-encoding to TS1/0 on input line 322.
Package textcomp Info: Setting qzc sub-encoding to TS1/0 on input line 323.
Package textcomp Info: Setting qhvc sub-encoding to TS1/0 on input line 324.
Package textcomp Info: Setting futs sub-encoding to TS1/4 on input line 325.
Package textcomp Info: Setting futx sub-encoding to TS1/4 on input line 326.
Package textcomp Info: Setting futj sub-encoding to TS1/4 on input line 327.
Package textcomp Info: Setting hlh sub-encoding to TS1/3 on input line 328.
Package textcomp Info: Setting hls sub-encoding to TS1/3 on input line 329.
Package textcomp Info: Setting hlst sub-encoding to TS1/3 on input line 330.
Package textcomp Info: Setting hlct sub-encoding to TS1/5 on input line 331.
Package textcomp Info: Setting hlx sub-encoding to TS1/5 on input line 332.
Package textcomp Info: Setting hlce sub-encoding to TS1/5 on input line 333.
Package textcomp Info: Setting hlcn sub-encoding to TS1/5 on input line 334.
Package textcomp Info: Setting hlcw sub-encoding to TS1/5 on input line 335.
Package textcomp Info: Setting hlcf sub-encoding to TS1/5 on input line 336.
Package textcomp Info: Setting pplx sub-encoding to TS1/3 on input line 337.
Package textcomp Info: Setting pplj sub-encoding to TS1/3 on input line 338.
Package textcomp Info: Setting ptmx sub-encoding to TS1/4 on input line 339.
Package textcomp Info: Setting ptmj sub-encoding to TS1/4 on input line 340.
) ("C:\Program Files (x86)\MiKTeX 2.9\tex\latex\psnfss\pifont.sty"
Package: pifont 2005/04/12 PSNFSS-v9.2a Pi font support (SPQR) 
LaTeX Font Info:    Try loading font information for U+pzd on input line 63.
("C:\Program Files (x86)\MiKTeX 2.9\tex\latex\psnfss\upzd.fd"
File: upzd.fd 2001/06/04 font definitions for U/pzd.
)
LaTeX Font Info:    Try loading font information for U+psy on input line 64.
("C:\Program Files (x86)\MiKTeX 2.9\tex\latex\psnfss\upsy.fd"
File: upsy.fd 2001/06/04 font definitions for U/psy.
))
(C:\Users\matthias.kauer\AppData\Roaming\MiKTeX\2.9\tex\latex\algorithms\algori
thm.sty
Package: algorithm 2009/08/24 v0.1 Document Style `algorithm' - floating enviro
nment
("C:\Program Files (x86)\MiKTeX 2.9\tex\latex\float\float.sty"
Package: float 2001/11/08 v1.3d Float enhancements (AL)
\c@float@type=\count109
\float@exts=\toks36
\float@box=\box30
\@float@everytoks=\toks37
\@floatcapt=\box31
) ("C:\Program Files (x86)\MiKTeX 2.9\tex\latex\base\ifthen.sty"
Package: ifthen 2001/05/26 v1.1c Standard LaTeX ifthen package (DPC)
)
\@float@every@algorithm=\toks38
\c@algorithm=\count110
)
(C:\Users\matthias.kauer\AppData\Roaming\MiKTeX\2.9\tex\latex\algorithmicx\algp
seudocode.sty
Package: algpseudocode 

(C:\Users\matthias.kauer\AppData\Roaming\MiKTeX\2.9\tex\latex\algorithmicx\algo
rithmicx.sty
Package: algorithmicx 2005/04/27 v1.2 Algorithmicx
Document Style algorithmicx 1.2 - a greatly improved `algorithmic' style
\c@ALG@line=\count111
\c@ALG@rem=\count112
\c@ALG@nested=\count113
\ALG@tlm=\skip45
\ALG@thistlm=\skip46
\c@ALG@Lnr=\count114
\c@ALG@blocknr=\count115
\c@ALG@storecount=\count116
\c@ALG@tmpcounter=\count117
\ALG@tmplength=\skip47
)
Document Style - pseudocode environments for use with the `algorithmicx' style
)
(C:\Users\matthias.kauer\AppData\Roaming\MiKTeX\2.9\tex\latex\subfigure\subfigu
re.sty
Package: subfigure 2002/07/30 v2.1.4 subfigure package
\subfigtopskip=\skip48
\subfigcapskip=\skip49
\subfigcaptopadj=\dimen127
\subfigbottomskip=\skip50
\subfigcapmargin=\dimen128
\subfiglabelskip=\skip51
\c@subfigure=\count118
\c@lofdepth=\count119
\c@subtable=\count120
\c@lotdepth=\count121
****************************************
* Local config file subfigure.cfg used *
****************************************

(C:\Users\matthias.kauer\AppData\Roaming\MiKTeX\2.9\tex\latex\subfigure\subfigu
re.cfg)
\subfig@top=\skip52
\subfig@bottom=\skip53
) ("C:\Program Files (x86)\MiKTeX 2.9\tex\latex\tools\calc.sty"
Package: calc 2007/08/22 v4.3 Infix arithmetic (KKT,FJ)
\calc@Acount=\count122
\calc@Bcount=\count123
\calc@Adimen=\dimen129
\calc@Bdimen=\dimen130
\calc@Askip=\skip54
\calc@Bskip=\skip55
LaTeX Info: Redefining \setlength on input line 76.
LaTeX Info: Redefining \addtolength on input line 77.
\calc@Ccount=\count124
\calc@Cskip=\skip56
) ("C:\Program Files (x86)\MiKTeX 2.9\tex\latex\tools\array.sty"
Package: array 2008/09/09 v2.4c Tabular extension package (FMi)
\col@sep=\dimen131
\extrarowheight=\dimen132
\NC@list=\toks39
\extratabsurround=\skip57
\backup@length=\skip58
)
(C:\Users\matthias.kauer\AppData\Roaming\MiKTeX\2.9\tex\latex\acronym\acronym.s
ty
Package: acronym 2010/09/08 v1.36 Support for acronyms (Tobias Oetiker)

(C:\Users\matthias.kauer\AppData\Roaming\MiKTeX\2.9\tex\latex\bigfoot\suffix.st
y
Package: suffix 2006/07/15 1.5 Variant command support
)
\AC@clearlist=\toks40
)
(C:\Users\matthias.kauer\AppData\Roaming\MiKTeX\2.9\tex\latex\filecontents\file
contents.sty
Package: filecontents 2011/10/08 v1.3 Create an external file from within a LaT
eX document
) ("C:\Program Files (x86)\MiKTeX 2.9\tex\latex\tools\bm.sty"
Package: bm 2004/02/26 v1.1c Bold Symbol Support (DPC/FMi)
\symboldoperators=\mathgroup7
\symboldletters=\mathgroup8
\symboldsymbols=\mathgroup9
\symboldlasy=\mathgroup10
LaTeX Font Info:    Redeclaring math alphabet \mathbf on input line 138.
LaTeX Info: Redefining \bm on input line 204.
)
(C:\Users\matthias.kauer\AppData\Roaming\MiKTeX\2.9\tex\latex\pgf\basiclayer\pg
f.sty
(C:\Users\matthias.kauer\AppData\Roaming\MiKTeX\2.9\tex\latex\pgf\utilities\pgf
rcs.sty
(C:\Users\matthias.kauer\AppData\Roaming\MiKTeX\2.9\tex\generic\pgf\utilities\p
gfutil-common.tex
\pgfutil@everybye=\toks41
)
(C:\Users\matthias.kauer\AppData\Roaming\MiKTeX\2.9\tex\generic\pgf\utilities\p
gfutil-latex.def
\pgfutil@abb=\box32
(C:\Users\matthias.kauer\AppData\Roaming\MiKTeX\2.9\tex\latex\ms\everyshi.sty
Package: everyshi 2001/05/15 v3.00 EveryShipout Package (MS)
))
(C:\Users\matthias.kauer\AppData\Roaming\MiKTeX\2.9\tex\generic\pgf\utilities\p
gfrcs.code.tex
Package: pgfrcs 2010/10/25 v2.10 (rcs-revision 1.24)
))
Package: pgf 2008/01/15 v2.10 (rcs-revision 1.12)

(C:\Users\matthias.kauer\AppData\Roaming\MiKTeX\2.9\tex\latex\pgf\basiclayer\pg
fcore.sty
(C:\Users\matthias.kauer\AppData\Roaming\MiKTeX\2.9\tex\latex\pgf\systemlayer\p
gfsys.sty
(C:\Users\matthias.kauer\AppData\Roaming\MiKTeX\2.9\tex\generic\pgf\systemlayer
\pgfsys.code.tex
Package: pgfsys 2010/06/30 v2.10 (rcs-revision 1.37)

(C:\Users\matthias.kauer\AppData\Roaming\MiKTeX\2.9\tex\generic\pgf\utilities\p
gfkeys.code.tex
\pgfkeys@pathtoks=\toks42
\pgfkeys@temptoks=\toks43

(C:\Users\matthias.kauer\AppData\Roaming\MiKTeX\2.9\tex\generic\pgf\utilities\p
gfkeysfiltered.code.tex
\pgfkeys@tmptoks=\toks44
))
\pgf@x=\dimen133
\pgf@y=\dimen134
\pgf@xa=\dimen135
\pgf@ya=\dimen136
\pgf@xb=\dimen137
\pgf@yb=\dimen138
\pgf@xc=\dimen139
\pgf@yc=\dimen140
\w@pgf@writea=\write3
\r@pgf@reada=\read1
\c@pgf@counta=\count125
\c@pgf@countb=\count126
\c@pgf@countc=\count127
\c@pgf@countd=\count128

(C:\Users\matthias.kauer\AppData\Roaming\MiKTeX\2.9\tex\generic\pgf\systemlayer
\pgf.cfg
File: pgf.cfg 2008/05/14  (rcs-revision 1.7)
)
Package pgfsys Info: Driver file for pgf: pgfsys-pdftex.def on input line 900.

(C:\Users\matthias.kauer\AppData\Roaming\MiKTeX\2.9\tex\generic\pgf\systemlayer
\pgfsys-pdftex.def
File: pgfsys-pdftex.def 2009/05/22  (rcs-revision 1.26)

(C:\Users\matthias.kauer\AppData\Roaming\MiKTeX\2.9\tex\generic\pgf\systemlayer
\pgfsys-common-pdf.def
File: pgfsys-common-pdf.def 2008/05/19  (rcs-revision 1.10)
)))
(C:\Users\matthias.kauer\AppData\Roaming\MiKTeX\2.9\tex\generic\pgf\systemlayer
\pgfsyssoftpath.code.tex
File: pgfsyssoftpath.code.tex 2008/07/18  (rcs-revision 1.7)
\pgfsyssoftpath@smallbuffer@items=\count129
\pgfsyssoftpath@bigbuffer@items=\count130
)
(C:\Users\matthias.kauer\AppData\Roaming\MiKTeX\2.9\tex\generic\pgf\systemlayer
\pgfsysprotocol.code.tex
File: pgfsysprotocol.code.tex 2006/10/16  (rcs-revision 1.4)
))
(C:\Users\matthias.kauer\AppData\Roaming\MiKTeX\2.9\tex\latex\xcolor\xcolor.sty
Package: xcolor 2007/01/21 v2.11 LaTeX color extensions (UK)
("C:\Program Files (x86)\MiKTeX 2.9\tex\latex\00miktex\color.cfg"
File: color.cfg 2007/01/18 v1.5 color configuration of teTeX/TeXLive
)
Package xcolor Info: Driver file: pdftex.def on input line 225.
Package xcolor Info: Model `cmy' substituted by `cmy0' on input line 1337.
Package xcolor Info: Model `hsb' substituted by `rgb' on input line 1341.
Package xcolor Info: Model `RGB' extended on input line 1353.
Package xcolor Info: Model `HTML' substituted by `rgb' on input line 1355.
Package xcolor Info: Model `Hsb' substituted by `hsb' on input line 1356.
Package xcolor Info: Model `tHsb' substituted by `hsb' on input line 1357.
Package xcolor Info: Model `HSB' substituted by `hsb' on input line 1358.
Package xcolor Info: Model `Gray' substituted by `gray' on input line 1359.
Package xcolor Info: Model `wave' substituted by `hsb' on input line 1360.
)
(C:\Users\matthias.kauer\AppData\Roaming\MiKTeX\2.9\tex\generic\pgf\basiclayer\
pgfcore.code.tex
Package: pgfcore 2010/04/11 v2.10 (rcs-revision 1.7)

(C:\Users\matthias.kauer\AppData\Roaming\MiKTeX\2.9\tex\generic\pgf\math\pgfmat
h.code.tex
(C:\Users\matthias.kauer\AppData\Roaming\MiKTeX\2.9\tex\generic\pgf\math\pgfmat
hcalc.code.tex
(C:\Users\matthias.kauer\AppData\Roaming\MiKTeX\2.9\tex\generic\pgf\math\pgfmat
hutil.code.tex)
(C:\Users\matthias.kauer\AppData\Roaming\MiKTeX\2.9\tex\generic\pgf\math\pgfmat
hparser.code.tex
\pgfmath@dimen=\dimen141
\pgfmath@count=\count131
\pgfmath@box=\box33
\pgfmath@toks=\toks45
\pgfmath@stack@operand=\toks46
\pgfmath@stack@operation=\toks47
)
(C:\Users\matthias.kauer\AppData\Roaming\MiKTeX\2.9\tex\generic\pgf\math\pgfmat
hfunctions.code.tex
(C:\Users\matthias.kauer\AppData\Roaming\MiKTeX\2.9\tex\generic\pgf\math\pgfmat
hfunctions.basic.code.tex)
(C:\Users\matthias.kauer\AppData\Roaming\MiKTeX\2.9\tex\generic\pgf\math\pgfmat
hfunctions.trigonometric.code.tex)
(C:\Users\matthias.kauer\AppData\Roaming\MiKTeX\2.9\tex\generic\pgf\math\pgfmat
hfunctions.random.code.tex)
(C:\Users\matthias.kauer\AppData\Roaming\MiKTeX\2.9\tex\generic\pgf\math\pgfmat
hfunctions.comparison.code.tex)
(C:\Users\matthias.kauer\AppData\Roaming\MiKTeX\2.9\tex\generic\pgf\math\pgfmat
hfunctions.base.code.tex)
(C:\Users\matthias.kauer\AppData\Roaming\MiKTeX\2.9\tex\generic\pgf\math\pgfmat
hfunctions.round.code.tex)
(C:\Users\matthias.kauer\AppData\Roaming\MiKTeX\2.9\tex\generic\pgf\math\pgfmat
hfunctions.misc.code.tex)))
(C:\Users\matthias.kauer\AppData\Roaming\MiKTeX\2.9\tex\generic\pgf\math\pgfmat
hfloat.code.tex
\c@pgfmathroundto@lastzeros=\count132
))
(C:\Users\matthias.kauer\AppData\Roaming\MiKTeX\2.9\tex\generic\pgf\basiclayer\
pgfcorepoints.code.tex
File: pgfcorepoints.code.tex 2010/04/09  (rcs-revision 1.20)
\pgf@picminx=\dimen142
\pgf@picmaxx=\dimen143
\pgf@picminy=\dimen144
\pgf@picmaxy=\dimen145
\pgf@pathminx=\dimen146
\pgf@pathmaxx=\dimen147
\pgf@pathminy=\dimen148
\pgf@pathmaxy=\dimen149
\pgf@xx=\dimen150
\pgf@xy=\dimen151
\pgf@yx=\dimen152
\pgf@yy=\dimen153
\pgf@zx=\dimen154
\pgf@zy=\dimen155
)
(C:\Users\matthias.kauer\AppData\Roaming\MiKTeX\2.9\tex\generic\pgf\basiclayer\
pgfcorepathconstruct.code.tex
File: pgfcorepathconstruct.code.tex 2010/08/03  (rcs-revision 1.24)
\pgf@path@lastx=\dimen156
\pgf@path@lasty=\dimen157
)
(C:\Users\matthias.kauer\AppData\Roaming\MiKTeX\2.9\tex\generic\pgf\basiclayer\
pgfcorepathusage.code.tex
File: pgfcorepathusage.code.tex 2008/04/22  (rcs-revision 1.12)
\pgf@shorten@end@additional=\dimen158
\pgf@shorten@start@additional=\dimen159
)
(C:\Users\matthias.kauer\AppData\Roaming\MiKTeX\2.9\tex\generic\pgf\basiclayer\
pgfcorescopes.code.tex
File: pgfcorescopes.code.tex 2010/09/08  (rcs-revision 1.34)
\pgfpic=\box34
\pgf@hbox=\box35
\pgf@layerbox@main=\box36
\pgf@picture@serial@count=\count133
)
(C:\Users\matthias.kauer\AppData\Roaming\MiKTeX\2.9\tex\generic\pgf\basiclayer\
pgfcoregraphicstate.code.tex
File: pgfcoregraphicstate.code.tex 2008/04/22  (rcs-revision 1.9)
\pgflinewidth=\dimen160
)
(C:\Users\matthias.kauer\AppData\Roaming\MiKTeX\2.9\tex\generic\pgf\basiclayer\
pgfcoretransformations.code.tex
File: pgfcoretransformations.code.tex 2009/06/10  (rcs-revision 1.11)
\pgf@pt@x=\dimen161
\pgf@pt@y=\dimen162
\pgf@pt@temp=\dimen163
)
(C:\Users\matthias.kauer\AppData\Roaming\MiKTeX\2.9\tex\generic\pgf\basiclayer\
pgfcorequick.code.tex
File: pgfcorequick.code.tex 2008/10/09  (rcs-revision 1.3)
)
(C:\Users\matthias.kauer\AppData\Roaming\MiKTeX\2.9\tex\generic\pgf\basiclayer\
pgfcoreobjects.code.tex
File: pgfcoreobjects.code.tex 2006/10/11  (rcs-revision 1.2)
)
(C:\Users\matthias.kauer\AppData\Roaming\MiKTeX\2.9\tex\generic\pgf\basiclayer\
pgfcorepathprocessing.code.tex
File: pgfcorepathprocessing.code.tex 2008/10/09  (rcs-revision 1.8)
)
(C:\Users\matthias.kauer\AppData\Roaming\MiKTeX\2.9\tex\generic\pgf\basiclayer\
pgfcorearrows.code.tex
File: pgfcorearrows.code.tex 2008/04/23  (rcs-revision 1.11)
)
(C:\Users\matthias.kauer\AppData\Roaming\MiKTeX\2.9\tex\generic\pgf\basiclayer\
pgfcoreshade.code.tex
File: pgfcoreshade.code.tex 2008/11/23  (rcs-revision 1.13)
\pgf@max=\dimen164
\pgf@sys@shading@range@num=\count134
)
(C:\Users\matthias.kauer\AppData\Roaming\MiKTeX\2.9\tex\generic\pgf\basiclayer\
pgfcoreimage.code.tex
File: pgfcoreimage.code.tex 2010/03/25  (rcs-revision 1.16)

(C:\Users\matthias.kauer\AppData\Roaming\MiKTeX\2.9\tex\generic\pgf\basiclayer\
pgfcoreexternal.code.tex
File: pgfcoreexternal.code.tex 2010/09/01  (rcs-revision 1.17)
\pgfexternal@startupbox=\box37
))
(C:\Users\matthias.kauer\AppData\Roaming\MiKTeX\2.9\tex\generic\pgf\basiclayer\
pgfcorelayers.code.tex
File: pgfcorelayers.code.tex 2010/08/27  (rcs-revision 1.2)
)
(C:\Users\matthias.kauer\AppData\Roaming\MiKTeX\2.9\tex\generic\pgf\basiclayer\
pgfcoretransparency.code.tex
File: pgfcoretransparency.code.tex 2008/01/17  (rcs-revision 1.2)
)
(C:\Users\matthias.kauer\AppData\Roaming\MiKTeX\2.9\tex\generic\pgf\basiclayer\
pgfcorepatterns.code.tex
File: pgfcorepatterns.code.tex 2009/07/02  (rcs-revision 1.3)
)))
(C:\Users\matthias.kauer\AppData\Roaming\MiKTeX\2.9\tex\generic\pgf\modules\pgf
moduleshapes.code.tex
File: pgfmoduleshapes.code.tex 2010/09/09  (rcs-revision 1.13)
\pgfnodeparttextbox=\box38
)
(C:\Users\matthias.kauer\AppData\Roaming\MiKTeX\2.9\tex\generic\pgf\modules\pgf
moduleplot.code.tex
File: pgfmoduleplot.code.tex 2010/10/22  (rcs-revision 1.8)
)
(C:\Users\matthias.kauer\AppData\Roaming\MiKTeX\2.9\tex\latex\pgf\compatibility
\pgfcomp-version-0-65.sty
Package: pgfcomp-version-0-65 2007/07/03 v2.10 (rcs-revision 1.7)
\pgf@nodesepstart=\dimen165
\pgf@nodesepend=\dimen166
)
(C:\Users\matthias.kauer\AppData\Roaming\MiKTeX\2.9\tex\latex\pgf\compatibility
\pgfcomp-version-1-18.sty
Package: pgfcomp-version-1-18 2007/07/23 v2.10 (rcs-revision 1.1)
))
(C:\Users\matthias.kauer\AppData\Roaming\MiKTeX\2.9\tex\latex\pgf\frontendlayer
\tikz.sty
(C:\Users\matthias.kauer\AppData\Roaming\MiKTeX\2.9\tex\latex\pgf\utilities\pgf
for.sty
(C:\Users\matthias.kauer\AppData\Roaming\MiKTeX\2.9\tex\latex\pgf\utilities\pgf
keys.sty
(C:\Users\matthias.kauer\AppData\Roaming\MiKTeX\2.9\tex\generic\pgf\utilities\p
gfkeys.code.tex))
(C:\Users\matthias.kauer\AppData\Roaming\MiKTeX\2.9\tex\generic\pgf\utilities\p
gffor.code.tex
Package: pgffor 2010/03/23 v2.10 (rcs-revision 1.18)
\pgffor@iter=\dimen167
\pgffor@skip=\dimen168
\pgffor@stack=\toks48
\pgffor@toks=\toks49
))
(C:\Users\matthias.kauer\AppData\Roaming\MiKTeX\2.9\tex\generic\pgf\frontendlay
er\tikz\tikz.code.tex
Package: tikz 2010/10/13 v2.10 (rcs-revision 1.76)

(C:\Users\matthias.kauer\AppData\Roaming\MiKTeX\2.9\tex\generic\pgf\libraries\p
gflibraryplothandlers.code.tex
File: pgflibraryplothandlers.code.tex 2010/05/31 v2.10 (rcs-revision 1.15)
\pgf@plot@mark@count=\count135
\pgfplotmarksize=\dimen169
)
\tikz@lastx=\dimen170
\tikz@lasty=\dimen171
\tikz@lastxsaved=\dimen172
\tikz@lastysaved=\dimen173
\tikzleveldistance=\dimen174
\tikzsiblingdistance=\dimen175
\tikz@figbox=\box39
\tikz@tempbox=\box40
\tikztreelevel=\count136
\tikznumberofchildren=\count137
\tikznumberofcurrentchild=\count138
\tikz@fig@count=\count139

(C:\Users\matthias.kauer\AppData\Roaming\MiKTeX\2.9\tex\generic\pgf\modules\pgf
modulematrix.code.tex
File: pgfmodulematrix.code.tex 2010/08/24  (rcs-revision 1.4)
\pgfmatrixcurrentrow=\count140
\pgfmatrixcurrentcolumn=\count141
\pgf@matrix@numberofcolumns=\count142
)
\tikz@expandcount=\count143

(C:\Users\matthias.kauer\AppData\Roaming\MiKTeX\2.9\tex\generic\pgf\frontendlay
er\tikz\libraries\tikzlibrarytopaths.code.tex
File: tikzlibrarytopaths.code.tex 2008/06/17 v2.10 (rcs-revision 1.2)
)))
(C:\Users\matthias.kauer\AppData\Roaming\MiKTeX\2.9\tex\latex\pgfplots\pgfplots
.sty
(C:\Users\matthias.kauer\AppData\Roaming\MiKTeX\2.9\tex\generic\pgfplots\pgfplo
ts.revision.tex)
Package: pgfplots 2011/12/29 v1.5.1 (git show 1.5.1-4-g53e640f )

(C:\Users\matthias.kauer\AppData\Roaming\MiKTeX\2.9\tex\generic\pgfplots\pgfplo
ts.code.tex
(C:\Users\matthias.kauer\AppData\Roaming\MiKTeX\2.9\tex\generic\pgfplots\pgfplo
tscore.code.tex
\t@pgfplots@toka=\toks50
\t@pgfplots@tokb=\toks51
\t@pgfplots@tokc=\toks52
\pgfplots@tmpa=\dimen176
\c@pgfplots@coordindex=\count144
\c@pgfplots@scanlineindex=\count145

(C:\Users\matthias.kauer\AppData\Roaming\MiKTeX\2.9\tex\generic\pgfplots\sys\pg
fplotssysgeneric.code.tex))
(C:\Users\matthias.kauer\AppData\Roaming\MiKTeX\2.9\tex\generic\pgfplots\libs\p
gfplotslibrary.code.tex)
(C:\Users\matthias.kauer\AppData\Roaming\MiKTeX\2.9\tex\generic\pgfplots\oldpgf
compatib\pgfplotsoldpgfsupp_loader.code.tex
Package pgfplots: loading complementary code for your PGF version...

(C:\Users\matthias.kauer\AppData\Roaming\MiKTeX\2.9\tex\generic\pgfplots\oldpgf
compatib\pgfplotsoldpgfsupp_misc.code.tex)
(C:\Users\matthias.kauer\AppData\Roaming\MiKTeX\2.9\tex\generic\pgfplots\oldpgf
compatib\pgfplotsoldpgfsupp_pgfkeys.code.tex
\pgfkeys@pathtoks=\toks53
\pgfkeys@temptoks=\toks54

(C:\Users\matthias.kauer\AppData\Roaming\MiKTeX\2.9\tex\generic\pgfplots\oldpgf
compatib\pgfplotsoldpgfsupp_pgfkeysfiltered.code.tex
\pgfkeys@tmptoks=\toks55
))
(C:\Users\matthias.kauer\AppData\Roaming\MiKTeX\2.9\tex\generic\pgfplots\oldpgf
compatib\pgfplotsoldpgfsupp_pgfmathfloat.code.tex
\c@pgfmathroundto@lastzeros=\count146
)
(C:\Users\matthias.kauer\AppData\Roaming\MiKTeX\2.9\tex\generic\pgfplots\oldpgf
compatib\pgfplotsoldpgfsupp_pgflibraryplothandlers.code.tex
File: pgflibraryplothandlers.code.tex 2011/12/28 v2.10 (rcs-revision 1.16)
\pgf@plot@mark@count=\count147
\pgfplotmarksize=\dimen177
)
(C:\Users\matthias.kauer\AppData\Roaming\MiKTeX\2.9\tex\generic\pgfplots\oldpgf
compatib\pgfplotsoldpgfsupp_pgflibraryfpu.code.tex))
(C:\Users\matthias.kauer\AppData\Roaming\MiKTeX\2.9\tex\generic\pgfplots\util\p
gfplotsutil.code.tex
(C:\Users\matthias.kauer\AppData\Roaming\MiKTeX\2.9\tex\generic\pgfplots\listst
ructure\pgfplotsliststructure.code.tex)
(C:\Users\matthias.kauer\AppData\Roaming\MiKTeX\2.9\tex\generic\pgfplots\listst
ructure\pgfplotsliststructureext.code.tex)
(C:\Users\matthias.kauer\AppData\Roaming\MiKTeX\2.9\tex\generic\pgfplots\listst
ructure\pgfplotsarray.code.tex
\c@pgfplotsarray@tmp=\count148
)
(C:\Users\matthias.kauer\AppData\Roaming\MiKTeX\2.9\tex\generic\pgfplots\listst
ructure\pgfplotsmatrix.code.tex)
(C:\Users\matthias.kauer\AppData\Roaming\MiKTeX\2.9\tex\generic\pgfplots\numtab
le\pgfplotstableshared.code.tex
\c@pgfplotstable@counta=\count149
\t@pgfplotstable@a=\toks56
)
(C:\Users\matthias.kauer\AppData\Roaming\MiKTeX\2.9\tex\generic\pgfplots\listst
ructure\pgfplotsdeque.code.tex)
(C:\Users\matthias.kauer\AppData\Roaming\MiKTeX\2.9\tex\generic\pgfplots\util\p
gfplotsbinary.code.tex)
(C:\Users\matthias.kauer\AppData\Roaming\MiKTeX\2.9\tex\generic\pgfplots\util\p
gfplotsutil.verb.code.tex)
(C:\Users\matthias.kauer\AppData\Roaming\MiKTeX\2.9\tex\generic\pgfplots\libs\p
gflibrarypgfplots.surfshading.code.tex
\c@pgfplotslibrarysurf@no=\count150

(C:\Users\matthias.kauer\AppData\Roaming\MiKTeX\2.9\tex\generic\pgfplots\sys\pg
flibrarypgfplots.surfshading.pgfsys-pdftex.def)))
(C:\Users\matthias.kauer\AppData\Roaming\MiKTeX\2.9\tex\generic\pgfplots\util\p
gfplotscolormap.code.tex)
(C:\Users\matthias.kauer\AppData\Roaming\MiKTeX\2.9\tex\generic\pgfplots\pgfplo
tsstackedplots.code.tex)
(C:\Users\matthias.kauer\AppData\Roaming\MiKTeX\2.9\tex\generic\pgfplots\pgfplo
tsplothandlers.code.tex
(C:\Users\matthias.kauer\AppData\Roaming\MiKTeX\2.9\tex\generic\pgfplots\pgfplo
tsmeshplothandler.code.tex))
(C:\Users\matthias.kauer\AppData\Roaming\MiKTeX\2.9\tex\generic\pgfplots\pgfplo
tscoordprocessing.code.tex)
(C:\Users\matthias.kauer\AppData\Roaming\MiKTeX\2.9\tex\generic\pgfplots\pgfplo
tsticks.code.tex)
(C:\Users\matthias.kauer\AppData\Roaming\MiKTeX\2.9\tex\generic\pgfplots\pgfplo
ts.paths.code.tex)
(C:\Users\matthias.kauer\AppData\Roaming\MiKTeX\2.9\tex\generic\pgf\frontendlay
er\tikz\libraries\tikzlibrarydecorations.code.tex
(C:\Users\matthias.kauer\AppData\Roaming\MiKTeX\2.9\tex\generic\pgf\modules\pgf
moduledecorations.code.tex
\pgfdecoratedcompleteddistance=\dimen178
\pgfdecoratedremainingdistance=\dimen179
\pgfdecoratedinputsegmentcompleteddistance=\dimen180
\pgfdecoratedinputsegmentremainingdistance=\dimen181
\pgf@decorate@distancetomove=\dimen182
\pgf@decorate@repeatstate=\count151
\pgfdecorationsegmentamplitude=\dimen183
\pgfdecorationsegmentlength=\dimen184
)
\tikz@lib@dec@box=\box41
)
(C:\Users\matthias.kauer\AppData\Roaming\MiKTeX\2.9\tex\generic\pgf\frontendlay
er\tikz\libraries\tikzlibrarydecorations.pathmorphing.code.tex
(C:\Users\matthias.kauer\AppData\Roaming\MiKTeX\2.9\tex\generic\pgf\libraries\d
ecorations\pgflibrarydecorations.pathmorphing.code.tex))
(C:\Users\matthias.kauer\AppData\Roaming\MiKTeX\2.9\tex\generic\pgf\frontendlay
er\tikz\libraries\tikzlibrarydecorations.pathreplacing.code.tex
(C:\Users\matthias.kauer\AppData\Roaming\MiKTeX\2.9\tex\generic\pgf\libraries\d
ecorations\pgflibrarydecorations.pathreplacing.code.tex))
\pgfplots@numplots=\count152
\pgfplots@xmin@reg=\dimen185
\pgfplots@xmax@reg=\dimen186
\pgfplots@ymin@reg=\dimen187
\pgfplots@ymax@reg=\dimen188
\pgfplots@zmin@reg=\dimen189
\pgfplots@zmax@reg=\dimen190
)
(C:\Users\matthias.kauer\AppData\Roaming\MiKTeX\2.9\tex\generic\pgf\frontendlay
er\tikz\libraries\tikzlibraryplotmarks.code.tex
File: tikzlibraryplotmarks.code.tex 2008/01/09 v2.10 (rcs-revision 1.1)

(C:\Users\matthias.kauer\AppData\Roaming\MiKTeX\2.9\tex\generic\pgf\libraries\p
gflibraryplotmarks.code.tex
File: pgflibraryplotmarks.code.tex 2010/10/15 v2.10 (rcs-revision 1.12)
)))
(C:\Users\matthias.kauer\AppData\Roaming\MiKTeX\2.9\tex\latex\booktabs\booktabs
.sty
Package: booktabs 2005/04/14 v1.61803 publication quality tables
\heavyrulewidth=\dimen191
\lightrulewidth=\dimen192
\cmidrulewidth=\dimen193
\belowrulesep=\dimen194
\belowbottomsep=\dimen195
\aboverulesep=\dimen196
\abovetopsep=\dimen197
\cmidrulesep=\dimen198
\cmidrulekern=\dimen199
\defaultaddspace=\dimen200
\@cmidla=\count153
\@cmidlb=\count154
\@aboverulesep=\dimen201
\@belowrulesep=\dimen202
\@thisruleclass=\count155
\@lastruleclass=\count156
\@thisrulewidth=\dimen203
)
(C:\Users\matthias.kauer\AppData\Roaming\MiKTeX\2.9\tex\latex\pgfplots\pgfplots
table.sty
Package: pgfplotstable 2011/12/19 Part of pgfplots

(C:\Users\matthias.kauer\AppData\Roaming\MiKTeX\2.9\tex\generic\pgfplots\numtab
le\pgfplotstable.code.tex
(C:\Users\matthias.kauer\AppData\Roaming\MiKTeX\2.9\tex\generic\pgfplots\numtab
le\pgfplotstable.coltype.code.tex)))
(C:\Users\matthias.kauer\AppData\Roaming\MiKTeX\2.9\tex\latex\etoolbox\etoolbox
.sty
Package: etoolbox 2011/01/03 v2.1 e-TeX tools for LaTeX
("C:\Program Files (x86)\MiKTeX 2.9\tex\latex\misc\etex.sty"
Package: etex 1998/03/26 v2.0 eTeX basic definition package (PEB)
\et@xins=\count157
)
\etb@tempcnta=\count158
) ("C:\Program Files (x86)\MiKTeX 2.9\tex\latex\tools\xspace.sty"
Package: xspace 2009/10/20 v1.13 Space after command names (DPC,MH)
)
(C:\Users\matthias.kauer\AppData\Roaming\MiKTeX\2.9\tex\generic\pgf\frontendlay
er\tikz\libraries\tikzlibrarycircuits.ee.IEC.code.tex
(C:\Users\matthias.kauer\AppData\Roaming\MiKTeX\2.9\tex\generic\pgf\frontendlay
er\tikz\libraries\tikzlibrarycircuits.ee.code.tex
(C:\Users\matthias.kauer\AppData\Roaming\MiKTeX\2.9\tex\generic\pgf\frontendlay
er\tikz\libraries\tikzlibrarycircuits.code.tex
(C:\Users\matthias.kauer\AppData\Roaming\MiKTeX\2.9\tex\generic\pgf\frontendlay
er\tikz\libraries\tikzlibrarydecorations.markings.code.tex
(C:\Users\matthias.kauer\AppData\Roaming\MiKTeX\2.9\tex\generic\pgf\libraries\d
ecorations\pgflibrarydecorations.markings.code.tex))
(C:\Users\matthias.kauer\AppData\Roaming\MiKTeX\2.9\tex\generic\pgf\frontendlay
er\tikz\libraries\tikzlibrarycalc.code.tex
File: tikzlibrarycalc.code.tex 2009/09/04 v2.10 (rcs-revision 1.6)
)
\tikz@lib@circ@count=\count159
\tikzcircuitssizeunit=\dimen204
)
(C:\Users\matthias.kauer\AppData\Roaming\MiKTeX\2.9\tex\generic\pgf\libraries\s
hapes\circuits\pgflibraryshapes.gates.ee.code.tex))
(C:\Users\matthias.kauer\AppData\Roaming\MiKTeX\2.9\tex\generic\pgf\frontendlay
er\tikz\libraries\tikzlibraryarrows.code.tex
File: tikzlibraryarrows.code.tex 2008/01/09 v2.10 (rcs-revision 1.1)

(C:\Users\matthias.kauer\AppData\Roaming\MiKTeX\2.9\tex\generic\pgf\libraries\p
gflibraryarrows.code.tex
File: pgflibraryarrows.code.tex 2008/10/27 v2.10 (rcs-revision 1.9)
\arrowsize=\dimen205
))
(C:\Users\matthias.kauer\AppData\Roaming\MiKTeX\2.9\tex\generic\pgf\libraries\s
hapes\circuits\pgflibraryshapes.gates.ee.IEC.code.tex))
(C:\Users\matthias.kauer\AppData\Roaming\MiKTeX\2.9\tex\generic\pgf\frontendlay
er\tikz\libraries\tikzlibraryautomata.code.tex
File: tikzlibraryautomata.code.tex 2008/07/14 v2.10 (rcs-revision 1.3)

(C:\Users\matthias.kauer\AppData\Roaming\MiKTeX\2.9\tex\generic\pgf\frontendlay
er\tikz\libraries\tikzlibraryshapes.multipart.code.tex
File: tikzlibraryshapes.multipart.code.tex 2008/01/09 v2.10 (rcs-revision 1.1)

(C:\Users\matthias.kauer\AppData\Roaming\MiKTeX\2.9\tex\generic\pgf\libraries\s
hapes\pgflibraryshapes.multipart.code.tex
File: pgflibraryshapes.multipart.code.tex 2010/01/07 v2.10 (rcs-revision 1.2)
\pgfnodepartlowerbox=\box42
\pgfnodeparttwobox=\box43
\pgfnodepartthreebox=\box44
\pgfnodepartfourbox=\box45
\pgfnodeparttwentybox=\box46
\pgfnodepartnineteenbox=\box47
\pgfnodeparteighteenbox=\box48
\pgfnodepartseventeenbox=\box49
\pgfnodepartsixteenbox=\box50
\pgfnodepartfifteenbox=\box51
\pgfnodepartfourteenbox=\box52
\pgfnodepartthirteenbox=\box53
\pgfnodeparttwelvebox=\box54
\pgfnodepartelevenbox=\box55
\pgfnodeparttenbox=\box56
\pgfnodepartninebox=\box57
\pgfnodeparteightbox=\box58
\pgfnodepartsevenbox=\box59
\pgfnodepartsixbox=\box60
\pgfnodepartfivebox=\box61
)))
(C:\Users\matthias.kauer\AppData\Roaming\MiKTeX\2.9\tex\generic\pgf\frontendlay
er\tikz\libraries\tikzlibrarybackgrounds.code.tex
File: tikzlibrarybackgrounds.code.tex 2010/02/08 v2.10 (rcs-revision 1.2)
\pgf@layerbox@background=\box62
\pgf@layerboxsaved@background=\box63
)
(C:\Users\matthias.kauer\AppData\Roaming\MiKTeX\2.9\tex\generic\pgf\frontendlay
er\tikz\libraries\tikzlibrarychains.code.tex
File: tikzlibrarychains.code.tex 2008/02/27 v2.10 (rcs-revision 1.5)

(C:\Users\matthias.kauer\AppData\Roaming\MiKTeX\2.9\tex\generic\pgf\frontendlay
er\tikz\libraries\tikzlibrarypositioning.code.tex
File: tikzlibrarypositioning.code.tex 2008/10/06 v2.10 (rcs-revision 1.7)
))
(C:\Users\matthias.kauer\AppData\Roaming\MiKTeX\2.9\tex\generic\pgf\frontendlay
er\tikz\libraries\tikzlibrarymatrix.code.tex
File: tikzlibrarymatrix.code.tex 2008/06/18 v2.10 (rcs-revision 1.2)
)
(C:\Users\matthias.kauer\AppData\Roaming\MiKTeX\2.9\tex\generic\pgf\frontendlay
er\tikz\libraries\tikzlibrarypatterns.code.tex
File: tikzlibrarypatterns.code.tex 2008/01/15 v2.10 (rcs-revision 1.2)

(C:\Users\matthias.kauer\AppData\Roaming\MiKTeX\2.9\tex\generic\pgf\libraries\p
gflibrarypatterns.code.tex
File: pgflibrarypatterns.code.tex 2008/03/03 v2.10 (rcs-revision 1.13)
))
(C:\Users\matthias.kauer\AppData\Roaming\MiKTeX\2.9\tex\generic\pgf\frontendlay
er\tikz\libraries\tikzlibrarypetri.code.tex
File: tikzlibrarypetri.code.tex 2008/06/18 v2.10 (rcs-revision 1.2)
)
(C:\Users\matthias.kauer\AppData\Roaming\MiKTeX\2.9\tex\generic\pgf\frontendlay
er\tikz\libraries\tikzlibraryshadows.code.tex
File: tikzlibraryshadows.code.tex 2008/01/13 v2.10 (rcs-revision 1.3)

(C:\Users\matthias.kauer\AppData\Roaming\MiKTeX\2.9\tex\generic\pgf\frontendlay
er\tikz\libraries\tikzlibraryfadings.code.tex
File: tikzlibraryfadings.code.tex 2009/11/15 v2.10 (rcs-revision 1.2)

(C:\Users\matthias.kauer\AppData\Roaming\MiKTeX\2.9\tex\generic\pgf\libraries\p
gflibraryfadings.code.tex
File: pgflibraryfadings.code.tex 2008/02/07 v2.10 (rcs-revision 1.3)
)))
(C:\Users\matthias.kauer\AppData\Roaming\MiKTeX\2.9\tex\generic\pgf\frontendlay
er\tikz\libraries\tikzlibraryshapes.code.tex
File: tikzlibraryshapes.code.tex 2008/01/09 v2.10 (rcs-revision 1.1)

(C:\Users\matthias.kauer\AppData\Roaming\MiKTeX\2.9\tex\generic\pgf\frontendlay
er\tikz\libraries\tikzlibraryshapes.geometric.code.tex
File: tikzlibraryshapes.geometric.code.tex 2008/01/09 v2.10 (rcs-revision 1.1)

(C:\Users\matthias.kauer\AppData\Roaming\MiKTeX\2.9\tex\generic\pgf\libraries\s
hapes\pgflibraryshapes.geometric.code.tex
File: pgflibraryshapes.geometric.code.tex 2008/06/26 v2.10 (rcs-revision 1.1)
))
(C:\Users\matthias.kauer\AppData\Roaming\MiKTeX\2.9\tex\generic\pgf\frontendlay
er\tikz\libraries\tikzlibraryshapes.misc.code.tex
File: tikzlibraryshapes.misc.code.tex 2008/01/09 v2.10 (rcs-revision 1.1)

(C:\Users\matthias.kauer\AppData\Roaming\MiKTeX\2.9\tex\generic\pgf\libraries\s
hapes\pgflibraryshapes.misc.code.tex
File: pgflibraryshapes.misc.code.tex 2008/10/07 v2.10 (rcs-revision 1.3)
))
(C:\Users\matthias.kauer\AppData\Roaming\MiKTeX\2.9\tex\generic\pgf\frontendlay
er\tikz\libraries\tikzlibraryshapes.symbols.code.tex
File: tikzlibraryshapes.symbols.code.tex 2008/01/09 v2.10 (rcs-revision 1.1)

(C:\Users\matthias.kauer\AppData\Roaming\MiKTeX\2.9\tex\generic\pgf\libraries\s
hapes\pgflibraryshapes.symbols.code.tex
File: pgflibraryshapes.symbols.code.tex 2009/10/27 v2.10 (rcs-revision 1.3)
))
(C:\Users\matthias.kauer\AppData\Roaming\MiKTeX\2.9\tex\generic\pgf\frontendlay
er\tikz\libraries\tikzlibraryshapes.arrows.code.tex
File: tikzlibraryshapes.arrows.code.tex 2008/01/09 v2.10 (rcs-revision 1.1)

(C:\Users\matthias.kauer\AppData\Roaming\MiKTeX\2.9\tex\generic\pgf\libraries\s
hapes\pgflibraryshapes.arrows.code.tex
File: pgflibraryshapes.arrows.code.tex 2008/06/26 v2.10 (rcs-revision 1.1)
))
(C:\Users\matthias.kauer\AppData\Roaming\MiKTeX\2.9\tex\generic\pgf\frontendlay
er\tikz\libraries\tikzlibraryshapes.callouts.code.tex
(C:\Users\matthias.kauer\AppData\Roaming\MiKTeX\2.9\tex\generic\pgf\libraries\s
hapes\pgflibraryshapes.callouts.code.tex)))
(C:\Users\matthias.kauer\AppData\Roaming\MiKTeX\2.9\tex\generic\pgf\frontendlay
er\tikz\libraries\tikzlibraryfit.code.tex
File: tikzlibraryfit.code.tex 2008/06/21 v2.10 (rcs-revision 1.3)
)
(C:\Users\matthias.kauer\AppData\Roaming\MiKTeX\2.9\tex\generic\pgfplots\libs\t
ikzlibrarypgfplots.groupplots.code.tex
\pgfplots@group@current@plot=\count160
\pgfplots@group@current@row=\count161
\pgfplots@group@current@column=\count162
) ("C:\Program Files (x86)\MiKTeX 2.9\tex\latex\base\makeidx.sty"
Package: makeidx 2000/03/29 v1.0m Standard LaTeX package
) (C:\Users\matthias.kauer\AppData\Roaming\MiKTeX\2.9\tex\latex\eepic\epic.sty
Enhancements to Picture Environment. Version 1.2 - Released June 1, 1986
\@@multicnt=\count163
\d@lta=\count164
\@delta=\dimen206
\@@delta=\dimen207
\@gridcnt=\count165
\@joinkind=\count166
\@dotgap=\dimen208
\@ddotgap=\dimen209
\@x@diff=\count167
\@y@diff=\count168
\x@diff=\dimen210
\y@diff=\dimen211
\@dotbox=\box64
\num@segments=\count169
\num@segmentsi=\count170
\@datafile=\read2
) (C:\Users\matthias.kauer\AppData\Roaming\MiKTeX\2.9\tex\latex\eepic\eepic.sty
Extension to Epic and LaTeX. Version 1.1e - Released Dec 21, 1999
\@gphlinewidth=\count171
\@eepictcnt=\count172
\@tempdimc=\dimen212
\maxovaldiam=\dimen213
\@filltype=\box65
)
(C:\Users\matthias.kauer\AppData\Roaming\MiKTeX\2.9\tex\latex\footmisc\footmisc
.sty
Package: footmisc 2011/06/06 v5.5b a miscellany of footnote facilities
\FN@temptoken=\toks57
\footnotemargin=\dimen214
\c@pp@next@reset=\count173
Package footmisc Info: Declaring symbol style bringhurst on input line 855.
Package footmisc Info: Declaring symbol style chicago on input line 863.
Package footmisc Info: Declaring symbol style wiley on input line 872.
Package footmisc Info: Declaring symbol style lamport-robust on input line 883.

Package footmisc Info: Declaring symbol style lamport* on input line 903.
Package footmisc Info: Declaring symbol style lamport*-robust on input line 924
.
)
(C:\Users\matthias.kauer\AppData\Roaming\MiKTeX\2.9\tex\latex\circuitikz\circui
tikz.sty
Package: circuitikz 2009/11/18 The CircuiTikz circuit drawing package version 0
.2.4

(C:\Users\matthias.kauer\AppData\Roaming\MiKTeX\2.9\tex\latex\circuitikz\circui
tikz.code.tex
\pgf@circ@Rlen=\dimen215

(C:\Users\matthias.kauer\AppData\Roaming\MiKTeX\2.9\tex\latex\circuitikz\pgfcir
cutils.sty)
(C:\Users\matthias.kauer\AppData\Roaming\MiKTeX\2.9\tex\latex\circuitikz\pgfcir
cmath.sty)
(C:\Users\matthias.kauer\AppData\Roaming\MiKTeX\2.9\tex\latex\circuitikz\pgfcir
cshapes.sty)
(C:\Users\matthias.kauer\AppData\Roaming\MiKTeX\2.9\tex\latex\circuitikz\pgfcir
cmonopoles.sty)
(C:\Users\matthias.kauer\AppData\Roaming\MiKTeX\2.9\tex\latex\circuitikz\pgfcir
cbipoles.sty)
(C:\Users\matthias.kauer\AppData\Roaming\MiKTeX\2.9\tex\latex\circuitikz\pgfcir
ctripoles.sty)
(C:\Users\matthias.kauer\AppData\Roaming\MiKTeX\2.9\tex\latex\circuitikz\pgfcir
cquadpoles.sty)
(C:\Users\matthias.kauer\AppData\Roaming\MiKTeX\2.9\tex\latex\circuitikz\pgfcir
clabel.sty)
(C:\Users\matthias.kauer\AppData\Roaming\MiKTeX\2.9\tex\latex\circuitikz\pgfcir
cvoltage.sty)
(C:\Users\matthias.kauer\AppData\Roaming\MiKTeX\2.9\tex\latex\circuitikz\pgfcir
ccurrent.sty))
(C:\Users\matthias.kauer\AppData\Roaming\MiKTeX\2.9\tex\latex\circuitikz\circui
tikz1.code.tex
\pgf@circ@res@up=\dimen216
\pgf@circ@res@down=\dimen217
\pgf@circ@res@zero=\dimen218
\pgf@circ@res@left=\dimen219
\pgf@circ@res@right=\dimen220
\pgf@circ@res@other=\dimen221
\pgf@circ@res@step=\dimen222
\pgfstartlinewidth=\dimen223
))
(C:\Users\matthias.kauer\AppData\Roaming\MiKTeX\2.9\tex\latex\todonotes\todonot
es.sty
Package: todonotes 2011/10/22 .dtx Todonotes source and documentation.
Package: todonotes 2011/10/22
("C:\Program Files (x86)\MiKTeX 2.9\tex\latex\xkeyval\xkeyval.sty"
Package: xkeyval 2012/10/14 v2.6b package option processing (HA)
("C:\Program Files (x86)\MiKTeX 2.9\tex\generic\xkeyval\xkeyval.tex"
\XKV@toks=\toks58
\XKV@tempa@toks=\toks59
\XKV@depth=\count174
File: xkeyval.tex 2012/10/14 v2.6b key=value parser (HA)
))
\c@@todonotes@numberoftodonotes=\count175
)
(C:\Users\matthias.kauer\AppData\Roaming\MiKTeX\2.9\tex\latex\microtype\microty
pe.sty
Package: microtype 2010/01/10 v2.4 Micro-typography with pdfTeX (RS)
\MT@toks=\toks60
\MT@count=\count176
LaTeX Info: Redefining \lsstyle on input line 1597.
LaTeX Info: Redefining \lslig on input line 1597.
\MT@outer@space=\skip59
LaTeX Info: Redefining \textls on input line 1605.
\MT@outer@kern=\dimen224
LaTeX Info: Redefining \textmicrotypecontext on input line 2156.
Package microtype Info: Loading configuration file microtype.cfg.

(C:\Users\matthias.kauer\AppData\Roaming\MiKTeX\2.9\tex\latex\microtype\microty
pe.cfg
File: microtype.cfg 2010/01/10 v2.4 microtype main configuration file (RS)
))
(C:\Users\matthias.kauer\AppData\Roaming\MiKTeX\2.9\tex\latex\datetime\datetime
.sty
Package: datetime 2010/09/21 v2.58 Date Time Package

(C:\Users\matthias.kauer\AppData\Roaming\MiKTeX\2.9\tex\latex\fmtcount\fmtcount
.sty
Package: fmtcount 2009/10/02 v1.31
\c@padzeroesN=\count177

(C:\Users\matthias.kauer\AppData\Roaming\MiKTeX\2.9\tex\latex\fmtcount\fc-engli
sh.def
File: fc-english 2007/05/26
)
(C:\Users\matthias.kauer\AppData\Roaming\MiKTeX\2.9\tex\latex\fmtcount\fc-UKeng
lish.def
File: fc-UKenglish 2007/06/14
)
(C:\Users\matthias.kauer\AppData\Roaming\MiKTeX\2.9\tex\latex\fmtcount\fc-briti
sh.def
File: fc-british 2007/06/14
)
(C:\Users\matthias.kauer\AppData\Roaming\MiKTeX\2.9\tex\latex\fmtcount\fc-USeng
lish.def
File: fc-USenglish 2007/06/14
)
(C:\Users\matthias.kauer\AppData\Roaming\MiKTeX\2.9\tex\latex\fmtcount\fc-spani
sh.def
File: fc-spanish.def 2007/05/26
)
(C:\Users\matthias.kauer\AppData\Roaming\MiKTeX\2.9\tex\latex\fmtcount\fc-portu
ges.def
File: fc-portuges.def 2007/05/26
)
(C:\Users\matthias.kauer\AppData\Roaming\MiKTeX\2.9\tex\latex\fmtcount\fc-frenc
h.def
File: fc-french.def 2007/05/26
)
(C:\Users\matthias.kauer\AppData\Roaming\MiKTeX\2.9\tex\latex\fmtcount\fc-germa
n.def
File: fc-german.def 2007/06/14
)
(C:\Users\matthias.kauer\AppData\Roaming\MiKTeX\2.9\tex\latex\fmtcount\fc-itali
an.def
File: fc-italian.def 2009/10/02 Italian support for fmtcount (Edoardo Pasca)
)
No configuration file fmtcount.cfg found.
\@DT@modctr=\count178
\@ordinalctr=\count179
\@orgargctr=\count180
\@strctr=\count181
\@tmpstrctr=\count182
\@DT@loopN=\count183
\@DT@X=\count184
)
\@day=\count185
\@month=\count186
\@year=\count187
\c@HOUR=\count188
\c@HOURXII=\count189
\c@MINUTE=\count190
\c@TOHOUR=\count191
\c@TOMINUTE=\count192
\c@SECOND=\count193
\currenthour=\count194
\currentminute=\count195
\currentsecond=\count196
Package datetime Info: No datetime.cfg file found, using default settings on in
put line 292.
\@dtctr=\count197
\dayofyear=\count198
\dayofweek=\count199
LaTeX Info: Redefining \today on input line 724.
\dt@a=\toks61
\dt@b=\toks62
)
(C:\Users\matthias.kauer\AppData\Roaming\MiKTeX\2.9\tex\latex\fancyhdr\fancyhdr
.sty
\fancy@headwidth=\skip60
\f@ncyO@elh=\skip61
\f@ncyO@erh=\skip62
\f@ncyO@olh=\skip63
\f@ncyO@orh=\skip64
\f@ncyO@elf=\skip65
\f@ncyO@erf=\skip66
\f@ncyO@olf=\skip67
\f@ncyO@orf=\skip68
)
\c@definition=\count200
(D:\Dropbox\Work_2012_07+\DBMS_Chl\Latex\content/00_acronyms.tex) (D:\Dropbox\W
ork_2012_07+\DBMS_Chl\Latex\content/00_extra_commands.tex) (D:\Dropbox\Work_201
2_07+\DBMS_Chl\Latex\tikz/00_common_tikz.tex) (D:\Dropbox\Work_2012_07+\DBMS_Ch
l\Latex\tikz/00_pgfplot_wrapperlibrary.tex) (D:\Dropbox\Work_2012_07+\DBMS_Chl\
Latex\tikz/batterycircuit.tikzlib.tex
\c@lastBattery=\count201
)
(C:\Users\matthias.kauer\AppData\Roaming\MiKTeX\2.9\tex\latex\caption\caption.s
ty
Package: caption 2011/11/10 v3.2e Customizing captions (AR)

(C:\Users\matthias.kauer\AppData\Roaming\MiKTeX\2.9\tex\latex\caption\caption3.
sty
Package: caption3 2011/11/01 v1.4a caption3 kernel (AR)
\captionmargin=\dimen225
\captionmargin@=\dimen226
\captionwidth=\dimen227
\caption@indent=\dimen228
\caption@parindent=\dimen229
\caption@hangindent=\dimen230
\abovecaptionskip=\skip69
\belowcaptionskip=\skip70
Package caption Info: Unknown document class (or package),
(caption)             standard defaults will be used.
)

Package caption Warning: Unsupported document class (or package) detected,
(caption)                usage of the caption package is not recommended.
See the caption package documentation for explanation.

Package caption Info: \@makecaption = \long macro:#1#2-> \vskip 10pt \setbox \@
tempboxa \hbox {\textbf {#1: #2}} \ifdim \wd \@tempboxa >\hsize \textbf {#1: #2
}\par \else \hbox to\hsize {\hfil \box \@tempboxa \hfil } \fi .
\c@ContinuedFloat=\count202
Package caption Info: float package is loaded.
Package caption Info: subfigure package is loaded.
)
(C:\Users\matthias.kauer\AppData\Roaming\MiKTeX\2.9\tex\latex\pgf\frontendlayer
\libraries\tikzlibraryexternal.code.tex
(C:\Users\matthias.kauer\AppData\Roaming\MiKTeX\2.9\tex\generic\pgf\frontendlay
er\tikz\libraries\tikzexternalshared.code.tex
\tikzexternal@outfile=\write4
))
No auxiliary output files.

\w@pgfexternal@auxout=\write5
No file tikzexternal/DBMS_Chl_externalize-figure1.aux.
LaTeX Font Info:    Checking defaults for OML/cmm/m/it on input line 193.
LaTeX Font Info:    ... okay on input line 193.
LaTeX Font Info:    Checking defaults for T1/cmr/m/n on input line 193.
LaTeX Font Info:    ... okay on input line 193.
LaTeX Font Info:    Checking defaults for OT1/cmr/m/n on input line 193.
LaTeX Font Info:    ... okay on input line 193.
LaTeX Font Info:    Checking defaults for OMS/cmsy/m/n on input line 193.
LaTeX Font Info:    ... okay on input line 193.
LaTeX Font Info:    Checking defaults for OMX/cmex/m/n on input line 193.
LaTeX Font Info:    ... okay on input line 193.
LaTeX Font Info:    Checking defaults for U/cmr/m/n on input line 193.
LaTeX Font Info:    ... okay on input line 193.
LaTeX Font Info:    Checking defaults for TS1/cmr/m/n on input line 193.
LaTeX Font Info:    Try loading font information for TS1+cmr on input line 193.

("C:\Program Files (x86)\MiKTeX 2.9\tex\latex\base\ts1cmr.fd"
File: ts1cmr.fd 1999/05/25 v2.5h Standard LaTeX font definitions
)
LaTeX Font Info:    ... okay on input line 193.

(C:\Users\matthias.kauer\AppData\Roaming\MiKTeX\2.9\tex\context\base\supp-pdf.m
kii
[Loading MPS to PDF converter (version 2006.09.02).]
\scratchcounter=\count203
\scratchdimen=\dimen231
\scratchbox=\box66
\nofMPsegments=\count204
\nofMParguments=\count205
\everyMPshowfont=\toks63
\MPscratchCnt=\count206
\MPscratchDim=\dimen232
\MPnumerator=\count207
\makeMPintoPDFobject=\count208
\everyMPtoPDFconversion=\toks64
) ABD: EveryShipout initializing macros
LaTeX Info: Redefining \microtypecontext on input line 193.
Package microtype Info: Generating PDF output.
Package microtype Info: Character protrusion enabled (level 2).
Package microtype Info: Using default protrusion set `alltext'.
Package microtype Info: Automatic font expansion enabled (level 2),
(microtype)             stretch: 20, shrink: 20, step: 1, non-selected.
Package microtype Info: Using default expansion set `basictext'.
Package microtype Info: No tracking.
Package microtype Info: No adjustment of interword spacing.
Package microtype Info: No adjustment of character kerning.

(C:\Users\matthias.kauer\AppData\Roaming\MiKTeX\2.9\tex\latex\microtype\mt-cmr.
cfg
File: mt-cmr.cfg 2009/11/09 v2.0 microtype config. file: Computer Modern Roman 
(RS)
)
Package caption Info: Begin \AtBeginDocument code.
Package caption Info: End \AtBeginDocument code.
LaTeX Font Info:    Calculating math sizes for size <8.7> on input line 254.

LaTeX Font Warning: Font shape `OT1/cmr/m/n' in size <4.34999> not available
(Font)              size <5> substituted on input line 254.


LaTeX Font Warning: Font shape `OML/cmm/m/it' in size <4.34999> not available
(Font)              size <5> substituted on input line 254.


LaTeX Font Warning: Font shape `OMS/cmsy/m/n' in size <4.34999> not available
(Font)              size <5> substituted on input line 254.

LaTeX Font Info:    External font `cmex7' loaded for size
(Font)              <6.08997> on input line 254.
LaTeX Font Info:    External font `cmex7' loaded for size
(Font)              <4.34999> on input line 254.
LaTeX Font Info:    Try loading font information for U+msa on input line 254.
("C:\Program Files (x86)\MiKTeX 2.9\tex\latex\amsfonts\umsa.fd"
File: umsa.fd 2009/06/22 v3.00 AMS symbols A
)
(C:\Users\matthias.kauer\AppData\Roaming\MiKTeX\2.9\tex\latex\microtype\mt-msa.
cfg
File: mt-msa.cfg 2006/02/04 v1.1 microtype config. file: AMS symbols (a) (RS)
)
LaTeX Font Info:    Try loading font information for U+msb on input line 254.
("C:\Program Files (x86)\MiKTeX 2.9\tex\latex\amsfonts\umsb.fd"
File: umsb.fd 2009/06/22 v3.00 AMS symbols B
)
(C:\Users\matthias.kauer\AppData\Roaming\MiKTeX\2.9\tex\latex\microtype\mt-msb.
cfg
File: mt-msb.cfg 2005/06/01 v1.0 microtype config. file: AMS symbols (b) (RS)
)
LaTeX Font Info:    Try loading font information for U+lasy on input line 254.
("C:\Program Files (x86)\MiKTeX 2.9\tex\latex\base\ulasy.fd"
File: ulasy.fd 1998/08/17 v2.2e LaTeX symbol font definitions
)

LaTeX Font Warning: Font shape `U/lasy/m/n' in size <4.34999> not available
(Font)              size <5> substituted on input line 254.


LaTeX Font Warning: Font shape `OT1/cmr/bx/n' in size <4.34999> not available
(Font)              size <5> substituted on input line 254.


LaTeX Font Warning: Font shape `OML/cmm/b/it' in size <4.34999> not available
(Font)              size <5> substituted on input line 254.


LaTeX Font Warning: Font shape `OMS/cmsy/b/n' in size <4.34999> not available
(Font)              size <5> substituted on input line 254.

LaTeX Font Info:    Font shape `U/lasy/b/n' in size <8.7> not available
(Font)              Font shape `U/lasy/m/n' tried instead on input line 254.
LaTeX Font Info:    Font shape `U/lasy/b/n' in size <6.08997> not available
(Font)              Font shape `U/lasy/m/n' tried instead on input line 254.
LaTeX Font Info:    Font shape `U/lasy/b/n' in size <4.34999> not available
(Font)              Font shape `U/lasy/m/n' tried instead on input line 254.

LaTeX Font Warning: Font shape `U/lasy/m/n' in size <4.34999> not available
(Font)              size <5> substituted on input line 254.

(D:\Dropbox\Work_2012_07+\DBMS_Chl\Latex\content/01_abstract.tex
Package acronym Info: Label `acro:EES' newly defined as it shall be overridden
although it is yet undefined on input line 1.

Package acronym Warning: Acronym `EES' is not defined on input line 1.


Package acronym Warning: Acronym `EES' is not defined on input line 1.


Package acronym Warning: Acronym `EES' is not defined on input line 2.


Package acronym Warning: Acronym `EES' is not defined on input line 4.

Package acronym Info: Label `acro:PWM' newly defined as it shall be overridden
although it is yet undefined on input line 5.

Package acronym Warning: Acronym `PWM' is not defined on input line 5.


Package acronym Warning: Acronym `PWM' is not defined on input line 5.

) (D:\Dropbox\Work_2012_07+\DBMS_Chl\Latex\content/02_introduction.tex

Package acronym Warning: Acronym `EES' is not defined on input line 2.


Package acronym Warning: Acronym `EES' is not defined on input line 2.


Package acronym Warning: Acronym `EES' is not defined on input line 3.

Package acronym Info: Label `acro:Li-Ion' newly defined as it shall be overridd
en
although it is yet undefined on input line 3.

Package acronym Warning: Acronym `Li-Ion' is not defined on input line 3.


Package acronym Warning: Acronym `Li-Ion' is not defined on input line 3.


Package acronym Warning: Acronym `Li-Ion' is not defined on input line 4.


Package acronym Warning: Acronym `EES' is not defined on input line 6.


Package acronym Warning: Acronym `EES' is not defined on input line 7.


Package acronym Warning: Acronym `Li-Ion' is not defined on input line 9.


Package acronym Warning: Acronym `EES' is not defined on input line 13.


Package acronym Warning: Acronym `EES' is not defined on input line 19.


Package acronym Warning: Acronym `EES' is not defined on input line 22.

(D:\Dropbox\Work_2012_07+\DBMS_Chl\Latex\tikz/highlevelees.tikz.tex
A tikzpicture has been optimized away. Use '/tikz/external/optimize=false' to d
isable this.
)
LaTeX Font Info:    External font `cmex7' loaded for size
(Font)              <6> on input line 28.
LaTeX Font Info:    External font `cmex7' loaded for size
(Font)              <5> on input line 28.
LaTeX Font Info:    Font shape `U/lasy/b/n' in size <8> not available
(Font)              Font shape `U/lasy/m/n' tried instead on input line 28.
LaTeX Font Info:    Font shape `U/lasy/b/n' in size <6> not available
(Font)              Font shape `U/lasy/m/n' tried instead on input line 28.
LaTeX Font Info:    Font shape `U/lasy/b/n' in size <5> not available
(Font)              Font shape `U/lasy/m/n' tried instead on input line 28.

Package acronym Warning: Acronym `EES' is not defined on input line 28.


Package acronym Warning: Acronym `EES' is not defined on input line 28.


Package acronym Warning: Acronym `EES' is not defined on input line 36.

Package acronym Info: Label `acro:MOSFET' newly defined as it shall be overridd
en
although it is yet undefined on input line 36.

Package acronym Warning: Acronym `MOSFET' is not defined on input line 36.


Package acronym Warning: Acronym `MOSFET' is not defined on input line 36.


Package acronym Warning: Acronym `EES' is not defined on input line 79.


Package acronym Warning: Acronym `EES' is not defined on input line 108.


Package acronym Warning: Acronym `EES' is not defined on input line 108.


Package acronym Warning: Acronym `EES' is not defined on input line 110.


Package acronym Warning: Acronym `EES' is not defined on input line 113.


Package acronym Warning: Acronym `EES' is not defined on input line 120.


Package acronym Warning: Acronym `EES' is not defined on input line 123.


Package acronym Warning: Acronym `EES' is not defined on input line 125.


Package acronym Warning: Acronym `EES' is not defined on input line 126.


Package acronym Warning: Acronym `EES' is not defined on input line 127.

) (D:\Dropbox\Work_2012_07+\DBMS_Chl\Latex\content/03b_new_circuit.tex

Package acronym Warning: Acronym `EES' is not defined on input line 14.

(D:\Dropbox\Work_2012_07+\DBMS_Chl\Latex\tikz/singlecell.tikz.tex [2

\reset@newl@bel
\newacro{ABS}[ABS]{Anti-lock Braking System}
\newacro{ACO}[ACO]{Ant Colony Optimization}
\newacro{AIS}[AIS]{Artificial Immune Systems}
\newacro{ARM}[ARM]{Acorn Risc Machine}
\newacro{AUTOSAR}[AUTOSAR]{AUTomotive Open System ARchitecture}
\newacro{AVB}[AVB]{Audio Video Bridging}
\newacro{BB}[BB]{Branch and Bound}
\newacro{BDD}[BDD]{Binary Decision Diagram}
\newacro{BEV}[BEV]{Battery Electric Vehicle}
\newacro{BMS}[BMS]{Battery Management System}
\newacro{CAN}[CAN]{Controller Area Network}
\newacro{CB}[CB]{Cell Balancing}
\newacro{CNF}[CNF]{Conjunctive Normal Form}
\newacro{CPS}[CPS]{Cyber-physical System}
\newacro{DE}[DE]{Differential Evolution}
\newacro{DPLL}[DPLL]{Davis-Putnam-Logemann-Loveland}
\newacro{DSE}[DSE]{Design Space Exploration}
\newacro{DSP}[DSP]{Digital Signal Processor}
\newacro{EA}[EA]{Evolutionary Algorithm}
\newacro{E/E}[E/E]{Electrical and Electronic}
\newacro{EC}[EC]{Evolutionary Computation}
\newacro{ECU}[ECU]{Electronic Control Unit}
\newacro{EDA}[EDA]{Electronic Design Automation}
\newacro{EES}[EES]{Electrical Energy Storage}
\newacro{ES}[ES]{Evolution Strategy}
\newacro{ESP}[ESP]{Electronic Stability Program}
\newacro{ESL}[ESL]{Electronic System Level}
\newacro{EV}[EV]{Electric Vehicle}
\newacro{FPGA}[FPGA]{Field Programmable Gate Array}
\newacro{GA}[GA]{Genetic Algorithm}
\newacro{GP}[GP]{Geometric Programming}
\newacro{GPS}[GPS]{Global Positioning System}
\newacro{GW}[GW]{Gateway}
\newacro{HS}[HS]{Harmony Search}
\newacro{HEES}[HEES]{Hybrid Electrical Energy Storage}
\newacro{IBEA}[IBEA]{Indicator Based Evolutionary Algorithm}
\newacro{IGBT}[IGBT]{Insulated Gate Bipolar Transistor}
\newacro{IC}[IC]{Integrated Circuit}
\newacro{ICE}[ICE]{Internal Combustion Engine}
\newacro{ILP}[ILP]{Integer Linear Programming}
\newacro{LIN}[LIN]{Local Interconnect Network}
\newacro{Li-Ion}[Li-Ion]{Lithium-Ion}
\newacro{LP}[LP]{Linear Programming}
\newacro{MCU}[MCU]{Microcontroller Unit}
\newacro{MILP}[MILP]{Mixed Integer Linear Programming}
\newacro{MIPS}[MIPS]{Million Instructions Per Second}
\newacro{MOSFET}[MOSFET]{Metal-Oxide-Semiconductor Field-Effect Transistor}
\newacro{MOST}[MOST]{Media Oriented Systems Transport}
\newacro{MPA}[MPA]{Modular Performance Analysis}
\newacro{MPSoC}[MPSoC]{Multiprocesser System-on-Chip}
\newacro{MT}[MT]{Mission Time}
\newacro{MTTF}[MTTF]{Mean Time to Failure}
\newacro{NoC}[NoC]{Network-on-Chip}
\newacro{NSGA-II}[NSGA-II]{Non-dominated Sorting Genetic Algorithm II}
\newacro{OCV}[OCV]{Open Circuit Voltage}
\newacro{ODE}[ODE]{Ordinary Differential Equation}
\newacro{OS}[OS]{Operating System}
\newacro{PB}[PB]{Pseudo-Boolean}
\newacro{PCM}[PCM]{Powertrain Control Module}
\newacro{PDU}[PDU]{Protocol Data Unit}
\newacro{PMU}[PMU]{Performance Monitoring Unit}
\newacro{PMSM}[PMSM]{Permanent Magnet Synchronous Motor}
\newacro{PSO}[PSO]{Particle Swarm Optimization}
\newacro{PTP}[PTP]{Precision Time Protocol}
\newacro{PWM}[PWM]{Pulse Width Modulation}
\newacro{QP}[QP]{Quadratic Programming}
\newacro{RAM}[RAM]{Random Access Memory}
\newacro{SA}[SA]{Simulated Annealing}
\newacro{SAT}[SAT]{satisfiability}
\newacro{SoC}[SoC]{State of Charge}
\newacro{SoH}[SoH]{State of Health}
\newacro{SPEA2}[SPEA2]{Strength Pareto Evolutionary Algorithm 2}
\newacro{SVPWM}[SVPWM]{Space Vector Pulse Width Modulation}
\newacro{SymTA/S}[SymTA/S]{Symbolic Timing Analysis for Systems}
\newacro{TDMA}[TDMA]{Time Division Multiple Access}
\newacro{TLM}[TLM]{Transaction Level Model}
\newacro{TS}[TS]{Tabu Search}
\newacro{TTP}[TTP]{Time-Triggered Protocol}
\newacro{VAM}[VAM]{Virtual Architectural Model}
\newacro{V2G}[V2G]{Vehicle-to-Grid}
\newacro{WCET}[WCET]{Worst Case Execution Time}
{C:/Users/matthias.kauer/AppData/Local/MiKTeX/2.9/pdftex/config/pdftex.map}])

Package acronym Warning: Acronym `MOSFET' is not defined on input line 55.


Package acronym Warning: Acronym `MOSFET' is not defined on input line 55.


Package acronym Warning: Acronym `EES' is not defined on input line 59.

(D:\Dropbox\Work_2012_07+\DBMS_Chl\Latex\tikz/lowlevelees.tikz.tex
A tikzpicture has been optimized away. Use '/tikz/external/optimize=false' to d
isable this.
)

Package acronym Warning: Acronym `EES' is not defined on input line 76.


Package acronym Warning: Acronym `MOSFET' is not defined on input line 76.


Package acronym Warning: Acronym `EES' is not defined on input line 76.


Package acronym Warning: Acronym `MOSFET' is not defined on input line 76.


Package acronym Warning: Acronym `MOSFET' is not defined on input line 80.


Package acronym Warning: Acronym `MOSFET' is not defined on input line 81.


Package acronym Warning: Acronym `EES' is not defined on input line 82.


Package acronym Warning: Acronym `EES' is not defined on input line 83.


Package acronym Warning: Acronym `PWM' is not defined on input line 84.


Package acronym Warning: Acronym `MOSFET' is not defined on input line 85.


Package acronym Warning: Acronym `PWM' is not defined on input line 85.


Package acronym Warning: Acronym `MOSFET' is not defined on input line 87.


Package acronym Warning: Acronym `MOSFET' is not defined on input line 89.


Package acronym Warning: Acronym `MOSFET' is not defined on input line 89.


Package acronym Warning: Acronym `MOSFET' is not defined on input line 93.


Package acronym Warning: Acronym `PWM' is not defined on input line 98.


Package acronym Warning: Acronym `MOSFET' is not defined on input line 99.


LaTeX Font Warning: Command \scriptsize invalid in math mode on input line 103.


LaTeX Font Info:    External font `cmex7' loaded for size
(Font)              <7> on input line 104.
LaTeX Font Info:    Font shape `U/lasy/b/n' in size <7> not available
(Font)              Font shape `U/lasy/m/n' tried instead on input line 104.

LaTeX Font Warning: Command \scriptsize invalid in math mode on input line 109.



LaTeX Font Warning: Command \scriptsize invalid in math mode on input line 116.



LaTeX Font Warning: Command \scriptsize invalid in math mode on input line 123.



Underfull \vbox (badness 10000) has occurred while \output is active []


LaTeX Font Warning: Command \scriptsize invalid in math mode on input line 130.



LaTeX Font Warning: Command \scriptsize invalid in math mode on input line 137.



Package acronym Warning: Acronym `PWM' is not defined on input line 145.


Package acronym Warning: Acronym `MOSFET' is not defined on input line 151.


Package acronym Warning: Acronym `PWM' is not defined on input line 151.


Package acronym Warning: Acronym `MOSFET' is not defined on input line 176.


Package acronym Warning: Acronym `MOSFET' is not defined on input line 176.


Package acronym Warning: Acronym `PWM' is not defined on input line 185.

) (D:\Dropbox\Work_2012_07+\DBMS_Chl\Latex\content/04b_switching.tex) (D:\Dropb
ox\Work_2012_07+\DBMS_Chl\Latex\content/04_modelling.tex

Package acronym Warning: Acronym `PWM' is not defined on input line 8.


Package acronym Warning: Acronym `EES' is not defined on input line 9.


Package acronym Warning: Acronym `EES' is not defined on input line 10.


Package acronym Warning: Acronym `EES' is not defined on input line 13.

(D:\Dropbox\Work_2012_07+\DBMS_Chl\Latex\tikz/iL_curve.tex
A tikzpicture has been optimized away. Use '/tikz/external/optimize=false' to d
isable this.
)

Package acronym Warning: Acronym `MOSFET' is not defined on input line 44.

)
Underfull \vbox (badness 4132) has occurred while \output is active []

(D:\Dropbox\Work_2012_07+\DBMS_Chl\Latex\content/04a_PWM.tex

Package acronym Warning: Acronym `PWM' is not defined on input line 5.

LaTeX Font Info:    Font shape `U/lasy/b/n' in size <9> not available
(Font)              Font shape `U/lasy/m/n' tried instead on input line 82.
) (D:\Dropbox\Work_2012_07+\DBMS_Chl\Latex\content/06_modelvalidation.tex

Package acronym Warning: Acronym `EES' is not defined on input line 2.


Underfull \vbox (badness 1701) has occurred while \output is active []


Package acronym Warning: Acronym `PWM' is not defined on input line 31.


Overfull \hbox (6.64789pt too wide) in paragraph at lines 73--84
 [] 
 []


Package acronym Warning: Acronym `PWM' is not defined on input line 90.


Package acronym Warning: Acronym `PWM' is not defined on input line 92.


Package acronym Warning: Acronym `PWM' is not defined on input line 93.

) (D:\Dropbox\Work_2012_07+\DBMS_Chl\Latex\content/07_results.tex

Package acronym Warning: Acronym `EES' is not defined on input line 3.


Package acronym Warning: Acronym `EES' is not defined on input line 6.


Package acronym Warning: Acronym `MOSFET' is not defined on input line 28.


Underfull \vbox (badness 3312) has occurred while \output is active []

PGFPlots: reading {tikz/plotdata/cs1Time.txt}
A tikzpicture has been optimized away. Use '/tikz/external/optimize=false' to d
isable this.
PGFPlots: reading {tikz/plotdata/cs1Voltage.txt}
PGFPlots: reading {tikz/plotdata/cs1EndVoltage.txt}
PGFPlots: reading {tikz/plotdata/cs1EndVoltage.txt}
A tikzpicture has been optimized away. Use '/tikz/external/optimize=false' to d
isable this.
) (D:\Dropbox\Work_2012_07+\DBMS_Chl\Latex\content/99_conclusion.tex

Package acronym Warning: Acronym `EES' is not defined on input line 4.


Package acronym Warning: Acronym `EES' is not defined on input line 6.

)
No file tikzexternal/DBMS_Chl_externalize-figure1.bbl.
(D:\Dropbox\Work_2012_07+\DBMS_Chl\Latex\content/101a_modeling.tex
Package acronym Info: Label `acro:ODE' newly defined as it shall be overridden
although it is yet undefined on input line 3.

Package acronym Warning: Acronym `ODE' is not defined on input line 3.


Package acronym Warning: Acronym `ODE' is not defined on input line 3.


Package acronym Warning: Acronym `PWM' is not defined on input line 8.


Package acronym Warning: Acronym `MOSFET' is not defined on input line 12.


Package acronym Warning: Acronym `ODE' is not defined on input line 21.


Package acronym Warning: Acronym `ODE' is not defined on input line 25.


Underfull \vbox (badness 10000) has occurred while \output is active []


Package acronym Warning: Acronym `PWM' is not defined on input line 74.


Package acronym Warning: Acronym `PWM' is not defined on input line 74.

(D:\Dropbox\Work_2012_07+\DBMS_Chl\Latex\tikz/chargeinductor.tikz.tex
A tikzpicture has been optimized away. Use '/tikz/external/optimize=false' to d
isable this.
) (D:\Dropbox\Work_2012_07+\DBMS_Chl\Latex\tikz/chargebattery.tikz.tex
A tikzpicture has been optimized away. Use '/tikz/external/optimize=false' to d
isable this.
)) (D:\Dropbox\Work_2012_07+\DBMS_Chl\Latex\content/100_app_ode_derivation.tex

Package acronym Warning: Acronym `ODE' is not defined on input line 1.


Package acronym Warning: Acronym `ODE' is not defined on input line 1.


Package acronym Warning: Acronym `ODE' is not defined on input line 4.


Package acronym Warning: Acronym `ODE' is not defined on input line 20.


Package acronym Warning: Acronym `ODE' is not defined on input line 24.


Package acronym Warning: Acronym `ODE' is not defined on input line 28.

PGFPlots: reading {tikz/plotdata/underdampedtxshort.txt}
PGFPlots: reading {tikz/plotdata/underdampedrxshort.txt}
A tikzpicture has been optimized away. Use '/tikz/external/optimize=false' to d
isable this.
PGFPlots: reading {tikz/plotdata/overdampedtxshort.txt}
PGFPlots: reading {tikz/plotdata/overdampedrxshort.txt}
A tikzpicture has been optimized away. Use '/tikz/external/optimize=false' to d
isable this.
PGFPlots: reading {tikz/plotdata/critdampedtxshort.txt}
PGFPlots: reading {tikz/plotdata/critdampedrxshort.txt}
A tikzpicture has been optimized away. Use '/tikz/external/optimize=false' to d
isable this.
) (D:\Dropbox\Work_2012_07+\DBMS_Chl\Latex\content/101_app_linearization.tex) (
D:\Dropbox\Work_2012_07+\DBMS_Chl\Latex\content/102_app_second_casestudy.tex
PGFPlots: reading {tikz/plotdata/cs2Time.txt}
A tikzpicture has been optimized away. Use '/tikz/external/optimize=false' to d
isable this.
PGFPlots: reading {tikz/plotdata/cs2Voltage.txt}
PGFPlots: reading {tikz/plotdata/cs2EndVoltage.txt}
PGFPlots: reading {tikz/plotdata/cs2EndVoltage.txt}
A tikzpicture has been optimized away. Use '/tikz/external/optimize=false' to d
isable this.
) (D:\Dropbox\Work_2012_07+\DBMS_Chl\Latex\content/200_nomenclature.tex

Package acronym Warning: Acronym `MOSFET' is not defined on input line 16.


Package acronym Warning: Acronym `PWM' is not defined on input line 21.


Package acronym Warning: Acronym `PWM' is not defined on input line 21.


Package acronym Warning: Acronym `PWM' is not defined on input line 22.


Package acronym Warning: Acronym `PWM' is not defined on input line 23.

)

LaTeX Font Warning: Size substitutions with differences
(Font)              up to 0.65001pt have occurred.

 ) 
Here is how much of TeX's memory you used:
 31619 strings out of 493921
 749871 string characters out of 3144849
 1196971 words of memory out of 3000000
 34061 multiletter control sequences out of 15000+200000
 68640 words of font info for 101 fonts, out of 3000000 for 9000
 844 hyphenation exceptions out of 8191
 59i,18n,92p,987b,1077s stack positions out of 5000i,500n,10000p,200000b,50000s
<C:/Program Files (x86)/MiKTeX 2.9/fonts/type1/public/amsfonts/cm/cmmi6.pfb><
C:/Program Files (x86)/MiKTeX 2.9/fonts/type1/public/amsfonts/cm/cmmi9.pfb><C:/
Program Files (x86)/MiKTeX 2.9/fonts/type1/public/amsfonts/cm/cmr6.pfb>
Output written on tikzexternal/DBMS_Chl_externalize-figure1.pdf (1 page, 29371 
bytes).
PDF statistics:
 37 PDF objects out of 1000 (max. 8388607)
 0 named destinations out of 1000 (max. 500000)
 16493 words of extra memory for PDF output out of 17280 (max. 10000000)

